 ====== INIT VARIABLES VALUES ======
load_terminal_V_im                                : y =      -0.232212 yp =              0
load_terminal_V_re                                : y =       0.937837 yp =              0
load_PPu                                          : y =      0.0600044 yp =              0
load_QPu                                          : y =      0.0300036 yp =              0
load_SPu_im                                       : y =      0.0300036 yp =              0
load_SPu_re                                       : y =      0.0600044 yp =              0
load_UPu_value                                    : y =       0.966158 yp =              0
load_terminal_i_im                                : y =     -0.0450712 yp =              0
load_terminal_i_re                                : y =      0.0528218 yp =              0
 ====== INIT DISCRETE VARIABLES VALUES ======
load_PRefPu_value                                 : z =           0.06
load_QRefPu_value                                 : z =           0.03
load_running_value                                : z =              1
load_switchOffSignal1_value                       : z =             -1
load_switchOffSignal2_value                       : z =             -1
load_state                                        : z =              2
 ====== PARAMETERS VALUES ======
load_alpha                                         =            1.5
load_beta                                          =            2.5
load_i0Pu_im                                       =     -0.0450715
load_i0Pu_re                                       =      0.0528185
load_s0Pu_im                                       =           0.03
load_s0Pu_re                                       =           0.06
load_u0Pu_im                                       =      -0.232251
load_u0Pu_re                                       =       0.937779
load_NbSwitchOffSignals                            =              2
load_State0                                        =              2
