 ====== INIT VARIABLES VALUES ======
load_terminal_V_im                                : y =   -7.94586e-06 yp =              0
load_terminal_V_re                                : y =           1.04 yp =              0
load_PPu                                          : y =       0.549999 yp =              0
load_QPu                                          : y =           0.17 yp =              0
load_SPu_im                                       : y =           0.17 yp =              0
load_SPu_re                                       : y =       0.549999 yp =              0
load_UPu_value                                    : y =           1.04 yp =              0
load_terminal_i_im                                : y =      -0.163465 yp =              0
load_terminal_i_re                                : y =       0.528845 yp =              0
 ====== INIT DISCRETE VARIABLES VALUES ======
load_PRefPu_value                                 : z =           0.55
load_QRefPu_value                                 : z =           0.17
load_running_value                                : z =              1
load_switchOffSignal1_value                       : z =             -1
load_switchOffSignal2_value                       : z =             -1
load_state                                        : z =              2
 ====== PARAMETERS VALUES ======
load_alpha                                         =            1.5
load_beta                                          =            2.5
load_i0Pu_im                                       =      -0.163462
load_i0Pu_re                                       =       0.528846
load_s0Pu_im                                       =           0.17
load_s0Pu_re                                       =           0.55
load_u0Pu_im                                       =              0
load_u0Pu_re                                       =           1.04
load_NbSwitchOffSignals                            =              2
load_State0                                        =              2
