 ====== INIT VARIABLES VALUES ======
load_terminal_V_im                                : y =       -0.20891 yp =              0
load_terminal_V_re                                : y =       0.995081 yp =              0
load_PPu                                          : y =       0.120019 yp =              0
load_QPu                                          : y =      0.0180048 yp =              0
load_SPu_im                                       : y =      0.0180048 yp =              0
load_SPu_re                                       : y =       0.120019 yp =              0
load_UPu_value                                    : y =        1.01677 yp =              0
load_terminal_i_im                                : y =     -0.0415826 yp =              0
load_terminal_i_re                                : y =       0.111882 yp =              0
 ====== INIT DISCRETE VARIABLES VALUES ======
load_PRefPu_value                                 : z =           0.12
load_QRefPu_value                                 : z =          0.018
load_running_value                                : z =              1
load_switchOffSignal1_value                       : z =             -1
load_switchOffSignal2_value                       : z =             -1
load_state                                        : z =              2
 ====== PARAMETERS VALUES ======
load_alpha                                         =            1.5
load_beta                                          =            2.5
load_i0Pu_im                                       =     -0.0415852
load_i0Pu_re                                       =       0.111874
load_s0Pu_im                                       =          0.018
load_s0Pu_re                                       =           0.12
load_u0Pu_im                                       =      -0.208946
load_u0Pu_re                                       =       0.994964
load_NbSwitchOffSignals                            =              2
load_State0                                        =              2
