 ====== INIT VARIABLES VALUES ======
load_terminal_V_im                                : y =       -0.15606 yp =              0
load_terminal_V_re                                : y =        1.00131 yp =              0
load_PPu                                          : y =       0.430041 yp =              0
load_QPu                                          : y =      0.0300047 yp =              0
load_SPu_im                                       : y =      0.0300047 yp =              0
load_SPu_re                                       : y =       0.430041 yp =              0
load_UPu_value                                    : y =         1.0134 yp =              0
load_terminal_i_im                                : y =     -0.0946042 yp =              0
load_terminal_i_re                                : y =       0.414734 yp =              0
 ====== INIT DISCRETE VARIABLES VALUES ======
load_PRefPu_value                                 : z =           0.43
load_QRefPu_value                                 : z =           0.03
load_running_value                                : z =              1
load_switchOffSignal1_value                       : z =             -1
load_switchOffSignal2_value                       : z =             -1
load_state                                        : z =              2
 ====== PARAMETERS VALUES ======
load_alpha                                         =            1.5
load_beta                                          =            2.5
load_i0Pu_im                                       =     -0.0946094
load_i0Pu_re                                       =       0.414719
load_s0Pu_im                                       =           0.03
load_s0Pu_re                                       =           0.43
load_u0Pu_im                                       =      -0.156074
load_u0Pu_re                                       =        1.00124
load_NbSwitchOffSignals                            =              2
load_State0                                        =              2
