time;NETWORK__BUS____1_TN_Upu_value;NETWORK__BUS____2_TN_Upu_value;NETWORK__BUS____3_TN_Upu_value;NETWORK__BUS____4_TN_Upu_value;NETWORK__BUS____5_TN_Upu_value;NETWORK__BUS____6_TN_Upu_value;NETWORK__BUS____7_TN_Upu_value;NETWORK__BUS____8_TN_Upu_value;NETWORK__BUS____9_TN_Upu_value;NETWORK__BUS___10_TN_Upu_value;NETWORK__BUS___11_TN_Upu_value;NETWORK__BUS___12_TN_Upu_value;NETWORK__BUS___13_TN_Upu_value;NETWORK__BUS___14_TN_Upu_value;GEN____1_SM_generator_omegaPu;GEN____2_SM_generator_omegaPu;GEN____3_SM_generator_omegaPu;GEN____6_SM_generator_omegaPu;GEN____8_SM_generator_omegaPu;GEN____1_SM_generator_PGen;GEN____2_SM_generator_PGen;GEN____3_SM_generator_PGen;GEN____6_SM_generator_PGen;GEN____8_SM_generator_PGen;GEN____1_SM_generator_QGen;GEN____2_SM_generator_QGen;GEN____3_SM_generator_QGen;GEN____6_SM_generator_QGen;GEN____8_SM_generator_QGen;GEN____3_SM_generator_running;_LOAD___2_EC_load_PPu;_LOAD___2_EC_load_QPu;_LOAD___3_EC_load_PPu;_LOAD___3_EC_load_QPu;UVA_underVoltageAutomaton_UMinPu;
0;1.06002;1.04505;1.01;1.01771;1.01957;1.07016;1.06154;1.08993;1.05599;1.05106;1.05702;1.05534;1.05053;1.03567;1;1;1;1;1;232.376;40.0971;-0.0843781;0.0026515;-0.00617124;-16.6166;43.6197;25.0599;12.8011;17.5672;1;0.216993;0.126993;0.942004;0.190001;0.85;
1e-06;1.06002;1.04505;1.01;1.01771;1.01957;1.07016;1.06154;1.08993;1.05599;1.05106;1.05702;1.05534;1.05053;1.03567;1;1;1;1;1;232.376;40.0971;-0.084378;0.00265173;-0.00617124;-16.6166;43.6197;25.0599;12.8011;17.5672;1;0.216993;0.126993;0.942004;0.190001;0.85;
2e-06;1.06002;1.04505;1.01;1.01771;1.01957;1.07016;1.06154;1.08993;1.05599;1.05106;1.05702;1.05534;1.05053;1.03567;1;1;1;1;1;232.376;40.0971;-0.0843778;0.00265165;-0.00617122;-16.6166;43.6197;25.0599;12.8011;17.5672;1;0.216993;0.126993;0.942004;0.190001;0.85;
4e-06;1.06002;1.04505;1.01;1.01771;1.01957;1.07016;1.06154;1.08993;1.05599;1.05106;1.05702;1.05534;1.05053;1.03567;1;1;1;1;1;232.376;40.0971;-0.0843775;0.00265164;-0.0061712;-16.6166;43.6197;25.0599;12.8011;17.5672;1;0.216993;0.126993;0.942004;0.190001;0.85;
8e-06;1.06002;1.04505;1.01;1.01771;1.01957;1.07016;1.06154;1.08993;1.05599;1.05106;1.05702;1.05534;1.05053;1.03567;1;1;1;1;1;232.376;40.0971;-0.0843768;0.0026512;-0.00617113;-16.6166;43.6197;25.0599;12.8011;17.5672;1;0.216993;0.126993;0.942004;0.190001;0.85;
1.6e-05;1.06002;1.04505;1.01;1.01771;1.01957;1.07016;1.06154;1.08993;1.05599;1.05106;1.05702;1.05534;1.05053;1.03567;1;1;1;1;1;232.376;40.0971;-0.0843753;0.0026506;-0.00617101;-16.6166;43.6197;25.0599;12.8011;17.5672;1;0.216993;0.126993;0.942004;0.190001;0.85;
3.2e-05;1.06002;1.04505;1.01;1.01771;1.01957;1.07016;1.06154;1.08993;1.05599;1.05106;1.05702;1.05534;1.05053;1.03567;1;1;1;1;1;232.376;40.0971;-0.0843725;0.0026494;-0.00617077;-16.6166;43.6197;25.0599;12.8011;17.5672;1;0.216993;0.126993;0.942004;0.190001;0.85;
6.4e-05;1.06002;1.04505;1.01;1.01771;1.01957;1.07016;1.06154;1.08993;1.05599;1.05106;1.05702;1.05534;1.05053;1.03567;1;1;1;1;1;232.376;40.0971;-0.0843668;0.002647;-0.00617029;-16.6166;43.6197;25.0599;12.8011;17.5672;1;0.216993;0.126993;0.942004;0.190001;0.85;
0.000128;1.06002;1.04505;1.01;1.01771;1.01957;1.07016;1.06154;1.08993;1.05599;1.05106;1.05702;1.05534;1.05053;1.03567;1;1;1;1;1;232.376;40.097;-0.0843554;0.00264222;-0.00616934;-16.6166;43.6197;25.0599;12.8011;17.5672;1;0.216993;0.126993;0.942004;0.190001;0.85;
0.000256;1.06002;1.04505;1.01;1.01771;1.01957;1.07016;1.06154;1.08993;1.05599;1.05106;1.05702;1.05534;1.05053;1.03567;1;1;1;1;1;232.376;40.097;-0.0843326;0.00263268;-0.00616742;-16.6166;43.6197;25.0599;12.801;17.5672;1;0.216993;0.126993;0.942004;0.190001;0.85;
0.000512;1.06002;1.04505;1.01;1.01771;1.01957;1.07016;1.06154;1.08993;1.05599;1.05106;1.05702;1.05534;1.05053;1.03567;1;1;1;1;1;232.376;40.0969;-0.0842871;0.00261376;-0.00616359;-16.6165;43.6196;25.0599;12.8009;17.5673;1;0.216993;0.126993;0.942004;0.190001;0.85;
0.001024;1.06002;1.04505;1.01;1.01771;1.01957;1.07016;1.06154;1.08993;1.05599;1.05106;1.05702;1.05534;1.05053;1.03567;1;1;1;1;1;232.376;40.0967;-0.0841963;0.0025765;-0.00615596;-16.6164;43.6196;25.06;12.8007;17.5673;1;0.216993;0.126993;0.942004;0.190001;0.85;
0.002048;1.06002;1.04505;1.01;1.01771;1.01957;1.07016;1.06154;1.08993;1.05599;1.05106;1.05702;1.05534;1.05053;1.03567;1;1;1;1;1;232.376;40.0963;-0.0840154;0.00250428;-0.00614077;-16.6161;43.6196;25.06;12.8003;17.5674;1;0.216993;0.126993;0.942004;0.190001;0.85;
0.004096;1.06002;1.04505;1.01;1.01771;1.01957;1.07016;1.06154;1.08993;1.05599;1.05106;1.05702;1.05534;1.05053;1.03566;1;1;1;1;1;232.377;40.0956;-0.0836561;0.00236847;-0.00611061;-16.6157;43.6195;25.0602;12.7995;17.5676;1;0.216993;0.126993;0.942004;0.190001;0.85;
0.008192;1.06002;1.04505;1.01;1.01771;1.01957;1.07015;1.06154;1.08993;1.05599;1.05106;1.05702;1.05534;1.05053;1.03566;1;1;1;1;1;232.377;40.0941;-0.0829464;0.00212749;-0.00605073;-16.6148;43.6194;25.0604;12.798;17.5679;1;0.216993;0.126993;0.942004;0.190001;0.85;
0.016384;1.06002;1.04505;1.01;1.01771;1.01957;1.07015;1.06154;1.08993;1.05599;1.05106;1.05702;1.05533;1.05052;1.03566;1;1;1;1;1;232.379;40.0912;-0.0815498;0.00174318;-0.00592949;-16.6133;43.6191;25.0607;12.7955;17.5686;1;0.216993;0.126993;0.942004;0.190001;0.85;
0.032768;1.06002;1.04505;1.01;1.01771;1.01956;1.07014;1.06153;1.08993;1.05598;1.05105;1.05701;1.05533;1.05052;1.03566;1;1;1;1;1;232.381;40.0854;-0.0787795;0.00123027;-0.00566505;-16.6109;43.6185;25.0611;12.7919;17.5695;1;0.216993;0.126993;0.942004;0.190001;0.85;
0.065536;1.06002;1.04505;1.01;1.01771;1.01956;1.07013;1.06153;1.08993;1.05598;1.05105;1.057;1.05532;1.05051;1.03565;1;1;1;1;1;232.386;40.0737;-0.0730278;0.000684068;-0.00499712;-16.6079;43.6177;25.0608;12.7875;17.5707;1;0.216992;0.126992;0.942005;0.190002;0.85;
0.131072;1.06002;1.04505;1.01;1.01771;1.01956;1.07013;1.06153;1.08993;1.05598;1.05105;1.057;1.05531;1.05051;1.03565;1;0.999999;1;1;1;232.395;40.049;-0.0599628;0.000113089;-0.00313718;-16.6049;43.6172;25.0583;12.7835;17.572;1;0.216992;0.126992;0.942007;0.190002;0.85;
0.262144;1.06002;1.04504;1.01001;1.01771;1.01956;1.07012;1.06153;1.08993;1.05598;1.05105;1.057;1.05531;1.0505;1.03565;1;0.999999;1;1;1;232.402;40.0065;-0.0293447;-0.000392484;0.000549248;-16.6033;43.6175;25.0498;12.7811;17.5728;1;0.216991;0.126992;0.942012;0.190004;0.85;
0.524288;1.06002;1.04504;1.01001;1.01771;1.01956;1.07012;1.06153;1.08994;1.05598;1.05104;1.05699;1.0553;1.0505;1.03564;1;1;1;1;1;232.389;39.9779;0.0079833;-0.000514394;0.00154641;-16.5983;43.6132;25.0396;12.7759;17.5745;1;0.216991;0.126991;0.942018;0.190006;0.85;
1.04858;1.06002;1.04504;1.01001;1.01771;1.01956;1.07011;1.06153;1.08994;1.05598;1.05104;1.05699;1.05529;1.05049;1.03564;1;1;1;1;1;232.378;39.9857;0.0112918;-0.000363016;-0.000130727;-16.591;43.6056;25.0409;12.7686;17.578;1;0.216991;0.126991;0.94202;0.190007;0.85;
2.09715;1.06003;1.04504;1.01001;1.01771;1.01956;1.0701;1.06154;1.08995;1.05598;1.05104;1.05698;1.05528;1.05048;1.03563;1;1;1;1;1;232.383;39.9957;-0.00276745;-0.000241112;-0.000395938;-16.5831;43.5971;25.0487;12.7608;17.5832;1;0.21699;0.126991;0.94202;0.190007;0.85;
4.1943;1.06003;1.04504;1.01002;1.01771;1.01956;1.07009;1.06154;1.08997;1.05598;1.05104;1.05698;1.05528;1.05047;1.03563;1;1;1;1;1;232.384;39.9967;-0.00490157;-0.000219712;-0.000320862;-16.5752;43.5866;25.0526;12.7546;17.5889;1;0.21699;0.12699;0.942023;0.190008;0.85;
8.38861;1.06003;1.04504;1.01002;1.01771;1.01956;1.07009;1.06155;1.08998;1.05598;1.05104;1.05698;1.05528;1.05047;1.03564;1;1;1;1;1;232.384;39.9969;-0.00413563;-0.000202044;-0.000290173;-16.5697;43.5776;25.0546;12.7516;17.5939;1;0.21699;0.12699;0.942029;0.19001;0.85;
16.7772;1.06004;1.04504;1.01003;1.01772;1.01957;1.07009;1.06156;1.08999;1.05599;1.05105;1.05698;1.05528;1.05048;1.03564;1;1;1;1;1;232.385;39.9974;-0.00336777;-0.000169877;-0.000237337;-16.5671;43.5727;25.0553;12.7506;17.5969;1;0.216991;0.126992;0.942036;0.190012;0.85;
20;1.06004;1.04505;1.01003;1.01772;1.01957;1.07009;1.06156;1.09;1.05599;1.05105;1.05699;1.05528;1.05048;1.03564;1;1;1;1;1;232.385;39.9976;-0.00318802;-0.000162101;-0.000224202;-16.5669;43.5723;25.0553;12.7505;17.5973;1;0.216992;0.126992;0.942037;0.190013;0.85;
20;1.04539;1.00251;0.965331;0.987354;0.991507;1.05609;1.04234;1.08113;1.03637;1.03252;1.04068;1.04107;1.03587;1.01846;1;1;1;1;1;254.532;83.7823;88.3508;4.77129;3.1697;32.7734;159.895;179.084;20.131;23.8125;1;0.93954;1.80255;1.8688;1.78614;0.85;
20;1.04538;1.00251;0.965325;0.98735;0.991504;1.05608;1.04234;1.08112;1.03637;1.03252;1.04068;1.04107;1.03587;1.01846;1;1;1;1;1;254.532;83.7817;88.35;4.7714;3.16981;32.7771;159.895;179.082;20.1316;23.8132;1;0.939535;1.80255;1.86878;1.78613;0.85;
20;1.04539;1.00251;0.96533;0.987354;0.991507;1.05609;1.04234;1.08113;1.03637;1.03252;1.04068;1.04107;1.03587;1.01846;1;1;1;1;1;254.532;83.7822;88.3507;4.77118;3.16976;32.7736;159.895;179.084;20.131;23.8126;1;0.93954;1.80255;1.86879;1.78614;0.85;
20;1.04539;1.00251;0.965328;0.987352;0.991506;1.05609;1.04234;1.08113;1.03637;1.03252;1.04068;1.04107;1.03587;1.01846;1;1;1;1;1;254.532;83.782;88.3504;4.7711;3.16983;32.7747;159.894;179.083;20.1311;23.8128;1;0.939538;1.80255;1.86879;1.78614;0.85;
20;1.04539;1.00251;0.965328;0.987352;0.991505;1.05608;1.04234;1.08113;1.03637;1.03252;1.04068;1.04107;1.03587;1.01846;1;1;1;1;1;254.532;83.7817;88.3501;4.77087;3.16993;32.7751;159.894;179.082;20.1311;23.8129;1;0.939537;1.80255;1.86879;1.78613;0.85;
20;1.04538;1.00251;0.965326;0.987351;0.991504;1.05608;1.04234;1.08112;1.03637;1.03252;1.04068;1.04107;1.03587;1.01846;1;1;1;1;1;254.533;83.7812;88.3496;4.77042;3.17014;32.7761;159.893;179.081;20.1311;23.8132;1;0.939535;1.80254;1.86878;1.78612;0.85;
20;1.04538;1.00251;0.965323;0.987348;0.991501;1.05608;1.04234;1.08112;1.03637;1.03252;1.04068;1.04106;1.03586;1.01846;1;1;1;1;1;254.534;83.7803;88.3485;4.76951;3.17055;32.7779;159.89;179.079;20.131;23.8137;1;0.939532;1.80253;1.86877;1.78611;0.85;
20.0001;1.04538;1.0025;0.965316;0.987343;0.991496;1.05608;1.04233;1.08112;1.03636;1.03251;1.04067;1.04106;1.03586;1.01846;1;1;1;1;1;254.535;83.7783;88.3463;4.76768;3.17138;32.7816;159.886;179.074;20.1308;23.8147;1;0.939524;1.80251;1.86875;1.78608;0.85;
20.0001;1.04537;1.00249;0.965302;0.987333;0.991486;1.05607;1.04233;1.08112;1.03636;1.0325;1.04066;1.04105;1.03585;1.01845;1;1;1;1;1;254.539;83.7744;88.3419;4.76405;3.17303;32.7891;159.878;179.065;20.1305;23.8168;1;0.93951;1.80246;1.86871;1.78601;0.85;
20.0003;1.04536;1.00247;0.965275;0.987313;0.991467;1.05604;1.04231;1.08111;1.03634;1.03249;1.04065;1.04103;1.03583;1.01843;1;1;1;1;1;254.546;83.7667;88.3332;4.75681;3.17633;32.8039;159.86;179.047;20.1298;23.8209;1;0.93948;1.80237;1.86863;1.78589;0.85;
20.0005;1.04533;1.00243;0.96522;0.987273;0.991427;1.056;1.04228;1.08109;1.03631;1.03246;1.04061;1.04099;1.03579;1.0184;1;1;1;1;1;254.559;83.7512;88.3157;4.74245;3.18291;32.8334;159.826;179.011;20.1286;23.829;1;0.939422;1.80218;1.86848;1.78564;0.85;
20.001;1.04528;1.00235;0.965112;0.987193;0.991349;1.05592;1.04222;1.08106;1.03625;1.03239;1.04054;1.04091;1.03571;1.01833;1;1;0.999999;0.999998;1;254.586;83.7204;88.2807;4.71422;3.19595;32.8918;159.758;178.938;20.126;23.8452;1;0.939306;1.80181;1.86816;1.78514;0.85;
20.002;1.04518;1.00218;0.964899;0.987037;0.991195;1.05576;1.04211;1.081;1.03612;1.03226;1.0404;1.04075;1.03556;1.0182;1;0.999998;0.999994;0.999992;0.999999;254.64;83.6593;88.2105;4.65959;3.22162;33.0067;159.624;178.795;20.1212;23.8771;1;0.939076;1.80107;1.86754;1.78415;0.85;
20.0041;1.04498;1.00186;0.96448;0.986731;0.990895;1.05545;1.04189;1.08089;1.03588;1.03201;1.04012;1.04045;1.03527;1.01794;0.999997;0.999991;0.999984;0.99998;0.999994;254.746;83.539;88.0698;4.55731;3.27139;33.2289;159.363;178.516;20.1124;23.939;1;0.938628;1.79964;1.86633;1.78222;0.85;
20.0082;1.0446;1.00126;0.96368;0.986149;0.990324;1.05487;1.04146;1.08066;1.03543;1.03154;1.0396;1.03989;1.03472;1.01745;0.99999;0.999979;0.999965;0.999957;0.999984;254.952;83.306;87.7874;4.37753;3.36524;33.6439;158.873;177.986;20.0977;24.056;1;0.937774;1.79691;1.86401;1.77852;0.85;
20.0164;1.0439;1.00014;0.96221;0.985092;0.989291;1.05384;1.04069;1.08024;1.0346;1.03069;1.03866;1.03888;1.03373;1.01656;0.999976;0.999954;0.999926;0.999913;0.999964;255.351;82.8692;87.2207;4.09699;3.53392;34.371;158.002;177.026;20.0785;24.2658;1;0.936213;1.79193;1.85974;1.77175;0.85;
20.0328;1.04267;0.998268;0.959708;0.98332;0.987565;1.05217;1.03939;1.07953;1.03321;1.02926;1.03713;1.03724;1.03213;1.01511;0.999946;0.999904;0.99985;0.999831;0.99992;256.13;82.0996;86.0907;3.74245;3.81653;35.4975;156.621;175.445;20.0683;24.6078;1;0.93358;1.78354;1.85249;1.76025;0.85;
20.0492;1.04166;0.996773;0.957696;0.981918;0.986205;1.05091;1.03836;1.07894;1.03211;1.02815;1.03595;1.036;1.03091;1.01397;0.999916;0.999855;0.999774;0.999755;0.999873;256.923;81.4505;84.9707;3.56635;4.04538;36.2767;155.631;174.25;20.0838;24.8667;1;0.931483;1.77687;1.84667;1.75104;0.85;
20.0655;1.04082;0.995565;0.956062;0.980789;0.985111;1.04992;1.03752;1.07844;1.03122;1.02725;1.03501;1.03503;1.02996;1.01307;0.999885;0.999807;0.9997;0.999681;0.999824;257.763;80.8986;83.8612;3.47582;4.23974;36.8082;154.932;173.362;20.1132;25.0651;1;0.92979;1.77149;1.84194;1.74357;0.85;
20.0819;1.04011;0.994571;0.954715;0.979858;0.984208;1.04913;1.03682;1.07801;1.03049;1.02651;1.03425;1.03425;1.02918;1.01233;0.999852;0.99976;0.999626;0.99961;0.999772;258.668;80.4235;82.7571;3.41678;4.41147;37.1677;154.446;172.715;20.149;25.2204;1;0.928397;1.76706;1.83805;1.73744;0.85;
20.0983;1.03951;0.993733;0.953585;0.97907;0.983441;1.04846;1.03623;1.07763;1.02986;1.02589;1.03361;1.0336;1.02853;1.01171;0.999819;0.999713;0.999553;0.99954;0.999719;259.644;80.0098;81.6509;3.36138;4.56718;37.4099;154.11;172.256;20.1862;25.3451;1;0.927224;1.76335;1.83479;1.73231;0.85;
20.1311;1.03849;0.992341;0.951727;0.977743;0.982142;1.04733;1.03521;1.07696;1.02881;1.02483;1.03252;1.03249;1.02744;1.01065;0.999748;0.999621;0.999411;0.999404;0.999607;261.791;79.3245;79.396;3.21756;4.84278;37.7109;153.697;171.722;20.2561;25.5428;1;0.925277;1.75718;1.82943;1.72388;0.85;
20.1638;1.03767;0.991219;0.950257;0.976651;0.981064;1.04639;1.03436;1.07637;1.02793;1.02395;1.03162;1.03156;1.02652;1.00977;0.999671;0.99953;0.999273;0.999275;0.999489;264.151;78.8174;77.0608;3.03097;5.07169;37.8559;153.518;171.578;20.3199;25.6933;1;0.923709;1.75222;1.8252;1.71723;0.85;
20.2294;1.0363;0.989311;0.947795;0.974727;0.979155;1.04471;1.03284;1.07531;1.02636;1.02238;1.03;1.0299;1.02488;1.0082;0.999498;0.99935;0.999009;0.999044;0.99924;269.129;78.345;72.1109;2.59056;5.38145;38.04;153.381;171.88;20.4341;25.9462;1;0.921042;1.7438;1.81811;1.70613;0.85;
20.2949;1.03514;0.987665;0.945689;0.972987;0.97743;1.04318;1.03145;1.07432;1.02492;1.02094;1.02853;1.0284;1.02339;1.00676;0.999301;0.99917;0.998763;0.998848;0.998983;274.075;78.641;66.8699;2.15246;5.48224;38.2047;153.346;172.674;20.5365;26.1687;1;0.918745;1.73655;1.81205;1.69667;0.85;
20.3604;1.03407;0.986128;0.943693;0.9713;0.975771;1.04173;1.03009;1.07335;1.02351;1.01952;1.0271;1.02697;1.02197;1.00536;0.999081;0.998986;0.998536;0.998681;0.998726;278.522;79.7176;61.5207;1.82443;5.37477;38.4459;153.235;173.649;20.6262;26.3875;1;0.9166;1.7298;1.80632;1.68773;0.85;
20.426;1.03303;0.984656;0.941737;0.969646;0.974164;1.04034;1.02874;1.07241;1.02209;1.01812;1.0257;1.02559;1.02059;1.00398;0.998841;0.998796;0.998328;0.998533;0.998478;282.111;81.5032;56.3068;1.6779;5.0871;38.7798;152.969;174.614;20.6953;26.6067;1;0.914549;1.72335;1.80071;1.67901;0.85;
20.4915;1.032;0.983251;0.939824;0.968049;0.972634;1.03903;1.02743;1.07149;1.0207;1.01674;1.02435;1.02429;1.01928;1.00264;0.998586;0.998597;0.998137;0.998387;0.998246;284.626;83.8377;51.4803;1.73509;4.67582;39.1935;152.516;175.44;20.7355;26.821;1;0.912593;1.71722;1.79523;1.67051;0.85;
20.5571;1.03099;0.981925;0.93799;0.966547;0.971209;1.03779;1.02617;1.07061;1.01936;1.01543;1.02307;1.02307;1.01804;1.00136;0.998322;0.998386;0.997961;0.99823;0.998034;285.989;86.4842;47.2801;1.96969;4.21851;39.6646;151.875;176.032;20.7414;27.0222;1;0.910748;1.71144;1.78998;1.66237;0.85;
20.6226;1.03;0.980686;0.936268;0.965169;0.969911;1.03664;1.025;1.06977;1.0181;1.01419;1.02187;1.02193;1.01688;1.00017;0.998053;0.998163;0.997799;0.998049;0.997842;286.241;89.1618;43.907;2.31741;3.80022;40.1691;151.06;176.318;20.7127;27.2024;1;0.909025;1.70604;1.78505;1.65475;0.85;
20.6881;1.02905;0.979533;0.934686;0.963931;0.968746;1.03556;1.02394;1.069;1.01696;1.01306;1.02076;1.02087;1.0158;0.999068;0.997785;0.997928;0.997647;0.99784;0.997667;285.523;91.5821;41.5115;2.69362;3.4978;40.6844;150.104;176.248;20.6548;27.3551;1;0.907422;1.70103;1.78053;1.64776;0.85;
20.7537;1.02811;0.978457;0.93326;0.962837;0.967707;1.03454;1.02298;1.06827;1.01594;1.01204;1.01974;1.01987;1.01479;0.998067;0.997523;0.997683;0.997501;0.997604;0.997501;284.038;93.483;40.1841;3.01365;3.36561;41.1904;149.046;175.797;20.5762;27.4767;1;0.905926;1.69636;1.77645;1.64148;0.85;
20.8192;1.0272;0.977442;0.931994;0.961874;0.966778;1.03357;1.02213;1.06759;1.01504;1.01113;1.0188;1.01891;1.01385;0.997159;0.997269;0.997432;0.997358;0.997348;0.997336;282.018;94.6583;39.9518;3.21131;3.42538;41.6707;147.933;174.968;20.4874;27.5662;1;0.904518;1.69197;1.77283;1.63591;0.85;
20.8847;1.02631;0.976472;0.930882;0.961022;0.965935;1.03263;1.02136;1.06695;1.01425;1.01032;1.01793;1.01799;1.01294;0.996331;0.997026;0.997177;0.997214;0.997082;0.997164;279.696;94.9781;40.7768;3.25175;3.66241;42.1144;146.811;173.79;20.3985;27.6261;1;0.903171;1.68777;1.76965;1.63102;0.85;
20.9503;1.02542;0.975528;0.929907;0.96025;0.965151;1.03171;1.02066;1.06633;1.01354;1.00959;1.01711;1.01709;1.01207;0.995564;0.996794;0.996923;0.997066;0.996821;0.996978;277.277;94.4007;42.5605;3.13636;4.02849;42.5158;145.718;172.311;20.3172;27.6616;1;0.901861;1.68369;1.76687;1.62675;0.85;
21.0813;1.02365;0.973635;0.928217;0.958789;0.963635;1.02992;1.01931;1.06509;1.0122;1.00819;1.01555;1.01534;1.01038;0.994099;0.996364;0.996436;0.996741;0.99635;0.996554;272.859;91.0541;48.0692;2.66671;4.76042;43.2027;143.734;168.84;20.194;27.6997;1;0.899238;1.67554;1.76206;1.61938;0.85;
21.1965;1.02208;0.971934;0.926907;0.9575;0.96229;1.02838;1.0181;1.06397;1.01101;1.00697;1.01419;1.01384;1.00893;0.992821;0.996018;0.996039;0.996419;0.995999;0.996139;269.671;86.4462;54.1782;2.20308;5.15489;43.6992;142.226;165.529;20.125;27.7254;1;0.896883;1.66823;1.75834;1.61368;0.85;
21.3118;1.02047;0.970168;0.925594;0.956098;0.960857;1.02687;1.01681;1.06281;1.00971;1.00565;1.01278;1.01235;1.00747;0.991476;0.995697;0.99568;0.996062;0.995695;0.995714;267.299;81.4478;60.2223;1.92057;5.09495;44.1325;140.916;162.393;20.0841;27.7787;1;0.894439;1.66066;1.7546;1.60797;0.85;
21.427;1.01883;0.968336;0.924155;0.954541;0.959304;1.02536;1.01539;1.06162;1.00826;1.0042;1.0113;1.01086;1.00599;0.990034;0.995393;0.995357;0.995672;0.995409;0.995314;265.725;77.1368;65.1125;1.8912;4.59482;44.5246;139.748;159.744;20.0626;27.8779;1;0.891907;1.65284;1.75051;1.60173;0.85;
21.5422;1.01716;0.966458;0.922509;0.952836;0.957631;1.02382;1.01388;1.06041;1.00669;1.00263;1.00975;1.00935;1.00447;0.988501;0.9951;0.995061;0.995259;0.995114;0.994964;264.866;74.2883;68.0457;2.04398;3.86184;44.8819;138.661;157.777;20.0576;28.0251;1;0.889314;1.64484;1.74584;1.59461;0.85;
21.6574;1.01547;0.964554;0.920624;0.951018;0.955855;1.02224;1.0123;1.05919;1.00503;1.001;1.00814;1.00778;1.00289;0.986906;0.994811;0.994781;0.994835;0.994798;0.994667;264.652;73.2294;68.6191;2.23533;3.19141;45.2004;137.622;156.564;20.0721;28.2086;1;0.886687;1.63674;1.74049;1.58647;0.85;
21.7726;1.01378;0.962634;0.918502;0.949131;0.954004;1.02061;1.01069;1.05798;1.00336;0.999341;1.0065;1.00617;1.00128;0.985281;0.994522;0.994501;0.994416;0.994464;0.994409;265.043;73.8348;66.8627;2.34173;2.83526;45.4739;136.633;156.066;20.1103;28.4094;1;0.884041;1.62861;1.73448;1.57735;0.85;
21.8878;1.01209;0.960709;0.916195;0.947215;0.952114;1.01894;1.00909;1.05676;1.0017;0.997693;1.00484;1.00453;0.999635;0.983655;0.994227;0.994213;0.994013;0.994126;0.994157;265.985;75.591;63.2506;2.32779;2.89168;45.6973;135.71;156.129;20.1707;28.6083;1;0.881383;1.62046;1.72794;1.56746;0.85;
22.003;1.01039;0.958764;0.913745;0.945279;0.950195;1.01725;1.00749;1.05554;1.00006;0.996059;1.00319;1.00286;0.997977;0.982033;0.993921;0.993908;0.993635;0.993796;0.993887;267.387;77.9334;58.4361;2.2373;3.29154;45.886;134.889;156.574;20.2492;28.7968;1;0.878706;1.61226;1.72102;1.557;0.85;
22.1182;1.00869;0.956797;0.911226;0.94333;0.948262;1.01555;1.00588;1.05427;0.998416;0.994418;1.00153;1.00118;0.996311;0.980404;0.993601;0.993585;0.993288;0.993476;0.993578;269.106;80.3218;53.1439;2.14447;3.87654;46.053;134.179;157.198;20.3373;28.9738;1;0.876012;1.60403;1.71391;1.54629;0.85;
22.2334;1.00701;0.954843;0.908746;0.941399;0.946355;1.01388;1.00426;1.05297;0.996767;0.992779;0.999876;0.999529;0.994668;0.978784;0.993267;0.993246;0.992971;0.993161;0.993226;270.887;82.2279;48.2467;2.12916;4.40358;46.202;133.544;157.718;20.4193;29.1362;1;0.87333;1.59586;1.70691;1.53579;0.85;
22.3486;1.00534;0.952919;0.906388;0.939502;0.944489;1.01225;1.00264;1.05166;0.995113;0.991139;0.998244;0.997914;0.993056;0.977172;0.992918;0.992894;0.99268;0.99284;0.992845;272.434;83.4005;44.4056;2.20874;4.68623;46.3506;132.939;157.929;20.487;29.2873;1;0.870691;1.58783;1.70027;1.52585;0.85;
22.4638;1.0037;0.951051;0.904222;0.937663;0.942689;1.01066;1.00104;1.05036;0.993474;0.989518;0.996642;0.996347;0.991484;0.975586;0.992559;0.992537;0.992407;0.992505;0.992455;273.45;83.7719;42.0577;2.33703;4.64931;46.5087;132.305;157.683;20.5368;29.4279;1;0.868132;1.58006;1.69418;1.51675;0.85;
22.579;1.00208;0.949263;0.902287;0.935915;0.940974;1.00913;0.999494;1.0491;0.991886;0.987949;0.995091;0.994831;0.989963;0.97405;0.992194;0.992179;0.992144;0.992155;0.99208;273.708;83.4161;41.3636;2.43505;4.34119;46.681;131.584;156.916;20.5706;29.5564;1;0.865686;1.57265;1.68875;1.50865;0.85;
22.6942;1.0005;0.94757;0.900584;0.934282;0.939363;1.00765;0.998036;1.04789;0.990388;0.986463;0.993612;0.993372;0.988503;0.972591;0.991831;0.991826;0.991879;0.991799;0.991735;273.099;82.4825;42.2134;2.43768;3.89785;46.8659;130.748;155.655;20.593;29.6694;1;0.863371;1.56564;1.68397;1.50155;0.85;
22.8094;0.998954;0.945969;0.899082;0.932778;0.937866;1.00624;0.996681;1.04675;0.989005;0.985085;0.99222;0.991976;0.987113;0.971226;0.991477;0.991482;0.991606;0.991453;0.991424;271.67;81.1438;44.2724;2.32903;3.48053;47.0554;129.796;154.008;20.6082;29.7628;1;0.861184;1.55904;1.67976;1.49529;0.85;
22.9246;0.997438;0.944445;0.897719;0.931399;0.936478;1.00489;0.99543;1.04567;0.98774;0.983817;0.99092;0.99065;0.985801;0.96996;0.991138;0.99115;0.991319;0.991127;0.991138;269.622;79.568;47.0551;2.14885;3.21455;47.236;128.761;152.137;20.6181;29.8344;1;0.859104;1.55277;1.67594;1.48963;0.85;
23.0398;0.995945;0.942972;0.896427;0.930118;0.93518;1.00361;0.994263;1.04464;0.98657;0.982641;0.989701;0.98939;0.984559;0.968778;0.990818;0.990831;0.991014;0.990825;0.990864;267.272;77.913;50.0159;1.96975;3.15138;47.3924;127.696;150.224;20.6237;29.8859;1;0.857094;1.54672;1.67232;1.48427;0.85;
23.155;0.994465;0.941518;0.895133;0.92889;0.933933;1.00238;0.993141;1.04363;0.985451;0.981515;0.988534;0.988182;0.983369;0.967647;0.990517;0.990524;0.990692;0.990542;0.990589;264.996;76.3297;52.6375;1.8595;3.26344;47.5106;126.663;148.443;20.6265;29.9243;1;0.855112;1.54076;1.6687;1.47892;0.85;
23.2702;0.99299;0.940053;0.893778;0.927658;0.932687;1.00118;0.992016;1.04262;0.984328;0.98039;0.987379;0.986998;0.982199;0.966522;0.990234;0.99023;0.990357;0.990266;0.9903;263.152;74.9637;54.5071;1.84917;3.46762;47.5827;125.718;146.936;20.6312;29.9608;1;0.853118;1.53478;1.66492;1.47333;0.85;
23.3854;0.99151;0.938554;0.89232;0.926366;0.931389;0.999973;0.990844;1.04157;0.983152;0.979218;0.986193;0.985803;0.981013;0.965359;0.989964;0.989944;0.990013;0.989985;0.989997;262.008;73.9449;55.3659;1.92207;3.66397;47.6085;124.901;145.791;20.6451;30.0075;1;0.851078;1.52867;1.66084;1.46733;0.85;
23.5006;0.99002;0.937008;0.890738;0.92497;0.929999;0.998721;0.989596;1.04049;0.98189;0.977967;0.984944;0.984565;0.979778;0.964128;0.9897;0.989666;0.989668;0.989693;0.989682;261.687;73.3682;55.1301;2.02682;3.77354;47.5967;124.232;145.042;20.6761;30.0745;1;0.848977;1.52238;1.65643;1.46083;0.85;
23.6159;0.98852;0.935415;0.889033;0.923456;0.928497;0.997407;0.98826;1.03937;0.980532;0.976625;0.983619;0.983265;0.978476;0.962814;0.989435;0.989389;0.989327;0.989388;0.989364;262.153;73.2714;53.8822;2.1055;3.7623;47.5614;123.704;144.662;20.7298;30.1665;1;0.846812;1.51592;1.65168;1.45386;0.85;
23.7311;0.987011;0.933786;0.887228;0.921836;0.926894;0.996032;0.986852;1.03821;0.979095;0.975207;0.982223;0.981903;0.97711;0.961429;0.989163;0.989112;0.988997;0.989079;0.989051;263.222;73.6203;51.8399;2.12144;3.64562;47.5183;123.291;144.575;20.8062;30.2818;1;0.8446;1.50932;1.64665;1.44649;0.85;
23.8463;0.985502;0.932141;0.885359;0.920151;0.925229;0.994616;0.985401;1.03704;0.977613;0.973746;0.980786;0.980501;0.975704;0.960001;0.988881;0.98883;0.98868;0.988771;0.98875;264.613;74.3087;49.3109;2.07349;3.47513;47.4799;122.95;144.672;20.8989;30.4125;1;0.84237;1.50269;1.64145;1.43888;0.85;
23.9615;0.984003;0.930508;0.883475;0.918458;0.923556;0.993194;0.98395;1.03588;0.976131;0.972283;0.979345;0.979092;0.974292;0.958572;0.988586;0.988542;0.988379;0.988473;0.988462;266.009;75.176;46.6419;1.99165;3.31548;47.4522;122.629;144.824;20.9961;30.5464;1;0.840158;1.49611;1.63621;1.43124;0.85;
24.0767;0.982526;0.928914;0.881628;0.916817;0.921933;0.991801;0.982539;1.03474;0.974693;0.970862;0.977941;0.977714;0.972913;0.95718;0.988282;0.988247;0.988093;0.988185;0.988183;267.127;76.037;44.1699;1.91854;3.2201;47.4348;122.281;144.905;21.0847;30.6706;1;0.837999;1.48971;1.63108;1.42377;0.85;
24.1919;0.981082;0.927379;0.879863;0.915272;0.920404;0.990468;0.981198;1.03363;0.97333;0.969514;0.976604;0.976395;0.971595;0.955857;0.987969;0.987946;0.987821;0.987903;0.987908;267.771;76.7174;42.1803;1.88734;3.21402;47.4231;121.871;144.81;21.1543;30.7745;1;0.835922;1.48356;1.62619;1.41666;0.85;
24.3071;0.979674;0.925915;0.878214;0.913847;0.918991;0.989209;0.979939;1.03256;0.972056;0.968251;0.975346;0.975149;0.970351;0.954615;0.987654;0.987641;0.987559;0.987621;0.987629;267.852;77.0844;40.8745;1.90686;3.28812;47.4117;121.383;144.471;21.2002;30.8529;1;0.833944;1.47772;1.62162;1.41003;0.85;
24.4223;0.978304;0.924522;0.876699;0.912538;0.91769;0.988018;0.978759;1.03152;0.970866;0.96707;0.974164;0.973972;0.969179;0.953451;0.98734;0.987335;0.987303;0.987334;0.987343;267.396;77.0664;40.3482;1.95982;3.40503;47.3967;120.822;143.862;21.2247;30.9061;1;0.832062;1.47216;1.61742;1.40395;0.85;
24.6527;0.97564;0.921883;0.874007;0.910124;0.915277;0.985756;0.976534;1.02951;0.968635;0.964851;0.971932;0.971738;0.966956;0.951257;0.986735;0.986733;0.986784;0.986746;0.986752;265.572;76.036;41.2122;2.01989;3.54053;47.3491;119.603;142.053;21.2501;30.9711;1;0.828503;1.46168;1.60998;1.3932;0.85;
24.8601;0.973303;0.919611;0.871849;0.908065;0.913208;0.983795;0.974611;1.02774;0.966712;0.962938;0.970003;0.969801;0.96503;0.949362;0.986219;0.98621;0.9863;0.986218;0.986219;263.526;74.3774;43.3416;1.9774;3.4808;47.2829;118.504;140.066;21.2736;31.0115;1;0.825442;1.4527;1.60402;1.38462;0.85;
25.0674;0.970993;0.917364;0.869762;0.905993;0.911125;0.981848;0.972689;1.026;0.964788;0.961026;0.968081;0.967877;0.963117;0.947473;0.985731;0.985711;0.985795;0.985712;0.985706;261.833;72.6395;45.4837;1.86231;3.27168;47.1862;117.512;138.18;21.3192;31.0637;1;0.822419;1.44384;1.59826;1.37634;0.85;
25.2748;0.968701;0.915106;0.867602;0.903868;0.908994;0.979903;0.970746;1.02428;0.962836;0.95909;0.966148;0.965953;0.9612;0.945565;0.985262;0.985233;0.985274;0.98523;0.985222;260.876;71.3385;46.6016;1.7557;3.05059;47.0504;116.673;136.712;21.3863;31.1361;1;0.819385;1.43497;1.59232;1.36782;0.85;
25.4822;0.96643;0.912835;0.865304;0.901698;0.906823;0.977962;0.968784;1.02256;0.960861;0.957136;0.964206;0.964033;0.959283;0.943645;0.984801;0.984767;0.98475;0.984764;0.984759;260.702;70.7457;46.2158;1.71657;2.94512;46.877;115.979;135.781;21.4653;31.2234;1;0.816336;1.42608;1.58599;1.35878;0.85;
25.6895;0.96419;0.910568;0.862886;0.899505;0.904637;0.97603;0.966815;1.02084;0.958878;0.955175;0.962263;0.96212;0.957371;0.941722;0.984338;0.984304;0.984239;0.984298;0.984298;261.081;70.8125;44.5572;1.73888;2.97679;46.6826;115.396;135.291;21.5481;31.3158;1;0.813296;1.41724;1.57935;1.3493;0.85;
25.8969;0.961987;0.908325;0.860412;0.89731;0.902453;0.974106;0.964848;1.01912;0.956896;0.953217;0.960326;0.960215;0.955466;0.939803;0.983868;0.983837;0.983748;0.983825;0.983828;261.723;71.2991;42.2048;1.78423;3.08346;46.4881;114.889;135.052;21.6314;31.4071;1;0.810294;1.40853;1.57256;1.33965;0.85;
26.1043;0.959829;0.906138;0.85799;0.895151;0.900306;0.972204;0.962904;1.01741;0.95494;0.951283;0.958413;0.958333;0.953584;0.937908;0.983389;0.983364;0.983282;0.983345;0.983347;262.252;71.8299;39.9884;1.8059;3.15975;46.3066;114.401;134.789;21.7115;31.4905;1;0.807369;1.40007;1.56593;1.33025;0.85;
26.3116;0.957755;0.904076;0.855792;0.893122;0.898284;0.970383;0.96105;1.01575;0.953078;0.949442;0.956587;0.95653;0.951784;0.936101;0.982907;0.982886;0.982838;0.982869;0.982867;262.194;71.8803;38.9446;1.77739;3.11314;46.1377;113.866;134.17;21.7777;31.5531;1;0.804615;1.39212;1.55991;1.32175;0.85;
26.519;0.955737;0.902102;0.853769;0.891211;0.896373;0.968638;0.959282;1.01415;0.951308;0.947689;0.954843;0.954804;0.950061;0.934378;0.982433;0.982414;0.982397;0.982403;0.9824;261.713;71.5033;38.7501;1.73851;3.02935;45.9636;113.284;133.292;21.831;31.5988;1;0.80198;1.38453;1.55438;1.31394;0.85;
26.7264;0.953769;0.900196;0.851864;0.889392;0.894551;0.966961;0.957587;1.0126;0.949613;0.94601;0.95317;0.953144;0.948406;0.932726;0.981969;0.981951;0.981953;0.981946;0.981944;261.017;70.8842;38.9896;1.70345;2.9564;45.7783;112.686;132.3;21.8758;31.632;1;0.799441;1.37723;1.54918;1.30663;0.85;
26.9338;0.951843;0.898338;0.85002;0.887627;0.892781;0.96533;0.955939;1.01108;0.947967;0.944379;0.951544;0.951531;0.946798;0.93112;0.981517;0.981497;0.981506;0.981496;0.981495;260.322;70.2228;39.2678;1.67565;2.90627;45.5815;112.109;131.33;21.9184;31.6591;1;0.796966;1.37014;1.54416;1.29957;0.85;
26.9361;0.951821;0.898318;0.85;0.887607;0.892762;0.965312;0.95592;1.01106;0.947948;0.944361;0.951527;0.951513;0.94678;0.931103;0.981512;0.981492;0.981501;0.981491;0.98149;260.318;70.2175;39.2665;1.67543;2.90593;45.5791;112.104;131.321;21.919;31.6595;1;0.796939;1.37006;1.5441;1.29949;0.85;
26.9361;0.951821;0.898317;0.85;0.887607;0.892761;0.965312;0.95592;1.01106;0.947948;0.944361;0.951527;0.951513;0.94678;0.931103;0.981512;0.981492;0.981501;0.981491;0.98149;260.318;70.2175;39.2664;1.67542;2.90592;45.579;112.104;131.321;21.919;31.6595;1;0.796939;1.37006;1.5441;1.29949;0.85;
26.9361;0.951821;0.898317;0.85;0.887607;0.892761;0.965312;0.95592;1.01106;0.947948;0.944361;0.951527;0.951513;0.94678;0.931103;0.981512;0.981492;0.981501;0.981491;0.98149;260.318;70.2175;39.2664;1.67542;2.90592;45.579;112.104;131.321;21.919;31.6595;1;0.796939;1.37006;1.5441;1.29949;0.85;
26.9361;0.951821;0.898317;0.85;0.887607;0.892761;0.965312;0.95592;1.01106;0.947948;0.944361;0.951526;0.951513;0.94678;0.931103;0.981512;0.981492;0.981501;0.981491;0.98149;260.318;70.2175;39.2664;1.67542;2.90592;45.579;112.104;131.321;21.919;31.6595;1;0.796939;1.37006;1.5441;1.29949;0.85;
26.9361;0.951821;0.898317;0.85;0.887607;0.892761;0.965312;0.95592;1.01106;0.947948;0.944361;0.951526;0.951513;0.94678;0.931102;0.981512;0.981492;0.981501;0.981491;0.98149;260.318;70.2175;39.2664;1.67542;2.90592;45.579;112.104;131.321;21.919;31.6595;1;0.796939;1.37006;1.5441;1.29949;0.85;
26.9361;0.951821;0.898317;0.85;0.887607;0.892761;0.965312;0.95592;1.01106;0.947948;0.944361;0.951526;0.951513;0.94678;0.931102;0.981512;0.981492;0.981501;0.981491;0.98149;260.318;70.2175;39.2664;1.67542;2.90592;45.579;112.104;131.321;21.919;31.6595;1;0.796939;1.37006;1.5441;1.29949;0.85;
26.9361;0.951821;0.898317;0.85;0.887607;0.892761;0.965312;0.95592;1.01106;0.947948;0.944361;0.951526;0.951513;0.94678;0.931102;0.981512;0.981492;0.981501;0.981491;0.98149;260.318;70.2174;39.2664;1.67542;2.90591;45.579;112.104;131.321;21.919;31.6595;1;0.796939;1.37006;1.5441;1.29949;0.85;
26.9362;0.951821;0.898317;0.849999;0.887607;0.892761;0.965311;0.95592;1.01106;0.947948;0.94436;0.951526;0.951513;0.946779;0.931102;0.981512;0.981492;0.981501;0.981491;0.98149;260.317;70.2173;39.2665;1.67541;2.90591;45.579;112.104;131.32;21.919;31.6595;1;0.796938;1.37005;1.5441;1.29949;0.85;
26.9362;0.95182;0.898316;0.849999;0.887606;0.89276;0.965311;0.955919;1.01106;0.947947;0.94436;0.951526;0.951512;0.946779;0.931102;0.981512;0.981492;0.9815;0.981491;0.98149;260.317;70.2171;39.2665;1.6754;2.90589;45.5789;112.103;131.32;21.919;31.6595;1;0.796938;1.37005;1.5441;1.29949;0.85;
26.9364;0.951819;0.898315;0.849998;0.887605;0.892759;0.96531;0.955918;1.01106;0.947946;0.944359;0.951525;0.951511;0.946778;0.931101;0.981511;0.981492;0.9815;0.98149;0.981489;260.317;70.2167;39.2667;1.67539;2.90586;45.5788;112.103;131.32;21.919;31.6595;1;0.796936;1.37005;1.5441;1.29948;0.85;
26.9366;0.951817;0.898313;0.849995;0.887603;0.892757;0.965308;0.955916;1.01106;0.947944;0.944357;0.951523;0.951509;0.946776;0.931099;0.981511;0.981491;0.9815;0.98149;0.981489;260.316;70.2159;39.267;1.67535;2.9058;45.5786;112.102;131.318;21.9191;31.6595;1;0.796933;1.37004;1.54409;1.29948;0.85;
26.9371;0.951812;0.898308;0.849991;0.887599;0.892753;0.965304;0.955912;1.01106;0.94794;0.944353;0.951518;0.951505;0.946772;0.931095;0.98151;0.98149;0.981498;0.981489;0.981488;260.314;70.2143;39.2677;1.67529;2.90568;45.5781;112.101;131.316;21.9192;31.6596;1;0.796927;1.37002;1.54408;1.29946;0.85;
26.9381;0.951802;0.898299;0.849982;0.88759;0.892744;0.965296;0.955904;1.01105;0.947932;0.944345;0.95151;0.951497;0.946764;0.931087;0.981507;0.981488;0.981496;0.981486;0.981485;260.311;70.2111;39.269;1.67515;2.90543;45.5771;112.098;131.311;21.9194;31.6597;1;0.796915;1.36999;1.54405;1.29942;0.85;
26.9402;0.951783;0.898281;0.849964;0.887572;0.892727;0.96528;0.955888;1.01103;0.947916;0.944329;0.951494;0.951481;0.946748;0.931071;0.981503;0.981483;0.981492;0.981482;0.981481;260.304;70.2046;39.2717;1.67488;2.90494;45.5752;112.092;131.302;21.9198;31.66;1;0.79689;1.36992;1.544;1.29935;0.85;
26.9443;0.951745;0.898244;0.849927;0.887538;0.892692;0.965248;0.955855;1.011;0.947883;0.944297;0.951462;0.95145;0.946716;0.931039;0.981494;0.981474;0.981483;0.981473;0.981472;260.29;70.1916;39.277;1.67434;2.90397;45.5713;112.081;131.283;21.9207;31.6605;1;0.796842;1.36978;1.5439;1.29921;0.85;
26.9525;0.951669;0.898171;0.849855;0.887468;0.892622;0.965183;0.95579;1.01095;0.947818;0.944232;0.951398;0.951386;0.946653;0.930976;0.981476;0.981456;0.981465;0.981455;0.981454;260.263;70.1657;39.2877;1.67327;2.90206;45.5635;112.058;131.245;21.9223;31.6616;1;0.796744;1.3695;1.54371;1.29894;0.85;
26.9689;0.951518;0.898025;0.849709;0.887329;0.892483;0.965055;0.955661;1.01083;0.947689;0.944104;0.95127;0.951259;0.946526;0.93085;0.98144;0.981421;0.98143;0.98142;0.981419;260.209;70.1137;39.3091;1.67116;2.89835;45.5478;112.013;131.169;21.9257;31.6637;1;0.796549;1.36894;1.54331;1.29838;0.85;
27.0016;0.951215;0.897733;0.84942;0.887052;0.892205;0.964799;0.955402;1.01059;0.94743;0.943848;0.951015;0.951006;0.946274;0.930598;0.981369;0.981349;0.981359;0.981349;0.981348;260.101;70.0096;39.3511;1.66707;2.89134;45.5163;111.923;131.017;21.9323;31.6678;1;0.796161;1.36783;1.54252;1.29728;0.85;
27.0672;0.950612;0.897152;0.848844;0.886501;0.891652;0.96429;0.954886;1.01011;0.946916;0.943338;0.950507;0.950502;0.945772;0.930096;0.981228;0.981208;0.981217;0.981208;0.981208;259.891;69.8043;39.4268;1.65943;2.87906;45.4525;111.745;130.721;21.9457;31.6757;1;0.795388;1.36562;1.54096;1.29508;0.85;
27.1982;0.949417;0.895999;0.847698;0.885406;0.890553;0.96328;0.953863;1.00917;0.945894;0.942326;0.9495;0.949503;0.944775;0.929101;0.980948;0.980927;0.980933;0.980927;0.980927;259.517;69.4233;39.5113;1.64599;2.85997;45.3217;111.403;130.16;21.9731;31.6915;1;0.793855;1.36123;1.53784;1.29071;0.85;
27.4604;0.947062;0.89372;0.845407;0.883225;0.888367;0.961283;0.95183;1.0073;0.943865;0.940317;0.947503;0.947527;0.942804;0.927127;0.980397;0.980373;0.980366;0.980371;0.980371;259.011;68.8526;39.3035;1.62401;2.83029;45.0523;110.782;129.205;22.0329;31.7258;1;0.790829;1.35259;1.53161;1.28201;0.85;
27.7225;0.944757;0.891478;0.843116;0.881055;0.886194;0.959313;0.949814;1.00545;0.941849;0.938325;0.945527;0.945576;0.940856;0.925171;0.979852;0.979827;0.979805;0.979822;0.979821;258.796;68.5351;38.6317;1.60619;2.80145;44.7777;110.24;128.454;22.0985;31.7641;1;0.787855;1.34413;1.52538;1.27334;0.85;
28.2468;0.940311;0.887159;0.838669;0.876842;0.881979;0.955494;0.945895;1.00185;0.937934;0.934454;0.941692;0.941795;0.937079;0.921373;0.97877;0.978747;0.978716;0.978739;0.978737;258.556;68.1545;36.9876;1.57292;2.73778;44.2327;109.268;127.161;22.226;31.8337;1;0.782136;1.32791;1.51333;1.25662;0.85;
28.7711;0.936199;0.88321;0.834656;0.872999;0.878128;0.951974;0.942281;0.99849;0.934331;0.930891;0.938161;0.93831;0.933599;0.917877;0.977715;0.977695;0.977677;0.977689;0.977688;258.033;67.6225;35.9276;1.5367;2.67384;43.6879;108.381;125.851;22.33;31.8682;1;0.77692;1.31318;1.50248;1.24164;0.85;
28.9361;0.934968;0.882036;0.833479;0.87186;0.876986;0.950925;0.941204;0.997479;0.933258;0.929831;0.937109;0.937272;0.932562;0.916837;0.977392;0.977371;0.977355;0.977366;0.977365;257.822;67.4084;35.7152;1.52493;2.65411;43.5161;108.115;125.435;22.3588;31.873;1;0.775373;1.30883;1.49931;1.23728;0.85;
28.9361;0.934967;0.882035;0.833478;0.87186;0.876986;0.950925;0.941204;0.997478;0.933258;0.929831;0.937109;0.937272;0.932562;0.916836;0.977392;0.977371;0.977355;0.977366;0.977365;257.823;67.4067;35.7149;1.52479;2.654;43.5152;108.115;125.434;22.359;31.8731;1;0.775371;1.30882;1.4993;1.23726;0.85;
28.9361;0.934967;0.882035;0.833478;0.87186;0.876986;0.950925;0.941204;0.997478;0.933258;0.92983;0.937109;0.937272;0.932562;0.916836;0.977392;0.977371;0.977355;0.977366;0.977365;257.823;67.4067;35.7149;1.52479;2.654;43.5152;108.115;125.434;22.359;31.8731;1;0.775371;1.30882;1.4993;1.23726;0.85;
28.9361;0.934967;0.882035;0.833478;0.87186;0.876986;0.950925;0.941204;0.997479;0.933258;0.929831;0.937109;0.937272;0.932562;0.916836;0.977392;0.977371;0.977355;0.977366;0.977365;257.823;67.4068;35.7149;1.5248;2.654;43.5153;108.115;125.434;22.359;31.8731;1;0.775371;1.30882;1.4993;1.23726;0.85;
28.9361;0.934967;0.882035;0.833478;0.87186;0.876986;0.950925;0.941204;0.997478;0.933258;0.92983;0.937109;0.937272;0.932562;0.916836;0.977392;0.977371;0.977355;0.977366;0.977365;257.823;67.4067;35.7149;1.52479;2.65399;43.5152;108.115;125.434;22.359;31.8731;1;0.775371;1.30882;1.4993;1.23726;0.85;
28.9361;0.934967;0.882035;0.833478;0.87186;0.876985;0.950925;0.941204;0.997478;0.933258;0.92983;0.937109;0.937272;0.932562;0.916836;0.977392;0.977371;0.977355;0.977366;0.977365;257.823;67.4067;35.7148;1.52479;2.65399;43.5152;108.115;125.434;22.359;31.8731;1;0.775371;1.30882;1.4993;1.23726;0.85;
28.9361;0.934967;0.882035;0.833478;0.87186;0.876985;0.950925;0.941204;0.997478;0.933258;0.92983;0.937109;0.937272;0.932562;0.916836;0.977392;0.977371;0.977355;0.977366;0.977365;257.823;67.4067;35.7148;1.52479;2.65399;43.5152;108.115;125.434;22.359;31.8731;1;0.77537;1.30882;1.4993;1.23726;0.85;
28.9362;0.934967;0.882035;0.833478;0.871859;0.876985;0.950924;0.941203;0.997478;0.933257;0.92983;0.937108;0.937271;0.932561;0.916836;0.977392;0.977371;0.977355;0.977366;0.977365;257.823;67.4067;35.7148;1.52479;2.65399;43.5151;108.115;125.433;22.359;31.8731;1;0.77537;1.30882;1.4993;1.23726;0.85;
28.9362;0.934966;0.882034;0.833477;0.871859;0.876985;0.950924;0.941203;0.997478;0.933257;0.92983;0.937108;0.937271;0.932561;0.916835;0.977391;0.977371;0.977355;0.977366;0.977365;257.823;67.4066;35.7146;1.52478;2.65398;43.5151;108.115;125.433;22.359;31.8731;1;0.77537;1.30881;1.4993;1.23726;0.85;
28.9364;0.934965;0.882034;0.833476;0.871858;0.876984;0.950923;0.941202;0.997477;0.933256;0.929829;0.937107;0.93727;0.93256;0.916834;0.977391;0.977371;0.977355;0.977366;0.977365;257.823;67.4064;35.7144;1.52477;2.65397;43.5149;108.115;125.433;22.359;31.8731;1;0.775368;1.30881;1.4993;1.23726;0.85;
28.9366;0.934963;0.882032;0.833475;0.871856;0.876982;0.950922;0.9412;0.997475;0.933254;0.929827;0.937105;0.937268;0.932558;0.916833;0.977391;0.97737;0.977354;0.977365;0.977364;257.823;67.4062;35.714;1.52476;2.65393;43.5147;108.114;125.432;22.3591;31.8731;1;0.775366;1.3088;1.49929;1.23725;0.85;
28.9371;0.93496;0.882028;0.833471;0.871852;0.876978;0.950918;0.941197;0.997472;0.933251;0.929824;0.937102;0.937265;0.932555;0.916829;0.97739;0.977369;0.977353;0.977364;0.977363;257.822;67.4056;35.713;1.52472;2.65387;43.5141;108.113;125.431;22.3592;31.8732;1;0.775361;1.30879;1.49928;1.23724;0.85;
28.9381;0.934952;0.88202;0.833463;0.871845;0.876971;0.950911;0.94119;0.997466;0.933244;0.929817;0.937095;0.937258;0.932548;0.916823;0.977388;0.977367;0.977351;0.977362;0.977361;257.821;67.4045;35.7112;1.52466;2.65375;43.5131;108.112;125.429;22.3594;31.8732;1;0.775351;1.30876;1.49926;1.23721;0.85;
28.9402;0.934936;0.882005;0.833448;0.87183;0.876956;0.950898;0.941176;0.997453;0.93323;0.929803;0.937082;0.937245;0.932535;0.916809;0.977383;0.977363;0.977347;0.977358;0.977357;257.819;67.4023;35.7075;1.52452;2.6535;43.511;108.108;125.423;22.3597;31.8733;1;0.775331;1.30871;1.49922;1.23715;0.85;
28.9443;0.934904;0.881975;0.833417;0.871801;0.876927;0.950871;0.941148;0.997427;0.933203;0.929776;0.937055;0.937218;0.932508;0.916782;0.977375;0.977355;0.977339;0.97735;0.977349;257.814;67.3979;35.7002;1.52425;2.65301;43.5068;108.101;125.413;22.3605;31.8735;1;0.775291;1.30859;1.49914;1.23704;0.85;
28.9525;0.934841;0.881915;0.833356;0.871742;0.876868;0.950817;0.941093;0.997375;0.933147;0.929721;0.937001;0.937165;0.932455;0.916729;0.977359;0.977339;0.977323;0.977334;0.977333;257.805;67.3889;35.6858;1.52369;2.65203;43.4984;108.088;125.393;22.3621;31.874;1;0.775211;1.30837;1.49897;1.23681;0.85;
28.9689;0.934715;0.881794;0.833234;0.871625;0.87675;0.950709;0.940982;0.997272;0.933037;0.929612;0.936893;0.937058;0.932349;0.916622;0.977326;0.977306;0.977291;0.977301;0.9773;257.787;67.3709;35.6575;1.52258;2.65008;43.4815;108.061;125.352;22.3651;31.8748;1;0.775052;1.30792;1.49864;1.23636;0.85;
29.0016;0.934464;0.881553;0.832991;0.871391;0.876516;0.950495;0.940762;0.997066;0.932818;0.929395;0.936677;0.936846;0.932136;0.916409;0.977261;0.977241;0.977226;0.977236;0.977236;257.748;67.3338;35.603;1.52034;2.64618;43.4478;108.006;125.27;22.3712;31.8764;1;0.774735;1.30703;1.49799;1.23546;0.85;
29.0672;0.933964;0.881075;0.832509;0.870927;0.87605;0.950068;0.940324;0.996656;0.932381;0.928964;0.936249;0.936423;0.931714;0.915985;0.977131;0.977111;0.977098;0.977107;0.977106;257.668;67.2559;35.5028;1.51578;2.63844;43.3803;107.898;125.103;22.3831;31.8792;1;0.774105;1.30526;1.49669;1.23367;0.85;
29.1982;0.932974;0.88013;0.831559;0.870011;0.875131;0.949224;0.939457;0.995843;0.931518;0.928111;0.935403;0.935588;0.93088;0.915148;0.976872;0.976852;0.976841;0.976848;0.976848;257.493;67.0871;35.332;1.50644;2.62303;43.2452;107.682;124.766;22.4062;31.8836;1;0.77286;1.30176;1.49413;1.23015;0.85;
29.4604;0.931033;0.878282;0.829711;0.86822;0.873335;0.947572;0.937761;0.994247;0.92983;0.926441;0.933747;0.933952;0.929247;0.913508;0.976359;0.976339;0.976332;0.976337;0.976336;257.127;66.7221;35.0544;1.48731;2.59175;42.9741;107.261;124.094;22.4504;31.8891;1;0.770426;1.29494;1.48915;1.22333;0.85;
29.9847;0.927289;0.874724;0.826165;0.864771;0.869872;0.944387;0.934484;0.991155;0.926571;0.923218;0.930552;0.930799;0.926099;0.910346;0.975353;0.975333;0.975324;0.97533;0.97533;256.481;66.0362;34.4617;1.45122;2.53067;42.4325;106.482;122.853;22.5354;31.8936;1;0.76575;1.28186;1.47961;1.2103;0.85;
31.0333;0.920622;0.868429;0.819914;0.858636;0.863708;0.938708;0.928618;0.985572;0.920744;0.91746;0.924849;0.925175;0.920482;0.904697;0.973436;0.973417;0.973406;0.973414;0.973414;255.585;65.0381;33.0146;1.3935;2.43107;41.384;105.248;120.924;22.6821;31.8716;1;0.757498;1.25892;1.46285;1.18754;0.85;
31.9361;0.915387;0.863511;0.81507;0.853839;0.858884;0.934247;0.924004;0.981147;0.916166;0.912935;0.920369;0.920758;0.916071;0.900259;0.971843;0.971825;0.971814;0.971822;0.971822;254.86;64.2552;31.9272;1.34827;2.35377;40.5284;104.331;119.476;22.7885;31.8334;-1;0.751077;1.24121;1.44992;1.17011;0.85;
31.9361;0.906688;0.843471;0.673466;0.808202;0.824786;0.915801;0.895798;0.968374;0.888006;0.886672;0.898002;0.901835;0.896545;0.876228;0.971843;0.971825;0.971814;0.971822;0.971822;251.75;59.5521;0;2.1601;2.28774;67.2484;150.731;0;31.3457;39.9035;-1;0.72508;1.17042;1.08898;0.726127;0.85;
31.9361;0.906687;0.843471;0.673465;0.808202;0.824786;0.915801;0.895798;0.968374;0.888006;0.886672;0.898002;0.901835;0.896544;0.876228;0.971843;0.971825;0.971814;0.971822;0.971822;251.75;59.5515;0;2.15999;2.28766;67.2486;150.731;0;31.3457;39.9036;-1;0.72508;1.17041;1.08898;0.726129;0.85;
31.9361;0.906687;0.843471;0.673465;0.808202;0.824785;0.915801;0.895798;0.968374;0.888006;0.886672;0.898002;0.901835;0.896544;0.876227;0.971843;0.971825;0.971814;0.971822;0.971822;251.75;59.5515;0;2.15998;2.28766;67.2486;150.731;0;31.3456;39.9036;-1;0.72508;1.17041;1.08898;0.726129;0.85;
31.9361;0.906687;0.843471;0.673465;0.808202;0.824785;0.915801;0.895798;0.968374;0.888006;0.886672;0.898002;0.901835;0.896544;0.876227;0.971843;0.971825;0.971814;0.971822;0.971822;251.75;59.5515;0;2.15995;2.28767;67.2487;150.731;0;31.3456;39.9036;-1;0.72508;1.17041;1.08898;0.726128;0.85;
31.9361;0.906687;0.843471;0.673464;0.808202;0.824785;0.9158;0.895797;0.968374;0.888006;0.886671;0.898001;0.901834;0.896543;0.876227;0.971843;0.971825;0.971814;0.971822;0.971822;251.75;59.5515;0;2.15988;2.28767;67.2489;150.731;0;31.3454;39.9037;-1;0.725079;1.17041;1.08898;0.726128;0.85;
31.9361;0.906687;0.84347;0.673464;0.808201;0.824784;0.915799;0.895797;0.968373;0.888005;0.886671;0.898;0.901833;0.896542;0.876226;0.971843;0.971825;0.971814;0.971822;0.971822;251.75;59.5515;0;2.15975;2.28769;67.2492;150.73;0;31.3451;39.9038;-1;0.725078;1.17041;1.08898;0.726126;0.85;
31.9361;0.906686;0.843469;0.673463;0.8082;0.824783;0.915796;0.895796;0.968373;0.888003;0.886669;0.897998;0.901831;0.89654;0.876224;0.971843;0.971825;0.971814;0.971822;0.971822;251.749;59.5514;0;2.15949;2.28772;67.2499;150.729;0;31.3444;39.904;-1;0.725077;1.17041;1.08898;0.726123;0.85;
31.9362;0.906684;0.843466;0.673461;0.808197;0.82478;0.915792;0.895793;0.968371;0.888;0.886666;0.897994;0.901826;0.896536;0.876221;0.971842;0.971825;0.971814;0.971822;0.971822;251.748;59.5513;0;2.15897;2.28777;67.2513;150.727;0;31.3431;39.9045;-1;0.725073;1.1704;1.08897;0.726118;0.85;
31.9362;0.90668;0.843461;0.673457;0.808192;0.824775;0.915782;0.895788;0.968368;0.887995;0.88666;0.897986;0.901817;0.896527;0.876214;0.971842;0.971825;0.971814;0.971822;0.971821;251.746;59.5512;0;2.15793;2.28789;67.254;150.723;0;31.3405;39.9054;-1;0.725067;1.17038;1.08896;0.726107;0.85;
31.9364;0.906673;0.843451;0.673448;0.808182;0.824764;0.915764;0.895779;0.968362;0.887983;0.886647;0.897971;0.901799;0.89651;0.8762;0.971842;0.971825;0.971814;0.971822;0.971821;251.742;59.5509;0;2.15586;2.28812;67.2594;150.714;0;31.3352;39.9073;-1;0.725054;1.17034;1.08894;0.726085;0.85;
31.9366;0.906658;0.843431;0.673432;0.808161;0.824742;0.915727;0.89576;0.968351;0.88796;0.886622;0.89794;0.901764;0.896475;0.876172;0.971842;0.971824;0.971814;0.971821;0.971821;251.735;59.5503;0;2.15174;2.28857;67.2702;150.697;0;31.3248;39.911;-1;0.725028;1.17027;1.0889;0.726041;0.85;
31.9371;0.906629;0.843391;0.673399;0.80812;0.824699;0.915653;0.895721;0.968328;0.887915;0.886572;0.897879;0.901693;0.896407;0.876118;0.971841;0.971823;0.971814;0.971819;0.97182;251.719;59.5492;0;2.14363;2.28946;67.2916;150.664;0;31.3042;39.9184;-1;0.724976;1.17014;1.08882;0.725953;0.85;
31.9381;0.906571;0.843312;0.673335;0.808039;0.824614;0.915509;0.895646;0.968282;0.887826;0.886474;0.897759;0.901554;0.896272;0.876011;0.971839;0.971822;0.971814;0.971816;0.971818;251.689;59.5469;0;2.12782;2.29115;67.3335;150.597;0;31.264;39.9328;-1;0.724874;1.16986;1.08867;0.72578;0.85;
31.9402;0.906458;0.843157;0.67321;0.807883;0.82445;0.91523;0.895501;0.968194;0.887653;0.886284;0.897527;0.901286;0.896013;0.875803;0.971836;0.971819;0.971814;0.971811;0.971815;251.629;59.5427;0;2.09784;2.29422;67.4139;150.467;0;31.1871;39.9606;-1;0.724674;1.16932;1.08836;0.725442;0.85;
31.9443;0.906239;0.842861;0.672972;0.807586;0.824138;0.914712;0.895225;0.968024;0.887327;0.885927;0.897093;0.900787;0.895529;0.875414;0.97183;0.971813;0.971814;0.9718;0.971808;251.513;59.5353;0;2.04364;2.29924;67.5623;150.218;0;31.0469;40.0119;-1;0.724293;1.1683;1.08779;0.724801;0.85;
31.9525;0.905831;0.842321;0.67254;0.807049;0.823576;0.913807;0.894729;0.967712;0.886745;0.885295;0.89633;0.899914;0.894683;0.874728;0.971818;0.971801;0.971814;0.971778;0.971793;251.296;59.5253;0;1.95348;2.30556;67.8155;149.767;0;30.8118;40.1001;-1;0.723598;1.16643;1.08674;0.723638;0.85;
31.9689;0.905115;0.841407;0.671814;0.806157;0.822644;0.912391;0.893907;0.967174;0.885799;0.884275;0.895122;0.898547;0.893355;0.873633;0.971794;0.971778;0.971814;0.971737;0.971765;250.913;59.5235;0;1.82007;2.30768;68.1886;149.014;0;30.4746;40.2332;-1;0.722419;1.16326;1.08498;0.721688;0.85;
31.9853;0.904509;0.840672;0.671238;0.805455;0.821913;0.911373;0.893265;0.966727;0.885076;0.883507;0.894235;0.897561;0.892394;0.872819;0.97177;0.971755;0.971814;0.971698;0.971736;250.59;59.5436;0;1.72631;2.29952;68.4247;148.431;0;30.2679;40.3222;-1;0.721473;1.16073;1.08358;0.72014;0.85;
32.018;0.903515;0.839531;0.670344;0.804369;0.820787;0.909936;0.892273;0.965993;0.883991;0.88237;0.892956;0.896164;0.891028;0.87163;0.971723;0.971707;0.971814;0.971625;0.97168;250.08;59.6251;0;1.57052;2.26728;68.6826;147.589;0;30.0363;40.4327;-1;0.720005;1.15679;1.08142;0.717747;0.85;
32.0508;0.902733;0.8387;0.669691;0.80357;0.81996;0.908999;0.891543;0.965407;0.883221;0.881578;0.892097;0.895248;0.890129;0.870816;0.971678;0.97166;0.971814;0.97156;0.971624;249.718;59.7381;0;1.42765;2.21966;68.7619;147.056;0;29.9468;40.4871;-1;0.718936;1.15393;1.07984;0.715998;0.85;
32.0836;0.902082;0.838042;0.669165;0.80292;0.819287;0.908278;0.890944;0.964904;0.882602;0.880948;0.891426;0.894542;0.889435;0.870174;0.971633;0.971613;0.971814;0.9715;0.97157;249.463;59.8545;0;1.27686;2.16195;68.7667;146.7;0;29.9078;40.5179;-1;0.71809;1.15167;1.07857;0.714594;0.85;
32.1163;0.901509;0.837474;0.668705;0.802342;0.818689;0.907641;0.890409;0.964446;0.882053;0.880388;0.890832;0.893917;0.88882;0.869606;0.971589;0.971565;0.971814;0.971448;0.971517;249.29;59.9537;0;1.11796;2.0964;68.7482;146.439;0;29.8801;40.5409;-1;0.71736;1.14972;1.07746;0.713366;0.85;
32.1819;0.900466;0.836432;0.667853;0.801264;0.817573;0.90643;0.889406;0.963593;0.881018;0.879333;0.889707;0.892731;0.887655;0.868531;0.971502;0.971469;0.971814;0.971362;0.971417;249.108;60.0466;0;0.814933;1.94815;68.7149;146.014;0;29.8152;40.5864;-1;0.716022;1.14615;1.0754;0.711096;0.85;
32.2713;0.89923;0.835164;0.666835;0.8;0.816275;0.905003;0.888208;0.962572;0.879768;0.878061;0.888364;0.891333;0.886273;0.867243;0.971383;0.971341;0.971814;0.971288;0.971304;249.177;59.6974;0;0.660599;1.75048;68.6625;145.551;0;29.6969;40.6397;-1;0.714395;1.14181;1.07294;0.708393;0.85;
32.2713;0.89923;0.835164;0.666835;0.8;0.816275;0.905003;0.888208;0.962572;0.879768;0.878061;0.888364;0.891333;0.886273;0.867243;0.971383;0.971341;0.971814;0.971288;0.971304;249.178;59.6968;0;0.660333;1.75031;68.6624;145.55;0;29.6968;40.6397;-1;0.714394;1.14181;1.07294;0.708391;0.85;
32.2713;0.89923;0.835164;0.666835;0.8;0.816275;0.905003;0.888208;0.962572;0.879768;0.878061;0.888363;0.891333;0.886273;0.867243;0.971383;0.971341;0.971814;0.971288;0.971304;249.178;59.6968;0;0.660331;1.75031;68.6624;145.55;0;29.6968;40.6397;-1;0.714394;1.14181;1.07294;0.708391;0.85;
32.2713;0.89923;0.835164;0.666835;0.8;0.816275;0.905003;0.888208;0.962572;0.879768;0.878061;0.888363;0.891333;0.886273;0.867243;0.971383;0.971341;0.971814;0.971288;0.971304;249.178;59.6968;0;0.660342;1.75032;68.6624;145.55;0;29.6968;40.6397;-1;0.714394;1.14181;1.07294;0.708391;0.85;
32.2713;0.89923;0.835164;0.666835;0.8;0.816275;0.905003;0.888208;0.962572;0.879768;0.878061;0.888363;0.891332;0.886273;0.867243;0.971383;0.971341;0.971814;0.971288;0.971304;249.178;59.6967;0;0.660315;1.7503;68.6624;145.55;0;29.6968;40.6397;-1;0.714394;1.14181;1.07294;0.708391;0.85;
32.2713;0.89923;0.835164;0.666835;0.8;0.816275;0.905003;0.888208;0.962572;0.879768;0.878061;0.888363;0.891332;0.886273;0.867242;0.971383;0.971341;0.971814;0.971288;0.971304;249.178;59.6967;0;0.660294;1.75028;68.6624;145.55;0;29.6968;40.6397;-1;0.714394;1.14181;1.07294;0.708391;0.85;
32.2714;0.89923;0.835163;0.666835;0.799999;0.816275;0.905002;0.888207;0.962572;0.879767;0.878061;0.888363;0.891332;0.886272;0.867242;0.971383;0.971341;0.971814;0.971288;0.971304;249.178;59.6967;0;0.660252;1.75024;68.6624;145.55;0;29.6968;40.6398;-1;0.714394;1.14181;1.07294;0.70839;0.85;
32.2714;0.899229;0.835163;0.666835;0.799999;0.816274;0.905002;0.888207;0.962572;0.879767;0.87806;0.888363;0.891332;0.886272;0.867242;0.971383;0.97134;0.971814;0.971288;0.971304;249.178;59.6966;0;0.660168;1.75017;68.6624;145.55;0;29.6967;40.6398;-1;0.714393;1.14181;1.07294;0.708389;0.85;
32.2715;0.899229;0.835162;0.666834;0.799998;0.816273;0.905001;0.888206;0.962571;0.879766;0.878059;0.888362;0.891331;0.886271;0.867241;0.971383;0.97134;0.971814;0.971288;0.971304;249.178;59.6964;0;0.660001;1.75002;68.6624;145.55;0;29.6967;40.6398;-1;0.714392;1.1418;1.07294;0.708387;0.85;
32.2716;0.899227;0.83516;0.666832;0.799996;0.816271;0.904999;0.888204;0.96257;0.879764;0.878057;0.88836;0.891329;0.886269;0.867239;0.971382;0.97134;0.971814;0.971288;0.971304;249.178;59.6961;0;0.659666;1.74973;68.6623;145.549;0;29.6965;40.6399;-1;0.71439;1.1418;1.07293;0.708383;0.85;
32.2718;0.899223;0.835157;0.66683;0.799992;0.816268;0.904994;0.888201;0.962567;0.87976;0.878054;0.888356;0.891324;0.886265;0.867235;0.971382;0.97134;0.971814;0.971288;0.971303;249.178;59.6955;0;0.658998;1.74915;68.6621;145.548;0;29.6962;40.64;-1;0.714385;1.14178;1.07293;0.708376;0.85;
32.2723;0.899216;0.835149;0.666824;0.799985;0.81626;0.904986;0.888194;0.962561;0.879753;0.878046;0.888348;0.891316;0.886257;0.867228;0.971381;0.971339;0.971814;0.971287;0.971303;249.178;59.6942;0;0.657665;1.74798;68.6618;145.545;0;29.6956;40.6404;-1;0.714376;1.14176;1.07291;0.70836;0.85;
32.2734;0.899202;0.835135;0.666812;0.79997;0.816245;0.904969;0.88818;0.962549;0.879739;0.878031;0.888332;0.8913;0.886241;0.867213;0.97138;0.971338;0.971814;0.971286;0.971301;249.178;59.6916;0;0.655014;1.74564;68.6612;145.54;0;29.6943;40.641;-1;0.714357;1.14171;1.07288;0.708328;0.85;
32.2754;0.899173;0.835106;0.666788;0.799941;0.816214;0.904936;0.888152;0.962525;0.879709;0.878002;0.888301;0.891267;0.886208;0.867183;0.971377;0.971335;0.971814;0.971284;0.971298;249.179;59.6862;0;0.649775;1.74097;68.66;145.529;0;29.6918;40.6422;-1;0.714319;1.14161;1.07283;0.708266;0.85;
32.2795;0.899116;0.835047;0.666741;0.799881;0.816153;0.904869;0.888096;0.962477;0.879651;0.877943;0.888238;0.891201;0.886143;0.867122;0.971372;0.971329;0.971814;0.971281;0.971293;249.18;59.6751;0;0.639551;1.73162;68.6576;145.508;0;29.6868;40.6447;-1;0.714244;1.14141;1.07271;0.70814;0.85;
32.2877;0.899001;0.83493;0.666646;0.799763;0.816032;0.904735;0.887985;0.962382;0.879535;0.877824;0.888113;0.891071;0.886014;0.867003;0.971361;0.971317;0.971814;0.971273;0.971282;249.184;59.651;0;0.62014;1.71295;68.6529;145.466;0;29.6765;40.6497;-1;0.714095;1.14101;1.07249;0.70789;0.85;
32.3041;0.898774;0.834697;0.666459;0.799529;0.815791;0.90447;0.887763;0.962194;0.879304;0.877589;0.887864;0.890811;0.885758;0.866764;0.971339;0.971293;0.971814;0.97126;0.971261;249.194;59.5958;0;0.585634;1.6758;68.6437;145.382;0;29.6555;40.6597;-1;0.713796;1.14021;1.07203;0.707391;0.85;
32.3369;0.898323;0.834234;0.666087;0.799068;0.815318;0.90395;0.887326;0.961822;0.878847;0.877124;0.887373;0.890301;0.885254;0.866294;0.971296;0.971246;0.971814;0.971234;0.97122;249.224;59.4585;0;0.53472;1.60316;68.6253;145.212;0;29.6115;40.6794;-1;0.713201;1.13863;1.07114;0.706405;0.85;
32.4024;0.897438;0.833318;0.665363;0.798181;0.81441;0.902951;0.886478;0.961097;0.877958;0.876221;0.886425;0.889321;0.884284;0.865383;0.971208;0.971154;0.971814;0.971185;0.971144;249.3;59.0927;0;0.504861;1.47177;68.5831;144.87;0;29.5166;40.7153;-1;0.712027;1.13551;1.06939;0.704487;0.85;
32.5335;0.89573;0.831547;0.663996;0.796548;0.812743;0.901101;0.88489;0.959713;0.876287;0.874528;0.884656;0.887508;0.882483;0.86368;0.971032;0.970975;0.971814;0.971072;0.971003;249.379;58.1561;0;0.653947;1.31066;68.4748;144.155;0;29.3061;40.7673;-1;0.709758;1.12948;1.0661;0.700876;0.85;
32.6645;0.894097;0.829861;0.66273;0.795076;0.811237;0.899403;0.883429;0.958399;0.87475;0.87297;0.88303;0.885844;0.880828;0.862115;0.970857;0.970806;0.971814;0.970923;0.970868;249.258;57.1541;0;0.93727;1.31304;68.3477;143.393;0;29.0832;40.7919;-1;0.7076;1.12377;1.06305;0.697538;0.85;
32.7956;0.892526;0.828256;0.661538;0.793708;0.809828;0.897788;0.882056;0.957129;0.873319;0.871515;0.881499;0.884262;0.87926;0.860646;0.970685;0.970644;0.971814;0.970736;0.970725;248.885;56.3227;0;1.1703;1.46757;68.2238;142.588;0;28.8715;40.7937;-1;0.705549;1.11834;1.06018;0.694405;0.85;
32.9267;0.891003;0.826717;0.660388;0.79238;0.808449;0.896203;0.880727;0.955874;0.87195;0.87012;0.880016;0.88271;0.877729;0.859228;0.970517;0.970489;0.971814;0.970528;0.970565;248.31;55.7953;0;1.23804;1.70016;68.1209;141.765;0;28.6909;40.7824;-1;0.703584;1.11316;1.05742;0.69139;0.85;
33.0578;0.889514;0.825226;0.659251;0.791039;0.807053;0.894624;0.879399;0.954619;0.870598;0.868741;0.878547;0.881163;0.876208;0.857824;0.970355;0.970337;0.971814;0.970326;0.970385;247.644;55.5765;0;1.1325;1.9011;68.0454;140.958;0;28.5506;40.769;-1;0.701681;1.10814;1.05469;0.688419;0.85;
33.1888;0.888052;0.823765;0.658112;0.789664;0.805628;0.893057;0.878053;0.953358;0.869232;0.867353;0.87708;0.879626;0.874695;0.856416;0.9702;0.970187;0.971814;0.970148;0.970194;247.012;55.5637;0;0.932959;1.97207;67.9915;140.195;0;28.4467;40.7617;-1;0.699819;1.10325;1.05196;0.685449;0.85;
33.3199;0.886614;0.822325;0.656969;0.788262;0.804187;0.891526;0.876688;0.952099;0.867844;0.865952;0.875621;0.878121;0.873207;0.855007;0.970051;0.970036;0.971814;0.97;0.970006;246.508;55.604;0;0.747206;1.8702;67.9459;139.493;0;28.3666;40.7642;-1;0.697984;1.09843;1.04922;0.682477;0.85;
33.451;0.885203;0.820902;0.655833;0.78686;0.80276;0.890053;0.875324;0.950857;0.866451;0.864554;0.87419;0.876672;0.871766;0.853613;0.969906;0.969886;0.971814;0.969871;0.969835;246.167;55.5573;0;0.651555;1.62692;67.8945;138.852;0;28.2962;40.7749;-1;0.696174;1.09369;1.0465;0.679531;0.85;
33.582;0.883822;0.819503;0.65472;0.785494;0.801378;0.888653;0.873991;0.949647;0.865083;0.863187;0.872808;0.875291;0.870388;0.852261;0.969763;0.969738;0.971814;0.969749;0.969689;245.969;55.3424;0;0.659859;1.33284;67.8275;138.257;0;28.2259;40.7881;-1;0.694394;1.08903;1.04384;0.676654;0.85;
33.7131;0.882478;0.818134;0.653648;0.784194;0.800063;0.887324;0.872717;0.94848;0.863775;0.861882;0.871491;0.873981;0.869078;0.850971;0.969622;0.969592;0.971814;0.96962;0.969567;245.851;54.9529;0;0.730959;1.0967;67.7414;137.688;0;28.1529;40.7957;-1;0.692656;1.08449;1.04127;0.673886;0.85;
33.7196;0.882412;0.818067;0.653596;0.784132;0.8;0.887259;0.872656;0.948423;0.863712;0.861819;0.871428;0.873918;0.869015;0.850908;0.969615;0.969585;0.971814;0.969614;0.969561;245.845;54.9305;0;0.734497;1.08857;67.7367;137.66;0;28.1493;40.7957;-1;0.692571;1.08427;1.04115;0.673752;0.85;
33.7196;0.882412;0.818067;0.653596;0.784132;0.8;0.887259;0.872656;0.948423;0.863712;0.861819;0.871428;0.873918;0.869015;0.850908;0.969615;0.969585;0.971814;0.969614;0.969561;245.845;54.9305;0;0.734497;1.08857;67.7367;137.66;0;28.1493;40.7957;-1;0.692571;1.08427;1.04115;0.673752;0.85;
33.7196;0.882413;0.818068;0.653596;0.784132;0.8;0.88726;0.872656;0.948423;0.863712;0.861819;0.871428;0.873918;0.869015;0.850909;0.969615;0.969585;0.971814;0.969614;0.969561;245.846;54.931;0;0.735764;1.0857;67.7364;137.66;0;28.1493;40.7958;-1;0.692571;1.08427;1.04115;0.673752;0.85;
33.7196;0.882413;0.818068;0.653596;0.784132;0.8;0.88726;0.872656;0.948423;0.863712;0.861819;0.871428;0.873918;0.869015;0.850908;0.969615;0.969585;0.971814;0.969614;0.969561;245.846;54.931;0;0.735764;1.0857;67.7364;137.66;0;28.1493;40.7958;-1;0.692571;1.08427;1.04115;0.673752;0.85;
33.7196;0.882413;0.818068;0.653596;0.784132;0.8;0.88726;0.872656;0.948423;0.863712;0.861819;0.871428;0.873918;0.869015;0.850908;0.969615;0.969585;0.971814;0.969614;0.969561;245.846;54.9309;0;0.735688;1.08587;67.7364;137.66;0;28.1493;40.7958;-1;0.692571;1.08427;1.04115;0.673752;0.85;
33.7196;0.882413;0.818068;0.653596;0.784132;0.8;0.88726;0.872656;0.948423;0.863712;0.861819;0.871428;0.873918;0.869015;0.850908;0.969615;0.969585;0.971814;0.969614;0.969561;245.846;54.9309;0;0.735769;1.08569;67.7364;137.66;0;28.1493;40.7958;-1;0.692571;1.08427;1.04115;0.673752;0.85;
33.7196;0.882413;0.818068;0.653596;0.784132;0.8;0.887259;0.872655;0.948423;0.863712;0.861819;0.871428;0.873918;0.869015;0.850908;0.969615;0.969585;0.971814;0.969614;0.969561;245.846;54.9309;0;0.735775;1.08568;67.7363;137.66;0;28.1492;40.7958;-1;0.692571;1.08427;1.04115;0.673752;0.85;
33.7196;0.882413;0.818068;0.653596;0.784132;0.8;0.887259;0.872655;0.948423;0.863712;0.861819;0.871428;0.873918;0.869015;0.850908;0.969615;0.969585;0.971814;0.969614;0.969561;245.846;54.9309;0;0.735777;1.08567;67.7363;137.66;0;28.1492;40.7958;-1;0.692571;1.08427;1.04115;0.673752;0.85;
33.7196;0.882413;0.818068;0.653596;0.784132;0.8;0.887259;0.872655;0.948423;0.863712;0.861819;0.871428;0.873918;0.869015;0.850908;0.969615;0.969585;0.971814;0.969614;0.969561;245.846;54.9309;0;0.735778;1.08567;67.7363;137.66;0;28.1492;40.7958;-1;0.692571;1.08427;1.04115;0.673752;0.85;
33.7196;0.882413;0.818068;0.653596;0.784132;0.8;0.887259;0.872655;0.948423;0.863712;0.861819;0.871428;0.873918;0.869015;0.850908;0.969615;0.969585;0.971814;0.969614;0.969561;245.846;54.9309;0;0.735779;1.08567;67.7363;137.66;0;28.1492;40.7958;-1;0.692571;1.08427;1.04115;0.673752;0.85;
33.7196;0.882413;0.818068;0.653596;0.784132;0.8;0.887259;0.872655;0.948423;0.863712;0.861819;0.871428;0.873918;0.869015;0.850908;0.969615;0.969585;0.971814;0.969614;0.969561;245.846;54.9309;0;0.735781;1.08567;67.7363;137.66;0;28.1492;40.7958;-1;0.692571;1.08427;1.04115;0.673752;0.85;
33.7196;0.882412;0.818068;0.653596;0.784132;0.8;0.887259;0.872655;0.948423;0.863712;0.861819;0.871428;0.873918;0.869015;0.850908;0.969615;0.969585;0.971814;0.969614;0.969561;245.846;54.9309;0;0.735784;1.08566;67.7363;137.66;0;28.1492;40.7958;-1;0.692571;1.08427;1.04115;0.673751;0.85;
33.7196;0.882412;0.818067;0.653596;0.784131;0.8;0.887259;0.872655;0.948423;0.863712;0.861819;0.871427;0.873918;0.869015;0.850908;0.969615;0.969585;0.971814;0.969614;0.969561;245.846;54.9308;0;0.73579;1.08565;67.7363;137.66;0;28.1492;40.7958;-1;0.692571;1.08427;1.04115;0.673751;0.85;
33.7197;0.882412;0.818067;0.653596;0.784131;0.8;0.887259;0.872655;0.948423;0.863711;0.861819;0.871427;0.873917;0.869015;0.850908;0.969615;0.969585;0.971814;0.969614;0.969561;245.846;54.9308;0;0.735803;1.08563;67.7363;137.66;0;28.1492;40.7958;-1;0.69257;1.08427;1.04115;0.673751;0.85;
33.7197;0.882412;0.818067;0.653595;0.784131;0.799999;0.887259;0.872655;0.948422;0.863711;0.861818;0.871427;0.873917;0.869014;0.850908;0.969615;0.969585;0.971814;0.969614;0.969561;245.846;54.9307;0;0.735828;1.08558;67.7363;137.66;0;28.1492;40.7958;-1;0.69257;1.08427;1.04115;0.67375;0.85;
33.7198;0.882411;0.818066;0.653595;0.78413;0.799999;0.887258;0.872654;0.948422;0.86371;0.861818;0.871426;0.873916;0.869014;0.850907;0.969615;0.969585;0.971814;0.969614;0.969561;245.846;54.9304;0;0.735879;1.08548;67.7362;137.66;0;28.1492;40.7958;-1;0.692569;1.08426;1.04114;0.673749;0.85;
33.7199;0.88241;0.818065;0.653594;0.784129;0.799998;0.887257;0.872653;0.948421;0.863709;0.861816;0.871425;0.873915;0.869012;0.850906;0.969615;0.969585;0.971814;0.969614;0.969561;245.846;54.9299;0;0.73598;1.08528;67.7362;137.659;0;28.1491;40.7958;-1;0.692567;1.08426;1.04114;0.673746;0.85;
33.7201;0.882407;0.818062;0.653592;0.784127;0.799995;0.887254;0.872651;0.948418;0.863707;0.861814;0.871423;0.873913;0.86901;0.850903;0.969615;0.969584;0.971814;0.969613;0.969561;245.846;54.929;0;0.736182;1.08489;67.736;137.658;0;28.149;40.7958;-1;0.692564;1.08425;1.04114;0.673741;0.85;
33.7207;0.882402;0.818057;0.653588;0.784122;0.79999;0.887249;0.872646;0.948414;0.863702;0.861809;0.871418;0.873908;0.869005;0.850899;0.969614;0.969584;0.971814;0.969613;0.96956;245.846;54.9271;0;0.736587;1.08412;67.7356;137.656;0;28.1487;40.7958;-1;0.692557;1.08423;1.04113;0.67373;0.85;
33.7217;0.882392;0.818047;0.653579;0.784112;0.79998;0.887239;0.872636;0.948405;0.863692;0.861799;0.871408;0.873898;0.868995;0.850889;0.969613;0.969583;0.971814;0.969612;0.96956;245.845;54.9233;0;0.737397;1.08257;67.7348;137.651;0;28.1481;40.7958;-1;0.692544;1.0842;1.04111;0.673709;0.85;
33.7237;0.882371;0.818025;0.653563;0.784092;0.79996;0.887219;0.872617;0.948387;0.863672;0.861779;0.871388;0.873878;0.868975;0.850869;0.969611;0.96958;0.971814;0.96961;0.969558;245.844;54.9157;0;0.739018;1.07951;67.7333;137.643;0;28.1469;40.7959;-1;0.692517;1.08413;1.04107;0.673667;0.85;
33.7278;0.88233;0.817983;0.65353;0.784053;0.79992;0.887179;0.872578;0.948352;0.863632;0.86174;0.871348;0.873838;0.868935;0.85083;0.969606;0.969576;0.971814;0.969606;0.969555;245.842;54.9003;0;0.742258;1.07351;67.7303;137.625;0;28.1446;40.796;-1;0.692464;1.08399;1.04099;0.673583;0.85;
33.736;0.882247;0.817899;0.653465;0.783975;0.799841;0.887099;0.872501;0.948281;0.863553;0.861661;0.871268;0.873759;0.868856;0.850752;0.969598;0.969567;0.971814;0.969597;0.969548;245.837;54.8691;0;0.748721;1.06207;67.7241;137.59;0;28.1399;40.7962;-1;0.692357;1.08371;1.04083;0.673414;0.85;
33.7524;0.882083;0.817731;0.653335;0.783819;0.799683;0.886939;0.872348;0.948139;0.863396;0.861504;0.87111;0.873602;0.868699;0.850597;0.96958;0.969549;0.971814;0.96958;0.969535;245.827;54.805;0;0.761458;1.04145;67.7116;137.521;0;28.1305;40.7963;-1;0.692144;1.08315;1.04052;0.67308;0.85;
33.7852;0.881755;0.817397;0.653078;0.783513;0.799372;0.886622;0.872046;0.947859;0.863087;0.861195;0.870798;0.87329;0.868388;0.850292;0.969545;0.969514;0.971814;0.969546;0.969509;245.806;54.6717;0;0.785338;1.00972;67.6857;137.381;0;28.1117;40.7958;-1;0.69172;1.08205;1.03991;0.672417;0.85;
33.8507;0.881108;0.816739;0.652574;0.782917;0.798764;0.885999;0.871458;0.947307;0.862488;0.860596;0.870188;0.872676;0.867776;0.849696;0.969476;0.969444;0.971814;0.969474;0.969458;245.751;54.3924;0;0.82181;0.985625;67.6316;137.1;0;28.0746;40.7914;-1;0.690884;1.07987;1.03871;0.671121;0.85;
33.9818;0.879843;0.815456;0.651604;0.781784;0.797597;0.884785;0.870336;0.94623;0.861355;0.859457;0.869016;0.871481;0.866591;0.848557;0.969338;0.969307;0.971814;0.969327;0.969352;245.571;53.8432;0;0.838476;1.06798;67.5191;136.525;0;28.0061;40.7694;-1;0.689257;1.07564;1.03639;0.668629;0.85;
34.1128;0.878614;0.814219;0.650674;0.780707;0.796479;0.88361;0.869265;0.945176;0.860285;0.858378;0.867896;0.870325;0.86545;0.847473;0.969202;0.969176;0.971814;0.969184;0.969232;245.289;53.3631;0;0.7934;1.25882;67.4072;135.938;0;27.9471;40.7334;-1;0.687689;1.07156;1.03417;0.666248;0.85;
34.2439;0.877414;0.813019;0.649772;0.779659;0.79539;0.882469;0.868217;0.944131;0.859244;0.85733;0.866808;0.869203;0.864342;0.84642;0.96907;0.969049;0.971814;0.969049;0.969095;244.923;52.9985;0;0.723092;1.4551;67.3018;135.348;0;27.8984;40.6907;-1;0.68617;1.06762;1.03202;0.663939;0.85;
34.375;0.87624;0.811851;0.648882;0.778613;0.794311;0.881358;0.867169;0.943087;0.858202;0.856285;0.865736;0.868108;0.863258;0.845376;0.968942;0.968924;0.971814;0.968924;0.968945;244.518;52.7543;0;0.668184;1.56487;67.2059;134.77;0;27.8587;40.6488;-1;0.684691;1.06379;1.0299;0.661669;0.85;
34.5061;0.875087;0.810704;0.647995;0.777555;0.793229;0.880272;0.866109;0.942047;0.857143;0.855229;0.864669;0.867037;0.862192;0.84433;0.968818;0.968801;0.971814;0.968803;0.968792;244.13;52.5999;0;0.6502;1.54175;67.1191;134.218;0;27.8264;40.6139;-1;0.68324;1.06003;1.02779;0.65941;0.85;
34.7682;0.872833;0.808456;0.646233;0.775424;0.791068;0.878159;0.86399;0.940005;0.855013;0.853115;0.862559;0.864948;0.860105;0.842249;0.968578;0.96856;0.971814;0.968562;0.968522;243.557;52.3146;0;0.660513;1.26437;66.9546;133.215;0;27.7798;40.5662;-1;0.680401;1.0527;1.0236;0.654938;0.85;
35.0304;0.870661;0.806284;0.644527;0.773356;0.788972;0.876136;0.861945;0.938045;0.852961;0.85108;0.860533;0.862948;0.858105;0.840249;0.968348;0.968327;0.971814;0.968324;0.968301;243.191;51.9152;0;0.649366;0.972705;66.7818;132.312;0;27.7515;40.5272;-1;0.67766;1.04564;1.01955;0.650623;0.85;
35.2925;0.868626;0.804256;0.642964;0.771498;0.787071;0.874289;0.860101;0.936233;0.851128;0.849259;0.858705;0.861122;0.856287;0.83845;0.96813;0.968107;0.971814;0.968107;0.968109;242.857;51.3379;0;0.595146;0.947699;66.5772;131.465;0;27.7332;40.4648;-1;0.675106;1.03908;1.01585;0.646685;0.85;
35.5546;0.866676;0.802326;0.641485;0.769753;0.785282;0.87255;0.858353;0.934484;0.8494;0.847542;0.856983;0.859403;0.854576;0.836755;0.96792;0.967898;0.971814;0.967901;0.967907;242.441;50.7929;0;0.561278;0.993509;66.3647;130.637;0;27.7175;40.3888;-1;0.672677;1.03286;1.01234;0.642974;0.85;
35.8168;0.8648;0.800476;0.640064;0.768071;0.783563;0.870892;0.856664;0.932788;0.847731;0.845887;0.855332;0.857763;0.85294;0.835125;0.967719;0.967699;0.971814;0.967702;0.967704;242.008;50.3233;0;0.542368;1.00403;66.1543;129.849;0;27.7084;40.3119;-1;0.670352;1.02691;1.00898;0.639419;0.85;
35.8895;0.864314;0.8;0.639697;0.767634;0.783116;0.870467;0.856225;0.932347;0.847297;0.845458;0.854906;0.857342;0.852521;0.834704;0.967667;0.967647;0.971814;0.96765;0.967652;241.901;50.2132;0;0.536675;0.9931;66.0966;129.654;0;27.7093;40.2918;-1;0.669755;1.02539;1.00811;0.638504;0.85;
35.8895;0.864314;0.8;0.639697;0.767634;0.783116;0.870467;0.856225;0.932347;0.847297;0.845458;0.854906;0.857342;0.852521;0.834704;0.967667;0.967647;0.971814;0.96765;0.967652;241.902;50.212;0;0.536603;0.992987;66.0963;129.654;0;27.7093;40.2918;-1;0.669754;1.02539;1.00811;0.638501;0.85;
35.8895;0.864314;0.8;0.639697;0.767634;0.783116;0.870467;0.856225;0.932347;0.847297;0.845458;0.854906;0.857342;0.852521;0.834704;0.967667;0.967647;0.971814;0.96765;0.967652;241.902;50.212;0;0.536603;0.992987;66.0963;129.654;0;27.7093;40.2918;-1;0.669754;1.02539;1.00811;0.638501;0.85;
35.8895;0.864314;0.8;0.639697;0.767634;0.783116;0.870467;0.856225;0.932347;0.847297;0.845458;0.854906;0.857342;0.852521;0.834704;0.967667;0.967647;0.971814;0.96765;0.967652;241.902;50.2121;0;0.536607;0.992994;66.0964;129.654;0;27.7093;40.2918;-1;0.669754;1.02539;1.00811;0.638501;0.85;
35.8895;0.864314;0.8;0.639697;0.767634;0.783116;0.870467;0.856225;0.932346;0.847297;0.845458;0.854906;0.857342;0.852521;0.834704;0.967667;0.967647;0.971814;0.96765;0.967652;241.902;50.212;0;0.536602;0.992988;66.0963;129.654;0;27.7093;40.2918;-1;0.669754;1.02539;1.00811;0.638501;0.85;
35.8895;0.864314;0.8;0.639697;0.767633;0.783116;0.870467;0.856224;0.932346;0.847297;0.845458;0.854906;0.857342;0.85252;0.834704;0.967667;0.967647;0.971814;0.96765;0.967652;241.902;50.212;0;0.536602;0.992988;66.0963;129.654;0;27.7093;40.2918;-1;0.669754;1.02539;1.00811;0.638501;0.85;
35.8895;0.864314;0.8;0.639696;0.767633;0.783116;0.870467;0.856224;0.932346;0.847297;0.845458;0.854906;0.857342;0.85252;0.834704;0.967667;0.967647;0.971814;0.96765;0.967652;241.902;50.212;0;0.536601;0.992988;66.0963;129.654;0;27.7093;40.2918;-1;0.669754;1.02539;1.00811;0.638501;0.85;
35.8896;0.864314;0.799999;0.639696;0.767633;0.783116;0.870466;0.856224;0.932346;0.847296;0.845457;0.854906;0.857342;0.85252;0.834704;0.967667;0.967647;0.971814;0.96765;0.967652;241.902;50.2119;0;0.536598;0.992988;66.0963;129.654;0;27.7093;40.2918;-1;0.669753;1.02539;1.00811;0.6385;0.85;
35.8896;0.864313;0.799999;0.639696;0.767633;0.783115;0.870466;0.856224;0.932346;0.847296;0.845457;0.854905;0.857341;0.85252;0.834703;0.967667;0.967647;0.971814;0.96765;0.967652;241.902;50.2118;0;0.536594;0.992989;66.0962;129.653;0;27.7093;40.2917;-1;0.669753;1.02539;1.00811;0.6385;0.85;
35.8898;0.864312;0.799998;0.639695;0.767632;0.783115;0.870465;0.856223;0.932345;0.847295;0.845456;0.854905;0.857341;0.852519;0.834703;0.967667;0.967647;0.971814;0.96765;0.967652;241.902;50.2116;0;0.536584;0.992991;66.0961;129.653;0;27.7093;40.2917;-1;0.669752;1.02538;1.00811;0.638498;0.85;
35.89;0.864311;0.799996;0.639694;0.76763;0.783113;0.870464;0.856221;0.932343;0.847294;0.845455;0.854903;0.857339;0.852517;0.834701;0.967667;0.967647;0.971814;0.96765;0.967652;241.901;50.2112;0;0.536566;0.992996;66.0959;129.652;0;27.7093;40.2916;-1;0.669749;1.02538;1.00811;0.638494;0.85;
35.8905;0.864307;0.799993;0.639691;0.767627;0.78311;0.87046;0.856218;0.93234;0.84729;0.845451;0.8549;0.857336;0.852514;0.834698;0.967666;0.967647;0.971814;0.967649;0.967651;241.9;50.2103;0;0.536529;0.993004;66.0955;129.651;0;27.7093;40.2915;-1;0.669745;1.02537;1.0081;0.638488;0.85;
35.8916;0.8643;0.799985;0.639686;0.767621;0.783103;0.870454;0.856211;0.932333;0.847284;0.845445;0.854894;0.857329;0.852508;0.834692;0.967666;0.967646;0.971814;0.967649;0.967651;241.899;50.2085;0;0.536455;0.993019;66.0947;129.648;0;27.7093;40.2912;-1;0.669736;1.02534;1.00809;0.638474;0.85;
35.8936;0.864285;0.799971;0.639675;0.767608;0.78309;0.870441;0.856198;0.93232;0.847271;0.845432;0.854881;0.857317;0.852495;0.834679;0.967664;0.967644;0.971814;0.967647;0.967649;241.895;50.2049;0;0.536308;0.993049;66.0931;129.642;0;27.7092;40.2906;-1;0.669718;1.0253;1.00806;0.638446;0.85;
35.8977;0.864256;0.799943;0.639653;0.767582;0.783063;0.870416;0.856172;0.932294;0.847245;0.845407;0.854855;0.857291;0.85247;0.834654;0.967661;0.967641;0.971814;0.967644;0.967646;241.889;50.1978;0;0.536016;0.993103;66.0898;129.63;0;27.7091;40.2894;-1;0.669682;1.02521;1.00801;0.638392;0.85;
35.9059;0.864198;0.799886;0.639609;0.76753;0.78301;0.870364;0.85612;0.932242;0.847194;0.845355;0.854804;0.857241;0.85242;0.834603;0.967655;0.967635;0.971814;0.967638;0.96764;241.875;50.1837;0;0.535441;0.993184;66.0833;129.605;0;27.7089;40.287;-1;0.66961;1.02502;1.00791;0.638282;0.85;
35.9223;0.864082;0.799772;0.639521;0.767426;0.782904;0.870262;0.856016;0.932137;0.847091;0.845253;0.854703;0.85714;0.852319;0.834503;0.967642;0.967623;0.971814;0.967626;0.967627;241.848;50.1555;0;0.534327;0.99323;66.0702;129.557;0;27.7085;40.2822;-1;0.669467;1.02466;1.0077;0.638064;0.85;
35.9551;0.863852;0.799545;0.639347;0.767219;0.782692;0.870059;0.855808;0.931928;0.846885;0.84505;0.8545;0.856939;0.852118;0.834303;0.967618;0.967598;0.971814;0.967601;0.967602;241.794;50.1002;0;0.532233;0.992786;66.044;129.461;0;27.7077;40.2727;-1;0.669182;1.02393;1.00729;0.637628;0.85;
36.0206;0.863394;0.799094;0.639;0.766807;0.782272;0.869656;0.855394;0.931513;0.846477;0.844645;0.854097;0.85654;0.85172;0.833905;0.967569;0.96755;0.971814;0.967552;0.967552;241.687;49.9928;0;0.52844;0.989332;65.992;129.272;0;27.7065;40.2538;-1;0.668617;1.02249;1.00647;0.636764;0.85;
36.1517;0.86249;0.798206;0.638314;0.765993;0.781441;0.868861;0.854576;0.930691;0.845668;0.843845;0.853302;0.855753;0.850935;0.833118;0.967473;0.967454;0.971814;0.967455;0.967453;241.478;49.7898;0;0.520833;0.971608;65.8887;128.902;0;27.7057;40.2167;-1;0.667503;1.01965;1.00485;0.635058;0.85;
36.4138;0.860729;0.796479;0.636977;0.764398;0.779814;0.867317;0.852975;0.929088;0.844088;0.842282;0.851752;0.854224;0.849408;0.831584;0.967287;0.967268;0.971814;0.967267;0.967263;241.093;49.4085;0;0.499144;0.911657;65.6839;128.2;0;27.7099;40.1457;-1;0.665338;1.01415;1.00169;0.631737;0.85;
36.9381;0.857391;0.793219;0.634451;0.761386;0.776742;0.864415;0.849951;0.926048;0.841107;0.839336;0.848837;0.85135;0.846537;0.828695;0.966936;0.966917;0.971814;0.966916;0.966914;240.401;48.6636;0;0.447305;0.806079;65.2685;126.916;0;27.7301;40.0061;-1;0.661257;1.0038;0.995739;0.625493;0.85;
37.9867;0.851763;0.787806;0.63026;0.756395;0.771646;0.859654;0.844915;0.920924;0.836166;0.834462;0.844032;0.84663;0.84182;0.823923;0.966361;0.966344;0.971814;0.966344;0.966344;239.229;47.3739;0;0.374164;0.69642;64.4233;124.926;0;27.7973;39.7384;-1;0.654499;0.986761;0.985887;0.615213;0.85;
38.9304;0.847257;0.783514;0.62693;0.752427;0.767594;0.855888;0.840904;0.916827;0.832236;0.830588;0.840223;0.842895;0.838087;0.820136;0.965914;0.965897;0.971814;0.965898;0.965897;238.293;46.367;0;0.317728;0.602317;63.6832;123.436;0;27.8624;39.5168;-1;0.649158;0.973376;0.978085;0.60712;0.85;
39.8741;0.843261;0.779743;0.624;0.748933;0.764024;0.852584;0.837367;0.913206;0.828775;0.82718;0.836875;0.839617;0.834808;0.816805;0.96553;0.965515;0.971814;0.965515;0.965515;237.474;45.4862;0;0.267406;0.516593;62.9745;122.203;0;27.9271;39.3171;-1;0.644479;0.961723;0.97124;0.600061;0.85;
40.8178;0.839693;0.776403;0.621401;0.745831;0.760854;0.849659;0.834227;0.909986;0.825704;0.824156;0.833909;0.836715;0.831906;0.813852;0.9652;0.965185;0.971814;0.965186;0.965185;236.751;44.7067;0;0.222705;0.440372;62.3006;121.166;0;27.9892;39.1373;-1;0.640344;0.951465;0.96518;0.593838;0.85;
42.7053;0.833397;0.770557;0.616848;0.740394;0.755294;0.844543;0.828721;0.904336;0.820322;0.818859;0.828716;0.831638;0.826827;0.80868;0.964644;0.964632;0.971814;0.964633;0.964632;235.486;43.3446;0;0.144649;0.307628;61.0436;119.446;0;28.1041;38.8202;-1;0.633122;0.933633;0.954586;0.583005;0.85;
44.5927;0.828314;0.765899;0.613212;0.73605;0.750847;0.840469;0.824325;0.899824;0.816026;0.814632;0.824577;0.827594;0.822781;0.804555;0.964241;0.964231;0.971814;0.964231;0.964231;234.481;42.2622;0;0.0826369;0.202332;59.9384;118.204;0;28.2029;38.5673;-1;0.627391;0.919593;0.946161;0.574457;0.85;
47.2901;0.822636;0.76075;0.60919;0.731241;0.74592;0.835973;0.819469;0.89485;0.811281;0.809964;0.820007;0.823132;0.818316;0.8;0.963861;0.963854;0.971814;0.963854;0.963854;233.371;41.0687;0;0.0142151;0.086201;58.6272;116.933;0;28.3181;38.2941;-1;0.621071;0.904193;0.936861;0.565068;0.85;
47.2901;0.822636;0.76075;0.60919;0.731241;0.74592;0.835973;0.819469;0.89485;0.811281;0.809964;0.820007;0.823132;0.818316;0.8;0.963861;0.963854;0.971814;0.963854;0.963854;233.371;41.0687;0;0.0142151;0.086201;58.6272;116.933;0;28.3181;38.2941;-1;0.621071;0.904193;0.936861;0.565068;0.85;
47.2901;0.822637;0.76075;0.60919;0.731242;0.745921;0.835973;0.819469;0.89485;0.811281;0.809965;0.820007;0.823132;0.818316;0.8;0.963861;0.963854;0.971814;0.963854;0.963854;233.368;41.0728;0;0.0145041;0.0865261;58.6284;116.934;0;28.3178;38.2942;-1;0.621074;0.90421;0.936865;0.565078;0.85;
47.2901;0.822637;0.76075;0.60919;0.731242;0.745921;0.835973;0.819469;0.89485;0.811281;0.809965;0.820007;0.823132;0.818316;0.8;0.963861;0.963854;0.971814;0.963854;0.963854;233.368;41.0728;0;0.0145041;0.0865261;58.6284;116.934;0;28.3178;38.2942;-1;0.621074;0.90421;0.936865;0.565078;0.85;
47.2902;0.822637;0.76075;0.60919;0.731242;0.745921;0.835973;0.819469;0.89485;0.811281;0.809965;0.820007;0.823132;0.818316;0.8;0.963861;0.963854;0.971814;0.963854;0.963854;233.368;41.0725;0;0.0144864;0.0865061;58.6283;116.934;0;28.3178;38.2942;-1;0.621074;0.904209;0.936864;0.565077;0.85;
47.2902;0.822637;0.76075;0.60919;0.731242;0.745921;0.835973;0.819469;0.89485;0.811281;0.809965;0.820007;0.823132;0.818316;0.8;0.963861;0.963854;0.971814;0.963854;0.963854;233.368;41.0728;0;0.014504;0.0865259;58.6284;116.934;0;28.3178;38.2942;-1;0.621074;0.90421;0.936865;0.565078;0.85;
47.2902;0.822637;0.76075;0.60919;0.731242;0.745921;0.835973;0.819469;0.89485;0.811281;0.809965;0.820007;0.823132;0.818316;0.8;0.963861;0.963854;0.971814;0.963854;0.963854;233.368;41.0728;0;0.0145038;0.0865256;58.6284;116.934;0;28.3178;38.2942;-1;0.621074;0.90421;0.936865;0.565078;0.85;
47.2902;0.822637;0.76075;0.60919;0.731242;0.745921;0.835973;0.819469;0.89485;0.811281;0.809965;0.820007;0.823132;0.818316;0.8;0.963861;0.963854;0.971814;0.963854;0.963854;233.368;41.0728;0;0.0145034;0.0865251;58.6284;116.934;0;28.3178;38.2942;-1;0.621074;0.90421;0.936865;0.565078;0.85;
47.2902;0.822637;0.76075;0.60919;0.731242;0.745921;0.835973;0.819469;0.89485;0.811281;0.809965;0.820007;0.823132;0.818316;0.8;0.963861;0.963854;0.971814;0.963854;0.963854;233.368;41.0728;0;0.0145027;0.086524;58.6283;116.934;0;28.3178;38.2942;-1;0.621074;0.90421;0.936865;0.565077;0.85;
47.2903;0.822636;0.76075;0.60919;0.731242;0.745921;0.835973;0.819469;0.89485;0.811281;0.809964;0.820007;0.823132;0.818316;0.8;0.963861;0.963854;0.971814;0.963854;0.963854;233.367;41.0727;0;0.0145012;0.0865219;58.6283;116.934;0;28.3178;38.2942;-1;0.621074;0.904209;0.936864;0.565077;0.85;
47.2903;0.822636;0.76075;0.60919;0.731242;0.745921;0.835973;0.819469;0.89485;0.811281;0.809964;0.820007;0.823132;0.818316;0.8;0.963861;0.963854;0.971814;0.963854;0.963854;233.367;41.0727;0;0.0145004;0.0865209;58.6283;116.934;0;28.3178;38.2942;-1;0.621074;0.904209;0.936864;0.565077;0.85;
47.2903;0.822636;0.76075;0.60919;0.731242;0.745921;0.835973;0.819469;0.89485;0.811281;0.809964;0.820007;0.823132;0.818316;0.8;0.963861;0.963854;0.971814;0.963854;0.963854;233.367;41.0727;0;0.0145004;0.0865209;58.6283;116.934;0;28.3178;38.2942;-1;0.621074;0.904209;0.936864;0.565077;0.85;
47.2903;0.822636;0.76075;0.60919;0.731242;0.745921;0.835973;0.819469;0.89485;0.811281;0.809964;0.820007;0.823132;0.818316;0.8;0.963861;0.963854;0.971814;0.963854;0.963854;233.367;41.0727;0;0.0145004;0.0865208;58.6283;116.934;0;28.3178;38.2942;-1;0.621074;0.904209;0.936864;0.565077;0.85;
47.2903;0.822636;0.76075;0.60919;0.731242;0.745921;0.835973;0.819469;0.89485;0.811281;0.809964;0.820007;0.823132;0.818316;0.8;0.963861;0.963854;0.971814;0.963854;0.963854;233.367;41.0727;0;0.0145004;0.0865208;58.6283;116.934;0;28.3178;38.2942;-1;0.621074;0.904209;0.936864;0.565077;0.85;
47.2903;0.822636;0.76075;0.60919;0.731242;0.745921;0.835973;0.819469;0.89485;0.811281;0.809964;0.820007;0.823132;0.818316;0.8;0.963861;0.963854;0.971814;0.963854;0.963854;233.367;41.0727;0;0.0145003;0.0865206;58.6283;116.934;0;28.3178;38.2941;-1;0.621074;0.904209;0.936864;0.565077;0.85;
47.2903;0.822636;0.76075;0.60919;0.731242;0.745921;0.835973;0.819469;0.89485;0.811281;0.809964;0.820007;0.823132;0.818316;0.8;0.963861;0.963854;0.971814;0.963854;0.963854;233.367;41.0727;0;0.0145001;0.0865204;58.6283;116.934;0;28.3178;38.2941;-1;0.621074;0.904209;0.936864;0.565077;0.85;
47.2903;0.822636;0.76075;0.60919;0.731242;0.745921;0.835973;0.819469;0.89485;0.811281;0.809964;0.820007;0.823132;0.818316;0.8;0.963861;0.963854;0.971814;0.963854;0.963854;233.367;41.0727;0;0.0144997;0.0865198;58.6283;116.934;0;28.3178;38.2941;-1;0.621074;0.904209;0.936864;0.565077;0.85;
47.2904;0.822636;0.76075;0.60919;0.731242;0.745921;0.835973;0.819469;0.89485;0.811281;0.809964;0.820007;0.823132;0.818316;0.8;0.963861;0.963854;0.971814;0.963854;0.963854;233.367;41.0727;0;0.0144989;0.0865188;58.6283;116.934;0;28.3178;38.2941;-1;0.621074;0.904209;0.936864;0.565077;0.85;
47.2904;0.822636;0.76075;0.609189;0.731241;0.745921;0.835973;0.819469;0.89485;0.811281;0.809964;0.820007;0.823132;0.818316;0.8;0.963861;0.963854;0.971814;0.963854;0.963854;233.367;41.0727;0;0.0144974;0.0865166;58.6283;116.934;0;28.3178;38.2941;-1;0.621074;0.904209;0.936864;0.565077;0.85;
47.2906;0.822636;0.76075;0.609189;0.731241;0.74592;0.835973;0.819468;0.89485;0.811281;0.809964;0.820007;0.823131;0.818315;0.8;0.963861;0.963854;0.971814;0.963854;0.963854;233.367;41.0726;0;0.0144944;0.0865124;58.6282;116.934;0;28.3178;38.2941;-1;0.621074;0.904208;0.936864;0.565077;0.85;
47.2908;0.822636;0.760749;0.609189;0.731241;0.74592;0.835973;0.819468;0.894849;0.81128;0.809964;0.820006;0.823131;0.818315;0.799999;0.963861;0.963854;0.971814;0.963854;0.963854;233.367;41.0725;0;0.0144884;0.0865038;58.6281;116.933;0;28.3179;38.2941;-1;0.621073;0.904207;0.936863;0.565076;0.85;
47.2913;0.822635;0.760749;0.609188;0.73124;0.745919;0.835972;0.819467;0.894849;0.81128;0.809963;0.820006;0.82313;0.818314;0.799999;0.963861;0.963853;0.971814;0.963854;0.963854;233.367;41.0723;0;0.0144764;0.0864868;58.6279;116.933;0;28.3179;38.2941;-1;0.621072;0.904205;0.936862;0.565074;0.85;
47.2924;0.822633;0.760747;0.609187;0.731239;0.745918;0.835971;0.819466;0.894847;0.811278;0.809962;0.820004;0.823129;0.818313;0.799997;0.963861;0.963853;0.971814;0.963854;0.963854;233.367;41.072;0;0.0144526;0.0864526;58.6274;116.933;0;28.3179;38.294;-1;0.62107;0.9042;0.936859;0.565072;0.85;
47.2944;0.82263;0.760744;0.609185;0.731236;0.745915;0.835968;0.819463;0.894844;0.811275;0.809959;0.820001;0.823126;0.81831;0.799995;0.963861;0.963853;0.971814;0.963854;0.963853;233.366;41.0712;0;0.0144052;0.0863842;58.6265;116.932;0;28.318;38.2938;-1;0.621067;0.904191;0.936853;0.565066;0.85;
47.2985;0.822623;0.760738;0.60918;0.73123;0.745909;0.835963;0.819457;0.894838;0.81127;0.809953;0.819996;0.823121;0.818305;0.799989;0.963861;0.963853;0.971814;0.963853;0.963853;233.365;41.0697;0;0.0143117;0.0862469;58.6248;116.931;0;28.3182;38.2935;-1;0.621059;0.904173;0.936842;0.565055;0.85;
47.3067;0.822609;0.760726;0.609171;0.731219;0.745897;0.835952;0.819446;0.894827;0.811259;0.809942;0.819985;0.823111;0.818295;0.799979;0.96386;0.963852;0.971814;0.963853;0.963852;233.363;41.0668;0;0.0141286;0.0859712;58.6213;116.929;0;28.3185;38.2929;-1;0.621044;0.904137;0.936821;0.565033;0.85;
47.3231;0.822582;0.760702;0.609152;0.731196;0.745874;0.835931;0.819423;0.894803;0.811236;0.809921;0.819964;0.82309;0.818274;0.799957;0.963859;0.963851;0.971814;0.963851;0.963851;233.358;41.0608;0;0.0137731;0.085416;58.6142;116.924;0;28.3191;38.2916;-1;0.621015;0.904065;0.936777;0.564989;0.85;
47.3558;0.822528;0.760653;0.609114;0.731151;0.745828;0.835889;0.819378;0.894757;0.811192;0.809877;0.819921;0.823048;0.818232;0.799915;0.963856;0.963848;0.971814;0.963849;0.963848;233.348;41.049;0;0.013083;0.0842976;58.6002;116.914;0;28.3203;38.2891;-1;0.620956;0.903922;0.93669;0.564902;0.85;
47.4214;0.82242;0.760558;0.609039;0.731061;0.745736;0.835806;0.819287;0.894665;0.811104;0.80979;0.819836;0.822965;0.818149;0.79983;0.96385;0.963843;0.971814;0.963843;0.963843;233.329;41.0256;0;0.0117298;0.0820499;58.5723;116.894;0;28.3227;38.2841;-1;0.620839;0.903638;0.936517;0.564728;0.85;
47.5524;0.822208;0.760369;0.608891;0.730884;0.745554;0.835641;0.819109;0.894482;0.810929;0.809619;0.819669;0.822802;0.817986;0.799663;0.96384;0.963832;0.971814;0.963833;0.963833;233.291;40.9797;0;0.00907718;0.077581;58.5171;116.855;0;28.3275;38.2744;-1;0.620607;0.903076;0.936176;0.564385;0.85;
47.8146;0.821793;0.76;0.608602;0.730539;0.745199;0.83532;0.818761;0.894127;0.810589;0.809284;0.819342;0.822483;0.817666;0.799337;0.96382;0.963813;0.971814;0.963813;0.963813;233.214;40.8926;0;0.00407842;0.0690209;58.4091;116.779;0;28.3368;38.2553;-1;0.620156;0.901982;0.93551;0.563717;0.85;
48.3389;0.821002;0.759299;0.608054;0.729882;0.744525;0.834709;0.8181;0.893452;0.809944;0.808649;0.81872;0.821877;0.81706;0.798717;0.963785;0.963779;0.971814;0.963779;0.963779;233.061;40.7321;0;-0.0050716;0.0534004;58.2021;116.635;0;28.3543;38.2193;-1;0.619298;0.899904;0.934245;0.562447;0.85;
49.3875;0.819563;0.758026;0.607057;0.72869;0.743301;0.833602;0.816902;0.892231;0.808772;0.807497;0.817594;0.820777;0.815959;0.797594;0.963733;0.963727;0.971814;0.963728;0.963727;232.784;40.4406;0;-0.0218205;0.0250886;57.8215;116.376;0;28.3866;38.1555;-1;0.617741;0.896137;0.931949;0.560145;0.85;
51.4846;0.817168;0.755915;0.605405;0.726714;0.741271;0.831772;0.814924;0.890224;0.806837;0.805595;0.815732;0.818961;0.814141;0.795738;0.963687;0.963682;0.971814;0.963683;0.963683;232.332;39.9538;0;-0.0498194;-0.0223408;57.1783;115.962;0;28.4422;38.0549;-1;0.615162;0.88991;0.928147;0.556341;0.85;
55.6789;0.813811;0.752971;0.603103;0.723965;0.738443;0.829244;0.812192;0.887472;0.804162;0.802964;0.81316;0.816451;0.81163;0.793172;0.963763;0.96376;0.971814;0.96376;0.96376;231.704;39.278;0;-0.0886765;-0.0881909;56.2536;115.408;0;28.527;37.9276;-1;0.611573;0.881272;0.922858;0.551067;0.85;
59.8732;0.811875;0.75129;0.601791;0.722402;0.736834;0.827832;0.810661;0.885954;0.802661;0.801489;0.81172;0.815048;0.810226;0.791735;0.964;0.963998;0.971814;0.963998;0.963998;231.347;38.8952;0;-0.110724;-0.12548;55.6942;115.11;0;28.5863;37.8687;-1;0.609524;0.876355;0.919847;0.548073;0.85;
64.0675;0.810845;0.750405;0.601105;0.721589;0.735994;0.827122;0.809884;0.885201;0.801898;0.80074;0.810992;0.814343;0.809518;0.791007;0.964331;0.96433;0.971814;0.96433;0.96433;231.162;38.6967;0;-0.122213;-0.14484;55.3769;114.962;0;28.6291;37.8488;-1;0.608448;0.873776;0.918274;0.54651;0.85;
68.2618;0.810367;0.750003;0.600797;0.721229;0.73562;0.826834;0.809558;0.884902;0.801577;0.800428;0.810693;0.814056;0.80923;0.790705;0.964712;0.964712;0.971814;0.964712;0.964712;231.08;38.6092;0;-0.127334;-0.153392;55.2124;114.901;0;28.6614;37.8497;-1;0.607959;0.872608;0.917568;0.545811;0.85;
72.4561;0.810213;0.749885;0.60071;0.721133;0.735519;0.826792;0.809493;0.884863;0.801514;0.800368;0.810642;0.814012;0.809186;0.790651;0.965114;0.965114;0.971814;0.965114;0.965114;231.058;38.5864;0;-0.128731;-0.155626;55.1403;114.888;0;28.6872;37.8611;-1;0.607815;0.872264;0.91737;0.545615;0.85;
76.6504;0.810246;0.749927;0.600749;0.721187;0.735573;0.826888;0.809575;0.884969;0.801595;0.800452;0.810732;0.814107;0.809279;0.790736;0.96552;0.96552;0.971814;0.96552;0.96552;231.071;38.6005;0;-0.128014;-0.154272;55.1222;114.902;0;28.7087;37.8776;-1;0.607867;0.872389;0.917461;0.545706;0.85;
85.039;0.810526;0.750195;0.600971;0.721466;0.735856;0.827233;0.809903;0.885339;0.801919;0.800777;0.811065;0.814446;0.809616;0.791061;0.966305;0.966305;0.971814;0.966305;0.966305;231.135;38.6701;0;-0.124193;-0.14753;55.1507;114.96;0;28.7453;37.9145;-1;0.608193;0.873171;0.91797;0.546211;0.85;
93.4276;0.810992;0.750622;0.601316;0.72189;0.736289;0.827703;0.810367;0.885837;0.802377;0.801234;0.811527;0.81491;0.810077;0.791513;0.967017;0.967017;0.971814;0.967017;0.967017;231.233;38.775;0;-0.118319;-0.137331;55.2385;115.043;0;28.7734;37.953;-1;0.608713;0.874415;0.91876;0.546995;0.85;
100;0.81134;0.750941;0.601573;0.722205;0.736611;0.828051;0.810711;0.886206;0.802717;0.801573;0.81187;0.815254;0.810419;0.791849;0.967534;0.967534;0.971814;0.967534;0.967534;231.305;38.8531;0;-0.113947;-0.129744;55.305;115.105;0;28.7937;37.9811;-1;0.6091;0.875343;0.919349;0.54758;0.85;
