time;NETWORK__BUS____1_TN_Upu_value;NETWORK__BUS____2_TN_Upu_value;NETWORK__BUS____3_TN_Upu_value;NETWORK__BUS____4_TN_Upu_value;NETWORK__BUS____5_TN_Upu_value;NETWORK__BUS____6_TN_Upu_value;NETWORK__BUS____7_TN_Upu_value;NETWORK__BUS____8_TN_Upu_value;NETWORK__BUS____9_TN_Upu_value;NETWORK__BUS___10_TN_Upu_value;NETWORK__BUS___11_TN_Upu_value;NETWORK__BUS___12_TN_Upu_value;NETWORK__BUS___13_TN_Upu_value;NETWORK__BUS___14_TN_Upu_value;GEN____1_SM_generator_omegaPu;GEN____2_SM_generator_omegaPu;GEN____3_SM_generator_omegaPu;GEN____6_SM_generator_omegaPu;GEN____8_SM_generator_omegaPu;GEN____1_SM_generator_PGen;GEN____6_SM_generator_PGen;GEN____2_SM_generator_PGen;GEN____3_SM_generator_PGen;GEN____8_SM_generator_PGen;GEN____1_SM_generator_QGen;GEN____2_SM_generator_QGen;GEN____3_SM_generator_QGen;GEN____6_SM_generator_QGen;GEN____8_SM_generator_QGen;_LOAD___5_EC_load_PPu;_LOAD___5_EC_load_QPu;NETWORK__BUS____5-BUS____6-1_PT_step;
0;1.06002;1.04505;1.01;1.01771;1.01957;1.07016;1.06154;1.08993;1.05599;1.05106;1.05702;1.05534;1.05053;1.03567;1;1;1;1;1;232.376;0.00265139;40.0971;-0.084378;-0.00617124;-16.6166;43.6197;25.0599;12.8011;17.5672;0.0760062;0.0160022;3;
1e-06;1.06002;1.04505;1.01;1.01771;1.01957;1.07016;1.06154;1.08993;1.05599;1.05106;1.05702;1.05534;1.05053;1.03567;1;1;1;1;1;232.376;0.00265174;40.0971;-0.084378;-0.00617124;-16.6166;43.6197;25.0599;12.8011;17.5672;0.0760062;0.0160022;3;
2e-06;1.06002;1.04505;1.01;1.01771;1.01957;1.07016;1.06154;1.08993;1.05599;1.05106;1.05702;1.05534;1.05053;1.03567;1;1;1;1;1;232.376;0.00265167;40.0971;-0.0843778;-0.00617123;-16.6166;43.6197;25.0599;12.8011;17.5672;0.0760062;0.0160022;3;
4e-06;1.06002;1.04505;1.01;1.01771;1.01957;1.07016;1.06154;1.08993;1.05599;1.05106;1.05702;1.05534;1.05053;1.03567;1;1;1;1;1;232.376;0.00265172;40.0971;-0.0843775;-0.0061712;-16.6166;43.6197;25.0599;12.8011;17.5672;0.0760062;0.0160022;3;
8e-06;1.06002;1.04505;1.01;1.01771;1.01957;1.07016;1.06154;1.08993;1.05599;1.05106;1.05702;1.05534;1.05053;1.03567;1;1;1;1;1;232.376;0.00265127;40.0971;-0.0843768;-0.00617114;-16.6166;43.6197;25.0599;12.8011;17.5672;0.0760062;0.0160022;3;
1.6e-05;1.06002;1.04505;1.01;1.01771;1.01957;1.07016;1.06154;1.08993;1.05599;1.05106;1.05702;1.05534;1.05053;1.03567;1;1;1;1;1;232.376;0.00265074;40.0971;-0.0843754;-0.00617103;-16.6166;43.6197;25.0599;12.8011;17.5672;0.0760062;0.0160022;3;
3.2e-05;1.06002;1.04505;1.01;1.01771;1.01957;1.07016;1.06154;1.08993;1.05599;1.05106;1.05702;1.05534;1.05053;1.03567;1;1;1;1;1;232.376;0.00264968;40.0971;-0.0843725;-0.0061708;-16.6166;43.6197;25.0599;12.8011;17.5672;0.0760062;0.0160022;3;
6.4e-05;1.06002;1.04505;1.01;1.01771;1.01957;1.07016;1.06154;1.08993;1.05599;1.05106;1.05702;1.05534;1.05053;1.03567;1;1;1;1;1;232.376;0.00264756;40.0971;-0.0843669;-0.00617034;-16.6166;43.6197;25.0599;12.8011;17.5672;0.0760062;0.0160022;3;
0.000128;1.06002;1.04505;1.01;1.01771;1.01957;1.07016;1.06154;1.08993;1.05599;1.05106;1.05702;1.05534;1.05053;1.03567;1;1;1;1;1;232.376;0.00264332;40.097;-0.0843556;-0.00616944;-16.6166;43.6196;25.0599;12.8011;17.5672;0.0760062;0.0160022;3;
0.000256;1.06002;1.04505;1.01;1.01771;1.01957;1.07016;1.06154;1.08993;1.05599;1.05106;1.05702;1.05534;1.05053;1.03567;1;1;1;1;1;232.376;0.0026349;40.097;-0.0843331;-0.00616762;-16.6165;43.6196;25.0599;12.801;17.5672;0.0760062;0.0160022;3;
0.000512;1.06002;1.04505;1.01;1.01771;1.01957;1.07016;1.06154;1.08993;1.05599;1.05106;1.05702;1.05534;1.05053;1.03567;1;1;1;1;1;232.376;0.0026182;40.0969;-0.0842881;-0.00616399;-16.6165;43.6196;25.0599;12.801;17.5672;0.0760062;0.0160022;3;
0.001024;1.06002;1.04505;1.01;1.01771;1.01957;1.07016;1.06154;1.08993;1.05599;1.05106;1.05702;1.05534;1.05053;1.03567;1;1;1;1;1;232.376;0.00258543;40.0967;-0.0841983;-0.00615676;-16.6163;43.6195;25.06;12.8008;17.5673;0.0760062;0.0160022;3;
0.002048;1.06002;1.04505;1.01;1.01771;1.01957;1.07016;1.06154;1.08993;1.05599;1.05106;1.05702;1.05534;1.05053;1.03567;1;1;1;1;1;232.376;0.00252227;40.0963;-0.0840195;-0.00614234;-16.6161;43.6194;25.06;12.8005;17.5673;0.0760061;0.0160022;3;
0.004096;1.06002;1.04505;1.01;1.01771;1.01957;1.07016;1.06154;1.08993;1.05599;1.05106;1.05702;1.05534;1.05053;1.03566;1;1;1;1;1;232.377;0.00240498;40.0955;-0.0836646;-0.00611368;-16.6155;43.6191;25.0601;12.7999;17.5675;0.0760061;0.0160021;3;
0.008192;1.06002;1.04505;1.01;1.01771;1.01957;1.07015;1.06154;1.08993;1.05599;1.05106;1.05702;1.05534;1.05053;1.03566;1;1;1;1;1;232.378;0.00220232;40.0939;-0.0829639;-0.00605656;-16.6145;43.6186;25.0603;12.799;17.5677;0.0760061;0.0160021;3;
0.016384;1.06002;1.04505;1.01;1.01771;1.01957;1.07015;1.06154;1.08993;1.05599;1.05106;1.05702;1.05534;1.05053;1.03566;1;1;1;1;1;232.379;0.0018981;40.0908;-0.0815873;-0.00594005;-16.6127;43.6173;25.0606;12.7976;17.568;0.076006;0.0160021;3;
0.032768;1.06002;1.04505;1.01;1.01771;1.01957;1.07015;1.06154;1.08993;1.05599;1.05106;1.05702;1.05533;1.05053;1.03566;1;1;1;1;1;232.382;0.00154979;40.0847;-0.078863;-0.00568274;-16.6097;43.6148;25.0606;12.7965;17.5683;0.0760059;0.0160021;3;
0.036548;1.06002;1.04505;1.01;1.01771;1.01957;1.07015;1.06154;1.08993;1.05599;1.05106;1.05702;1.05533;1.05053;1.03566;1;1;1;1;1;232.383;0.001491;40.0833;-0.0782253;-0.00561661;-16.6091;43.6142;25.0606;12.7964;17.5684;0.0760059;0.0160021;3;
0.036549;1.06002;1.04505;1.01;1.01771;1.01957;1.07015;1.06154;1.08993;1.05599;1.05106;1.05702;1.05533;1.05053;1.03566;1;1;1;1;1;232.383;0.00149099;40.0833;-0.0782251;-0.0056166;-16.6091;43.6142;25.0606;12.7964;17.5684;0.0760059;0.0160021;3;
0.03655;1.06002;1.04505;1.01;1.01771;1.01957;1.07015;1.06154;1.08993;1.05599;1.05106;1.05702;1.05533;1.05053;1.03566;1;1;1;1;1;232.383;0.00149099;40.0833;-0.0782249;-0.00561658;-16.6091;43.6142;25.0606;12.7964;17.5684;0.0760059;0.0160021;3;
0.036552;1.06002;1.04505;1.01;1.01771;1.01957;1.07015;1.06154;1.08993;1.05599;1.05106;1.05702;1.05533;1.05053;1.03566;1;1;1;1;1;232.383;0.00149097;40.0833;-0.0782246;-0.00561655;-16.6091;43.6142;25.0606;12.7964;17.5684;0.0760059;0.0160021;3;
0.036556;1.06002;1.04505;1.01;1.01771;1.01957;1.07015;1.06154;1.08993;1.05599;1.05106;1.05702;1.05533;1.05053;1.03566;1;1;1;1;1;232.383;0.00149095;40.0833;-0.0782239;-0.00561648;-16.6091;43.6142;25.0606;12.7964;17.5684;0.0760059;0.0160021;3;
0.036564;1.06002;1.04505;1.01;1.01771;1.01957;1.07015;1.06154;1.08993;1.05599;1.05106;1.05702;1.05533;1.05053;1.03566;1;1;1;1;1;232.383;0.0014909;40.0833;-0.0782226;-0.00561634;-16.6091;43.6142;25.0606;12.7964;17.5684;0.0760059;0.0160021;3;
0.03658;1.06002;1.04505;1.01;1.01771;1.01957;1.07015;1.06154;1.08993;1.05599;1.05106;1.05702;1.05533;1.05053;1.03566;1;1;1;1;1;232.383;0.00149081;40.0833;-0.07822;-0.00561607;-16.6091;43.6142;25.0606;12.7964;17.5684;0.0760059;0.0160021;3;
0.036612;1.06002;1.04505;1.01;1.01771;1.01957;1.07015;1.06154;1.08993;1.05599;1.05106;1.05702;1.05533;1.05053;1.03566;1;1;1;1;1;232.383;0.00149062;40.0833;-0.0782147;-0.00561552;-16.6091;43.6142;25.0606;12.7964;17.5684;0.0760059;0.0160021;3;
0.036676;1.06002;1.04505;1.01;1.01771;1.01957;1.07015;1.06154;1.08993;1.05599;1.05106;1.05702;1.05533;1.05053;1.03566;1;1;1;1;1;232.383;0.00149024;40.0833;-0.0782042;-0.00561442;-16.6091;43.6142;25.0606;12.7964;17.5684;0.0760059;0.0160021;3;
0.036804;1.06002;1.04505;1.01;1.01771;1.01957;1.07015;1.06154;1.08993;1.05599;1.05106;1.05702;1.05533;1.05053;1.03566;1;1;1;1;1;232.383;0.00148949;40.0832;-0.0781831;-0.00561222;-16.6091;43.6141;25.0606;12.7964;17.5684;0.0760059;0.0160021;3;
0.03706;1.06002;1.04505;1.01;1.01771;1.01957;1.07015;1.06154;1.08993;1.05599;1.05106;1.05702;1.05533;1.05053;1.03566;1;1;1;1;1;232.383;0.00148802;40.0831;-0.0781409;-0.00560781;-16.6091;43.6141;25.0606;12.7964;17.5684;0.0760059;0.0160021;3;
0.037572;1.06002;1.04505;1.01;1.01771;1.01957;1.07015;1.06154;1.08993;1.05599;1.05106;1.05702;1.05533;1.05053;1.03566;1;1;1;1;1;232.383;0.00148515;40.083;-0.0780565;-0.00559896;-16.609;43.614;25.0606;12.7964;17.5684;0.0760059;0.0160021;3;
0.038596;1.06002;1.04505;1.01;1.01771;1.01957;1.07015;1.06154;1.08993;1.05599;1.05106;1.05702;1.05533;1.05053;1.03566;1;1;1;1;1;232.384;0.00147973;40.0826;-0.0778874;-0.00558109;-16.6089;43.6138;25.0605;12.7965;17.5684;0.0760059;0.0160021;3;
0.040644;1.06002;1.04505;1.01;1.01771;1.01957;1.07015;1.06154;1.08993;1.05599;1.05106;1.05702;1.05533;1.05053;1.03566;1;1;1;1;1;232.384;0.00147009;40.0818;-0.0775483;-0.00554467;-16.6086;43.6135;25.0605;12.7966;17.5684;0.0760059;0.0160021;3;
0.04474;1.06002;1.04505;1.01;1.01771;1.01957;1.07015;1.06154;1.08993;1.05599;1.05106;1.05702;1.05533;1.05053;1.03566;1;1;1;1;1;232.385;0.00145481;40.0803;-0.0768657;-0.0054691;-16.608;43.6128;25.0604;12.7968;17.5683;0.0760059;0.0160021;3;
0.052932;1.06002;1.04505;1.01;1.01771;1.01957;1.07015;1.06154;1.08993;1.05599;1.05106;1.05702;1.05534;1.05053;1.03566;1;1;1;1;1;232.386;0.00143576;40.0773;-0.07548;-0.005307;-16.6071;43.6115;25.0601;12.7973;17.5683;0.076006;0.0160021;3;
0.069316;1.06002;1.04505;1.01;1.01771;1.01957;1.07015;1.06154;1.08993;1.05599;1.05106;1.05702;1.05534;1.05053;1.03566;1;1;1;1;1;232.39;0.00141919;40.0712;-0.0726086;-0.00493963;-16.6054;43.609;25.0594;12.7989;17.568;0.0760061;0.0160021;3;
0.102084;1.06002;1.04505;1.01001;1.01772;1.01957;1.07016;1.06154;1.08993;1.05599;1.05106;1.05703;1.05535;1.05054;1.03567;1;0.999999;1;1;1;232.396;0.00137822;40.0587;-0.0664038;-0.0040519;-16.6029;43.6046;25.0575;12.8028;17.5672;0.0760063;0.0160022;3;
0.16762;1.06003;1.04505;1.01001;1.01772;1.01957;1.07018;1.06154;1.08993;1.056;1.05107;1.05704;1.05536;1.05055;1.03568;1;0.999999;1;1;1;232.406;0.00108129;40.0334;-0.0522444;-0.00189758;-16.5998;43.5976;25.0529;12.8111;17.5653;0.0760068;0.0160024;3;
0.298692;1.06003;1.04505;1.01001;1.01773;1.01958;1.0702;1.06155;1.08994;1.05601;1.05109;1.05706;1.05538;1.05058;1.0357;1;0.999999;1;1;1;232.417;-2.79598e-06;39.9902;-0.0204792;0.00217198;-16.5967;43.5882;25.0429;12.8243;17.5616;0.0760077;0.0160027;3;
0.560836;1.06004;1.04505;1.01003;1.01774;1.01959;1.07022;1.06156;1.08994;1.05602;1.0511;1.05707;1.0554;1.05059;1.03571;1;1;1;1;1;232.394;-0.000732903;39.9752;0.0181225;0.00237082;-16.5944;43.5783;25.0321;12.8336;17.5575;0.0760087;0.0160031;3;
0.971046;1.06004;1.04506;1.01003;1.01774;1.0196;1.07023;1.06156;1.08994;1.05603;1.05111;1.05708;1.05541;1.0506;1.03572;1;1;1;1;1;232.384;-0.000407612;39.9876;0.0188098;0.000758872;-16.5932;43.5734;25.0329;12.8378;17.5553;0.0760093;0.0160033;3;
0.971047;1.06004;1.04506;1.01003;1.01774;1.0196;1.07023;1.06156;1.08994;1.05603;1.05111;1.05708;1.05541;1.0506;1.03572;1;1;1;1;1;232.384;-0.000407613;39.9876;0.0188098;0.00075887;-16.5932;43.5734;25.0329;12.8378;17.5553;0.0760093;0.0160033;3;
0.971048;1.06004;1.04506;1.01003;1.01774;1.0196;1.07023;1.06156;1.08994;1.05603;1.05111;1.05708;1.05541;1.0506;1.03572;1;1;1;1;1;232.384;-0.000407613;39.9876;0.0188099;0.000758867;-16.5932;43.5734;25.0329;12.8378;17.5553;0.0760093;0.0160033;3;
0.97105;1.06004;1.04506;1.01003;1.01774;1.0196;1.07023;1.06156;1.08994;1.05603;1.05111;1.05708;1.05541;1.0506;1.03572;1;1;1;1;1;232.384;-0.000407614;39.9876;0.0188099;0.000758861;-16.5932;43.5734;25.0329;12.8378;17.5553;0.0760093;0.0160033;3;
0.971054;1.06004;1.04506;1.01003;1.01774;1.0196;1.07023;1.06156;1.08994;1.05603;1.05111;1.05708;1.05541;1.0506;1.03572;1;1;1;1;1;232.384;-0.000407613;39.9876;0.0188101;0.000758849;-16.5932;43.5734;25.0329;12.8378;17.5553;0.0760093;0.0160033;3;
0.971062;1.06004;1.04506;1.01003;1.01774;1.0196;1.07023;1.06156;1.08994;1.05603;1.05111;1.05708;1.05541;1.0506;1.03572;1;1;1;1;1;232.384;-0.000407613;39.9876;0.0188103;0.000758826;-16.5932;43.5734;25.0329;12.8378;17.5553;0.0760093;0.0160033;3;
0.971078;1.06004;1.04506;1.01003;1.01774;1.0196;1.07023;1.06156;1.08994;1.05603;1.05111;1.05708;1.05541;1.0506;1.03572;1;1;1;1;1;232.384;-0.000407612;39.9876;0.0188109;0.00075878;-16.5932;43.5734;25.0329;12.8378;17.5553;0.0760093;0.0160033;3;
0.97111;1.06004;1.04506;1.01003;1.01774;1.0196;1.07023;1.06156;1.08994;1.05603;1.05111;1.05708;1.05541;1.0506;1.03572;1;1;1;1;1;232.384;-0.000407612;39.9876;0.0188119;0.000758686;-16.5932;43.5734;25.0329;12.8378;17.5553;0.0760093;0.0160033;3;
0.971174;1.06004;1.04506;1.01003;1.01774;1.0196;1.07023;1.06156;1.08994;1.05603;1.05111;1.05708;1.05541;1.0506;1.03572;1;1;1;1;1;232.384;-0.000407611;39.9876;0.0188141;0.0007585;-16.5932;43.5734;25.0329;12.8378;17.5553;0.0760093;0.0160033;3;
0.971302;1.06004;1.04506;1.01003;1.01774;1.0196;1.07023;1.06156;1.08994;1.05603;1.05111;1.05708;1.05541;1.0506;1.03572;1;1;1;1;1;232.384;-0.000407609;39.9876;0.0188183;0.000758127;-16.5932;43.5734;25.0329;12.8378;17.5553;0.0760093;0.0160033;3;
0.971558;1.06004;1.04506;1.01003;1.01774;1.0196;1.07023;1.06156;1.08994;1.05603;1.05111;1.05708;1.05541;1.0506;1.03572;1;1;1;1;1;232.384;-0.000407604;39.9876;0.0188268;0.000757379;-16.5932;43.5734;25.0329;12.8378;17.5553;0.0760093;0.0160033;3;
0.97207;1.06004;1.04506;1.01003;1.01774;1.0196;1.07023;1.06156;1.08994;1.05603;1.05111;1.05708;1.05541;1.0506;1.03572;1;1;1;1;1;232.384;-0.000407591;39.9876;0.0188438;0.000755877;-16.5932;43.5734;25.0329;12.8378;17.5553;0.0760093;0.0160033;3;
0.973094;1.06004;1.04506;1.01003;1.01774;1.0196;1.07023;1.06156;1.08994;1.05603;1.05111;1.05708;1.05541;1.0506;1.03572;1;1;1;1;1;232.383;-0.000407556;39.9876;0.0188774;0.000752847;-16.5932;43.5733;25.0329;12.8379;17.5553;0.0760093;0.0160033;3;
0.975142;1.06004;1.04506;1.01003;1.01774;1.0196;1.07023;1.06156;1.08994;1.05603;1.05111;1.05708;1.05541;1.0506;1.03572;1;1;1;1;1;232.383;-0.000407444;39.9876;0.0189437;0.000746686;-16.5932;43.5733;25.0329;12.8379;17.5552;0.0760093;0.0160033;3;
0.979238;1.06004;1.04506;1.01003;1.01774;1.0196;1.07023;1.06156;1.08994;1.05603;1.05111;1.05708;1.05541;1.0506;1.03572;1;1;1;1;1;232.383;-0.000407056;39.9877;0.0190722;0.000733971;-16.5932;43.5732;25.0329;12.838;17.5552;0.0760093;0.0160033;3;
0.98743;1.06004;1.04506;1.01003;1.01774;1.0196;1.07023;1.06156;1.08994;1.05603;1.05111;1.05708;1.05542;1.0506;1.03572;1;1;1;1;1;232.383;-0.000405633;39.9878;0.0193129;0.000707017;-16.5932;43.5731;25.0328;12.8381;17.5552;0.0760093;0.0160033;3;
1.00381;1.06004;1.04506;1.01003;1.01774;1.0196;1.07024;1.06156;1.08994;1.05603;1.05111;1.05708;1.05542;1.0506;1.03572;1;1;1;1;1;232.382;-0.000400267;39.9881;0.0197296;0.000647489;-16.5931;43.5728;25.0327;12.8383;17.555;0.0760093;0.0160033;3;
1.03658;1.06004;1.04506;1.01003;1.01774;1.0196;1.07024;1.06156;1.08994;1.05603;1.05111;1.05708;1.05542;1.05061;1.03572;1;1;1;1;1;232.381;-0.000380385;39.9889;0.0203073;0.000510104;-16.593;43.5723;25.0327;12.8387;17.5548;0.0760094;0.0160033;3;
1.10212;1.06004;1.04506;1.01003;1.01774;1.0196;1.07024;1.06157;1.08994;1.05603;1.05111;1.05709;1.05542;1.05061;1.03572;1;1;1;1;1;232.379;-0.000314401;39.9912;0.0204937;0.000197568;-16.5928;43.5715;25.0328;12.8394;17.5545;0.0760095;0.0160033;3;
1.23319;1.06004;1.04506;1.01003;1.01774;1.0196;1.07024;1.06157;1.08994;1.05603;1.05111;1.05709;1.05542;1.05061;1.03572;1;1;1;1;1;232.378;-0.000157452;39.9965;0.0177289;-0.000341003;-16.5926;43.5705;25.0339;12.8403;17.5539;0.0760096;0.0160034;3;
1.49533;1.06004;1.04506;1.01003;1.01774;1.0196;1.07024;1.06157;1.08994;1.05603;1.05111;1.05709;1.05542;1.05061;1.03572;1;1;1;1;1;232.382;3.22763e-05;40.004;0.00668809;-0.000521949;-16.5928;43.5705;25.0376;12.8413;17.5534;0.0760097;0.0160034;3;
2.01962;1.06004;1.04506;1.01003;1.01774;1.0196;1.07024;1.06157;1.08993;1.05603;1.05111;1.05709;1.05542;1.05061;1.03572;1;1;1;1;1;232.394;0.00012128;40.0075;-0.00745271;0.000268212;-16.5936;43.5721;25.0418;12.8422;17.553;0.0760097;0.0160034;3;
3.0682;1.06004;1.04506;1.01003;1.01774;1.0196;1.07024;1.06157;1.08993;1.05603;1.05111;1.05709;1.05542;1.05061;1.03572;1;1;1;1;1;232.39;1.08931e-05;40.0026;-9.77025e-05;0.000412997;-16.5935;43.5721;25.0393;12.842;17.553;0.0760096;0.0160034;3;
5.16535;1.06004;1.04506;1.01003;1.01774;1.0196;1.07024;1.06157;1.08993;1.05603;1.05111;1.05709;1.05542;1.05061;1.03572;1;1;1;1;1;232.389;-1.13954e-05;40.0016;0.00247945;0.00035358;-16.5934;43.5719;25.0386;12.8418;17.553;0.0760097;0.0160034;3;
9.35965;1.06004;1.04506;1.01003;1.01774;1.0196;1.07024;1.06157;1.08993;1.05603;1.05111;1.05709;1.05542;1.05061;1.03572;1;1;1;1;1;232.389;-7.46102e-06;40.0016;0.00241482;0.00038119;-16.5935;43.5719;25.0386;12.8418;17.553;0.0760097;0.0160034;3;
17.7483;1.06004;1.04506;1.01003;1.01774;1.0196;1.07024;1.06157;1.08993;1.05603;1.05111;1.05709;1.05542;1.05061;1.03572;1;1;1;1;1;232.389;-6.05712e-06;40.0016;0.00239365;0.000395273;-16.5935;43.5719;25.0386;12.8418;17.553;0.0760097;0.0160034;3;
20;1.06004;1.04506;1.01003;1.01774;1.0196;1.07024;1.06157;1.08993;1.05603;1.05111;1.05709;1.05542;1.05061;1.03572;1;1;1;1;1;232.389;-5.99393e-06;40.0016;0.00239348;0.000396006;-16.5935;43.5719;25.0386;12.8418;17.553;0.0760097;0.0160034;3;
20;1.05867;1.04311;1.00906;1.0112;1.01;1.06579;1.05718;1.08792;1.05138;1.04653;1.05258;1.05101;1.0462;1.03124;1;1;1;1;1;231.487;-0.288911;39.5439;0.624276;-0.183451;-11.7018;49.1779;28.5657;15.2352;18.9794;0.0749453;0.191074;3;
20;1.05581;1.03904;1.00704;0.997557;0.99;1.05651;1.04802;1.08371;1.04167;1.03697;1.04319;1.04181;1.037;1.02191;1;1;1;1;1;229.607;-0.891018;38.5903;1.92131;-0.566627;-1.50319;60.8656;35.9195;20.2247;21.9532;0.0727261;0.556;3;
20;1.05546;1.03854;1.00679;0.995904;0.987577;1.05539;1.04691;1.0832;1.0405;1.03581;1.04205;1.0407;1.03589;1.02077;1;1;1;1;1;229.378;-0.964129;38.4743;2.0783;-0.613154;-0.266751;62.2827;36.811;20.8298;22.3138;0.0724571;0.600286;3;
20;1.05546;1.03854;1.00679;0.995903;0.987576;1.05539;1.04691;1.0832;1.0405;1.03581;1.04205;1.0407;1.03589;1.02077;1;1;1;1;1;229.378;-0.964104;38.4744;2.07839;-0.61315;-0.266463;62.283;36.8112;20.8299;22.3138;0.072457;0.600286;3;
20;1.05546;1.03854;1.00679;0.995904;0.987577;1.05539;1.04691;1.0832;1.0405;1.03581;1.04205;1.0407;1.03589;1.02077;1;1;1;1;1;229.378;-0.96409;38.4743;2.07829;-0.613159;-0.266705;62.2826;36.8111;20.8297;22.3138;0.0724571;0.600286;3;
20;1.05546;1.03854;1.00679;0.995903;0.987576;1.05539;1.04691;1.0832;1.0405;1.03581;1.04205;1.0407;1.03589;1.02077;1;1;1;1;1;229.378;-0.964024;38.4744;2.07839;-0.613159;-0.266299;62.283;36.8113;20.8297;22.3139;0.072457;0.600285;3;
20;1.05546;1.03854;1.00679;0.995903;0.987576;1.05539;1.04691;1.0832;1.0405;1.03581;1.04205;1.0407;1.03588;1.02077;1;1;1;1;1;229.378;-0.963923;38.4743;2.07837;-0.613173;-0.266187;62.2828;36.8114;20.8295;22.314;0.072457;0.600285;3;
20;1.05546;1.03854;1.00679;0.995902;0.987575;1.05539;1.04691;1.0832;1.0405;1.03581;1.04205;1.04069;1.03588;1.02077;1;1;1;1;1;229.378;-0.963719;38.4742;2.07831;-0.613202;-0.265964;62.2826;36.8116;20.8289;22.3142;0.0724569;0.600284;3;
20.0001;1.05546;1.03854;1.00679;0.995901;0.987574;1.05539;1.04691;1.0832;1.0405;1.03581;1.04205;1.04069;1.03588;1.02077;1;1;1;1;1;229.377;-0.963313;38.474;2.07819;-0.613259;-0.265518;62.282;36.8119;20.8279;22.3145;0.0724568;0.600282;3;
20.0001;1.05546;1.03854;1.00679;0.995899;0.987572;1.05538;1.04691;1.0832;1.04049;1.03581;1.04205;1.04069;1.03588;1.02077;1;1;1;1;1;229.376;-0.962501;38.4737;2.07796;-0.613373;-0.264629;62.281;36.8125;20.8259;22.3151;0.0724565;0.600279;3;
20.0003;1.05545;1.03853;1.00678;0.995894;0.987567;1.05537;1.0469;1.0832;1.04049;1.0358;1.04204;1.04068;1.03587;1.02076;1;1;1;1;1;229.374;-0.960881;38.473;2.0775;-0.613599;-0.262856;62.2789;36.8137;20.8218;22.3164;0.072456;0.600272;3;
20.0005;1.05545;1.03852;1.00678;0.995885;0.987558;1.05535;1.0469;1.08319;1.04048;1.03579;1.04202;1.04066;1.03585;1.02074;1;1;1;1;1;229.37;-0.957659;38.4716;2.07658;-0.614047;-0.259342;62.2747;36.8161;20.8138;22.319;0.072455;0.600257;3;
20.001;1.05543;1.0385;1.00676;0.995868;0.987539;1.05531;1.04688;1.08318;1.04045;1.03576;1.04199;1.04062;1.03581;1.02072;1;1;1;1;1;229.361;-0.951283;38.4688;2.07476;-0.614921;-0.252431;62.2663;36.8208;20.798;22.324;0.0724529;0.600229;3;
20.002;1.0554;1.03847;1.00674;0.995833;0.987503;1.05524;1.04684;1.08316;1.04041;1.03571;1.04193;1.04055;1.03575;1.02066;1;1;0.999999;1;1;229.343;-0.938793;38.4635;2.07115;-0.616586;-0.239071;62.2494;36.83;20.7678;22.3339;0.0724489;0.600174;3;
20.0041;1.05534;1.0384;1.00668;0.995765;0.987432;1.0551;1.04678;1.08313;1.04032;1.03562;1.04182;1.04042;1.03562;1.02056;1;1;0.999999;1;1;229.309;-0.914802;38.4538;2.06406;-0.619597;-0.214136;62.2153;36.8472;20.7126;22.3528;0.0724411;0.600067;3;
20.0082;1.05521;1.03826;1.00658;0.995637;0.9873;1.05486;1.04666;1.08307;1.04017;1.03545;1.04161;1.04019;1.03539;1.02038;1;1;0.999999;1.00001;1;229.244;-0.870356;38.4375;2.05032;-0.62445;-0.170924;62.1466;36.8773;20.6211;22.3873;0.0724266;0.599865;3;
20.0089;1.05519;1.03823;1.00656;0.995616;0.987278;1.05482;1.04664;1.08306;1.04015;1.03543;1.04158;1.04016;1.03536;1.02035;1;1;0.999999;1.00001;1;229.233;-0.863047;38.435;2.04797;-0.625154;-0.16423;62.1347;36.882;20.6075;22.3929;0.0724242;0.599832;3;
20.0089;1.05519;1.03823;1.00656;0.995616;0.987278;1.05482;1.04664;1.08306;1.04015;1.03543;1.04158;1.04015;1.03536;1.02035;1;1;0.999999;1.00001;1;229.233;-0.863037;38.435;2.04797;-0.625155;-0.164221;62.1347;36.882;20.6074;22.3929;0.0724241;0.599832;3;
20.0089;1.05519;1.03823;1.00656;0.995616;0.987278;1.05482;1.04664;1.08306;1.04015;1.03543;1.04158;1.04015;1.03536;1.02035;1;1;0.999999;1.00001;1;229.233;-0.863027;38.435;2.04797;-0.625156;-0.164212;62.1346;36.882;20.6074;22.3929;0.0724241;0.599832;3;
20.0089;1.05519;1.03823;1.00656;0.995616;0.987278;1.05482;1.04664;1.08306;1.04015;1.03543;1.04158;1.04015;1.03536;1.02035;1;1;0.999999;1.00001;1;229.233;-0.863007;38.435;2.04796;-0.625158;-0.164194;62.1346;36.882;20.6074;22.393;0.0724241;0.599832;3;
20.0089;1.05519;1.03823;1.00656;0.995616;0.987277;1.05482;1.04664;1.08306;1.04015;1.03543;1.04158;1.04015;1.03536;1.02035;1;1;0.999999;1.00001;1;229.233;-0.862966;38.435;2.04795;-0.625162;-0.164157;62.1345;36.8821;20.6073;22.393;0.0724241;0.599832;3;
20.0089;1.05519;1.03823;1.00656;0.995616;0.987277;1.05482;1.04664;1.08306;1.04015;1.03543;1.04158;1.04015;1.03536;1.02035;1;1;0.999999;1.00001;1;229.233;-0.862886;38.4349;2.04792;-0.625169;-0.164085;62.1344;36.8821;20.6072;22.393;0.0724241;0.599831;3;
20.0089;1.05519;1.03823;1.00656;0.995615;0.987277;1.05482;1.04664;1.08306;1.04015;1.03542;1.04158;1.04015;1.03536;1.02035;1;1;0.999999;1.00001;1;229.232;-0.862725;38.4349;2.04787;-0.625184;-0.163939;62.1341;36.8822;20.6069;22.3932;0.072424;0.599831;3;
20.009;1.05519;1.03823;1.00656;0.995614;0.987276;1.05482;1.04664;1.08306;1.04015;1.03542;1.04158;1.04015;1.03535;1.02035;1;1;0.999999;1.00001;1;229.232;-0.862402;38.4348;2.04776;-0.625213;-0.163649;62.1336;36.8824;20.6063;22.3934;0.0724239;0.599829;3;
20.009;1.05519;1.03823;1.00656;0.995612;0.987274;1.05482;1.04664;1.08306;1.04014;1.03542;1.04158;1.04015;1.03535;1.02035;1;1;0.999999;1.00001;1;229.231;-0.861759;38.4346;2.04755;-0.625272;-0.16307;62.1325;36.8828;20.6051;22.3939;0.0724237;0.599826;3;
20.0092;1.05518;1.03822;1.00655;0.995609;0.98727;1.05481;1.04663;1.08305;1.04014;1.03542;1.04157;1.04014;1.03535;1.02034;1;1;0.999999;1.00001;1;229.229;-0.860475;38.4342;2.04714;-0.625389;-0.161917;62.1303;36.8837;20.6028;22.3949;0.0724233;0.59982;3;
20.0094;1.05518;1.03822;1.00655;0.995601;0.987262;1.0548;1.04663;1.08305;1.04013;1.03541;1.04156;1.04013;1.03533;1.02033;1;1;0.999999;1.00001;1;229.225;-0.857918;38.4333;2.04631;-0.625619;-0.159636;62.126;36.8853;20.5983;22.3968;0.0724224;0.599809;3;
20.0099;1.05516;1.0382;1.00653;0.995586;0.987247;1.05477;1.04661;1.08304;1.04012;1.03539;1.04154;1.04011;1.03531;1.02031;1;1;0.999999;1.00001;1;229.217;-0.852852;38.4317;2.04464;-0.626062;-0.155167;62.1173;36.8885;20.5895;22.4007;0.0724208;0.599785;3;
20.011;1.05513;1.03816;1.00651;0.995557;0.987217;1.05472;1.04659;1.08303;1.04008;1.03535;1.0415;1.04006;1.03526;1.02028;1;1;0.999998;1.00001;1;229.202;-0.842899;38.4286;2.04134;-0.626885;-0.146599;62.1;36.8946;20.5729;22.4082;0.0724174;0.599739;3;
20.013;1.05507;1.0381;1.00646;0.9955;0.987158;1.05463;1.04653;1.083;1.04002;1.03529;1.04142;1.03997;1.03518;1.0202;1;1;0.999998;1.00001;1.00001;229.172;-0.823674;38.4231;2.03478;-0.628286;-0.130883;62.0652;36.906;20.5435;22.4226;0.072411;0.59965;3;
20.0171;1.05496;1.03797;1.00636;0.995392;0.987047;1.05448;1.04644;1.08296;1.03991;1.03517;1.04128;1.03982;1.03503;1.02008;1;1;0.999998;1.00002;1.00001;229.114;-0.787649;38.4142;2.02177;-0.630189;-0.104749;61.9955;36.9255;20.4989;22.449;0.0723988;0.599482;3;
20.0181;1.05493;1.03794;1.00633;0.995366;0.987021;1.05445;1.04642;1.08295;1.03989;1.03514;1.04125;1.03979;1.035;1.02005;1;1;0.999998;1.00002;1.00001;229.101;-0.779191;38.4124;2.01856;-0.630498;-0.0992684;61.9784;36.9298;20.4904;22.455;0.0723959;0.599443;3;
20.0181;1.05493;1.03794;1.00633;0.995366;0.987021;1.05445;1.04642;1.08295;1.03989;1.03514;1.04125;1.03979;1.035;1.02005;1;1;0.999998;1.00002;1.00001;229.101;-0.779182;38.4124;2.01856;-0.630498;-0.0992635;61.9784;36.9298;20.4904;22.455;0.0723959;0.599443;3;
20.0181;1.05493;1.03794;1.00633;0.995366;0.987021;1.05445;1.04642;1.08295;1.03988;1.03514;1.04125;1.03979;1.035;1.02005;1;1;0.999998;1.00002;1.00001;229.101;-0.779174;38.4124;2.01856;-0.630498;-0.0992584;61.9784;36.9298;20.4904;22.455;0.0723959;0.599443;3;
20.0181;1.05493;1.03794;1.00633;0.995366;0.987021;1.05445;1.04642;1.08295;1.03988;1.03514;1.04125;1.03979;1.035;1.02005;1;1;0.999998;1.00002;1.00001;229.101;-0.779158;38.4124;2.01855;-0.630499;-0.0992482;61.9784;36.9298;20.4904;22.455;0.0723959;0.599443;3;
20.0181;1.05493;1.03794;1.00633;0.995366;0.987021;1.05445;1.04642;1.08295;1.03988;1.03514;1.04125;1.03979;1.035;1.02005;1;1;0.999998;1.00002;1.00001;229.101;-0.779125;38.4124;2.01854;-0.6305;-0.0992278;61.9783;36.9298;20.4903;22.455;0.0723959;0.599443;3;
20.0181;1.05493;1.03794;1.00633;0.995366;0.987021;1.05444;1.04642;1.08295;1.03988;1.03514;1.04125;1.03979;1.035;1.02005;1;1;0.999998;1.00002;1.00001;229.1;-0.779059;38.4124;2.01851;-0.630502;-0.0991869;61.9782;36.9299;20.4903;22.4551;0.0723959;0.599442;3;
20.0181;1.05493;1.03794;1.00633;0.995365;0.987021;1.05444;1.04642;1.08295;1.03988;1.03514;1.04125;1.03979;1.035;1.02005;1;1;0.999998;1.00002;1.00001;229.1;-0.778928;38.4124;2.01846;-0.630506;-0.0991054;61.9779;36.9299;20.4901;22.4552;0.0723959;0.599442;3;
20.0182;1.05493;1.03794;1.00633;0.995365;0.98702;1.05444;1.04642;1.08294;1.03988;1.03514;1.04125;1.03979;1.035;1.02005;1;1;0.999998;1.00002;1.00001;229.1;-0.778665;38.4123;2.01836;-0.630513;-0.0989425;61.9774;36.9301;20.4899;22.4554;0.0723958;0.59944;3;
20.0182;1.05492;1.03793;1.00633;0.995363;0.987018;1.05444;1.04642;1.08294;1.03988;1.03514;1.04125;1.03979;1.035;1.02005;1;1;0.999998;1.00002;1.00001;229.099;-0.77814;38.4122;2.01816;-0.630529;-0.098618;61.9763;36.9303;20.4894;22.4557;0.0723956;0.599438;3;
20.0184;1.05492;1.03793;1.00633;0.99536;0.987015;1.05444;1.04642;1.08294;1.03988;1.03514;1.04124;1.03978;1.03499;1.02004;1;1;0.999998;1.00002;1.00001;229.097;-0.777093;38.412;2.01776;-0.630559;-0.0979737;61.9741;36.9308;20.4885;22.4565;0.0723952;0.599433;3;
20.0186;1.05491;1.03792;1.00632;0.995354;0.987008;1.05443;1.04641;1.08294;1.03987;1.03513;1.04124;1.03977;1.03498;1.02004;1;1;0.999998;1.00002;1.00001;229.094;-0.775006;38.4116;2.01695;-0.630616;-0.0967037;61.9697;36.9318;20.4867;22.458;0.0723945;0.599423;3;
20.0191;1.0549;1.03791;1.00631;0.995341;0.986996;1.05441;1.0464;1.08293;1.03986;1.03512;1.04122;1.03976;1.03497;1.02002;1;1;0.999998;1.00002;1.00001;229.087;-0.770863;38.4108;2.01534;-0.630718;-0.0942379;61.961;36.9338;20.4832;22.4609;0.0723931;0.599404;3;
20.0201;1.05487;1.03788;1.00629;0.995316;0.98697;1.05438;1.04638;1.08292;1.03984;1.03509;1.0412;1.03973;1.03494;1.02;1;1;0.999997;1.00002;1.00001;229.073;-0.7627;38.4094;2.01211;-0.630873;-0.0895971;61.9437;36.9376;20.4771;22.4666;0.0723903;0.599366;3;
20.0222;1.05481;1.03781;1.00624;0.995268;0.986922;1.05433;1.04634;1.0829;1.03979;1.03505;1.04115;1.03968;1.03489;1.01995;1.00001;1;0.999997;1.00002;1.00001;229.047;-0.746831;38.4069;2.00564;-0.630996;-0.0814384;61.9089;36.9445;20.4676;22.4775;0.072385;0.599291;3;
20.0263;1.0547;1.03769;1.00614;0.995176;0.986829;1.05424;1.04627;1.08287;1.03971;1.03497;1.04106;1.03959;1.0348;1.01987;1.00001;1;0.999997;1.00003;1.00001;228.996;-0.716722;38.4036;1.99258;-0.630541;-0.0693047;61.8399;36.9559;20.4591;22.4973;0.0723748;0.599151;3;
20.0345;1.05449;1.03747;1.00596;0.995009;0.986662;1.05413;1.04615;1.08281;1.03959;1.03484;1.04094;1.03948;1.03469;1.01975;1.00001;1;0.999996;1.00003;1.00002;228.901;-0.661699;38.4018;1.9656;-0.627191;-0.059613;61.7042;36.9707;20.4771;22.5307;0.0723565;0.598898;3;
20.0509;1.05408;1.03705;1.00563;0.994729;0.986388;1.0541;1.04599;1.08272;1.03943;1.03471;1.04086;1.03944;1.03464;1.01965;1.00001;1.00001;0.999994;1.00005;1.00002;228.738;-0.565233;38.411;1.90593;-0.612796;-0.0849863;61.4451;36.9776;20.6129;22.5785;0.0723262;0.598481;3;
20.0836;1.05333;1.03632;1.00501;0.994307;0.985987;1.05448;1.04582;1.08264;1.03934;1.0347;1.04104;1.03978;1.03495;1.01973;1.00002;1.00001;0.999991;1.00006;1.00004;228.499;-0.398205;38.4461;1.75496;-0.562914;-0.244623;60.9853;36.9453;21.0937;22.631;0.0722822;0.597874;3;
20.1164;1.05267;1.0357;1.00448;0.994008;0.985717;1.05516;1.04579;1.08264;1.03943;1.03489;1.04146;1.04041;1.03553;1.02003;1.00003;1.00001;0.999988;1.00008;1.00005;228.368;-0.248756;38.4778;1.55712;-0.492612;-0.490285;60.6028;36.886;21.7104;22.6506;0.0722525;0.597464;3;
20.1492;1.05208;1.03517;1.00399;0.993776;0.985514;1.05592;1.04581;1.08268;1.03958;1.03514;1.04197;1.04113;1.0362;1.02039;1.00004;1.00002;0.999986;1.00008;1.00006;228.337;-0.10789;38.4857;1.31117;-0.409087;-0.766925;60.29;36.8295;22.3429;22.6584;0.0722301;0.597156;3;
20.2147;1.05107;1.03424;1.00313;0.993386;0.985175;1.0573;1.04588;1.08277;1.03987;1.03562;1.04288;1.04241;1.03741;1.02108;1.00006;1.00002;0.999983;1.00008;1.00007;228.544;0.131028;38.4187;0.700369;-0.224118;-1.29546;59.8166;36.7705;23.4722;22.6748;0.0721929;0.596644;3;
20.2802;1.05031;1.03353;1.00242;0.993074;0.984901;1.05835;1.04595;1.08287;1.0401;1.036;1.04358;1.04339;1.03833;1.0216;1.00007;1.00003;0.999984;1.00006;1.00008;229.173;0.238141;38.2685;-0.0623429;-0.0408801;-1.72817;59.5564;36.8058;24.3495;22.6982;0.0721627;0.596228;3;
20.3458;1.04968;1.03291;1.00179;0.992769;0.984626;1.05917;1.04597;1.08294;1.04027;1.03628;1.04413;1.04416;1.03905;1.022;1.00008;1.00004;0.999987;1.00004;1.00007;229.928;0.246295;38.1521;-0.836242;0.103052;-2.07835;59.3686;36.879;25.09;22.7289;0.0721326;0.595813;3;
20.4113;1.04914;1.03237;1.00122;0.992474;0.984357;1.05983;1.04597;1.08299;1.04039;1.03649;1.04456;1.04477;1.03963;1.02231;1.00009;1.00005;0.999993;1.00002;1.00006;230.709;0.180874;38.1073;-1.57579;0.193082;-2.35902;59.2288;36.9677;25.7243;22.7642;0.072103;0.595405;3;
20.4171;1.0491;1.03232;1.00117;0.992448;0.984333;1.05989;1.04597;1.083;1.0404;1.0365;1.0446;1.04482;1.03967;1.02234;1.00009;1.00005;0.999993;1.00002;1.00006;230.776;0.174005;38.1064;-1.63812;0.198858;-2.38173;59.2173;36.9752;25.7773;22.7674;0.0721004;0.59537;3;
20.4171;1.0491;1.03232;1.00117;0.992448;0.984333;1.05989;1.04597;1.083;1.0404;1.0365;1.0446;1.04482;1.03967;1.02234;1.00009;1.00005;0.999993;1.00002;1.00006;230.776;0.173992;38.1064;-1.63816;0.198861;-2.38175;59.2173;36.9752;25.7773;22.7674;0.0721004;0.59537;3;
20.4171;1.0491;1.03232;1.00117;0.992448;0.984333;1.05989;1.04597;1.083;1.0404;1.0365;1.0446;1.04482;1.03967;1.02234;1.00009;1.00005;0.999993;1.00002;1.00006;230.776;0.173991;38.1064;-1.63817;0.198862;-2.38175;59.2173;36.9752;25.7773;22.7674;0.0721004;0.59537;3;
20.4171;1.0491;1.03232;1.00117;0.992448;0.984333;1.05989;1.04597;1.083;1.0404;1.0365;1.0446;1.04482;1.03967;1.02234;1.00009;1.00005;0.999993;1.00002;1.00006;230.776;0.17399;38.1064;-1.63819;0.198865;-2.38176;59.2173;36.9752;25.7773;22.7674;0.0721004;0.59537;3;
20.4171;1.0491;1.03232;1.00117;0.992448;0.984333;1.05989;1.04597;1.083;1.0404;1.0365;1.0446;1.04482;1.03967;1.02234;1.00009;1.00005;0.999993;1.00002;1.00006;230.776;0.173985;38.1064;-1.63823;0.19887;-2.38178;59.2173;36.9752;25.7773;22.7674;0.0721004;0.59537;3;
20.4171;1.0491;1.03232;1.00117;0.992448;0.984333;1.05989;1.04597;1.083;1.0404;1.0365;1.0446;1.04482;1.03967;1.02234;1.00009;1.00005;0.999993;1.00002;1.00006;230.776;0.173976;38.1064;-1.63832;0.19888;-2.38181;59.2173;36.9752;25.7774;22.7674;0.0721004;0.59537;3;
20.4171;1.0491;1.03232;1.00117;0.992448;0.984333;1.05989;1.04597;1.083;1.0404;1.0365;1.0446;1.04482;1.03967;1.02234;1.00009;1.00005;0.999993;1.00002;1.00006;230.776;0.173959;38.1064;-1.6385;0.198901;-2.38188;59.2173;36.9753;25.7776;22.7674;0.0721004;0.59537;3;
20.4172;1.0491;1.03232;1.00117;0.992448;0.984333;1.05989;1.04597;1.083;1.0404;1.0365;1.0446;1.04482;1.03967;1.02234;1.00009;1.00005;0.999993;1.00002;1.00006;230.776;0.173924;38.1064;-1.63886;0.198942;-2.38201;59.2172;36.9753;25.7779;22.7674;0.0721004;0.595369;3;
20.4172;1.0491;1.03232;1.00117;0.992448;0.984333;1.05989;1.04597;1.083;1.0404;1.03651;1.0446;1.04482;1.03967;1.02234;1.00009;1.00005;0.999993;1.00002;1.00006;230.777;0.173856;38.1063;-1.63958;0.199025;-2.38228;59.2171;36.9754;25.7785;22.7674;0.0721003;0.595369;3;
20.4174;1.04909;1.03232;1.00117;0.992447;0.984332;1.05989;1.04597;1.083;1.0404;1.03651;1.0446;1.04482;1.03967;1.02234;1.00009;1.00005;0.999993;1.00002;1.00006;230.779;0.173717;38.1063;-1.64101;0.19919;-2.38282;59.2168;36.9756;25.7797;22.7675;0.0721003;0.595368;3;
20.4176;1.04909;1.03232;1.00117;0.992446;0.984331;1.05989;1.04597;1.083;1.0404;1.03651;1.0446;1.04483;1.03968;1.02234;1.00009;1.00005;0.999993;1.00002;1.00006;230.782;0.17344;38.1061;-1.64387;0.199519;-2.38388;59.2163;36.9759;25.7821;22.7676;0.0721002;0.595367;3;
20.4181;1.04909;1.03231;1.00116;0.992444;0.984329;1.0599;1.04597;1.083;1.0404;1.03651;1.0446;1.04483;1.03968;1.02234;1.00009;1.00005;0.999993;1.00002;1.00006;230.788;0.172883;38.1058;-1.64959;0.200176;-2.38602;59.2152;36.9766;25.787;22.7679;0.0720999;0.595363;3;
20.4192;1.04908;1.0323;1.00116;0.992439;0.984325;1.05991;1.04597;1.083;1.0404;1.03651;1.04461;1.04484;1.03969;1.02235;1.00009;1.00005;0.999993;1.00002;1.00006;230.8;0.171756;38.1053;-1.66104;0.201479;-2.39028;59.2131;36.978;25.7967;22.7685;0.0720995;0.595357;3;
20.4212;1.04906;1.03229;1.00114;0.99243;0.984316;1.05993;1.04597;1.083;1.0404;1.03652;1.04462;1.04486;1.03971;1.02236;1.00009;1.00005;0.999994;1.00002;1.00006;230.824;0.16945;38.1042;-1.68389;0.204044;-2.39874;59.2089;36.9808;25.8161;22.7696;0.0720985;0.595344;3;
20.4253;1.04903;1.03225;1.0011;0.992412;0.9843;1.05997;1.04597;1.083;1.04041;1.03653;1.04465;1.04489;1.03974;1.02238;1.00009;1.00005;0.999994;1.00002;1.00006;230.873;0.164639;38.1024;-1.72947;0.209009;-2.41548;59.2007;36.9865;25.8546;22.7719;0.0720967;0.595319;3;
20.4335;1.04897;1.03219;1.00103;0.992375;0.984266;1.06005;1.04597;1.08301;1.04042;1.03655;1.0447;1.04497;1.03981;1.02241;1.00009;1.00005;0.999995;1.00002;1.00006;230.97;0.154247;38.0995;-1.82008;0.218267;-2.44817;59.1847;36.9979;25.9304;22.7764;0.072093;0.595268;3;
20.4499;1.04884;1.03206;1.0009;0.992302;0.9842;1.06019;1.04596;1.08302;1.04045;1.0366;1.04479;1.0451;1.03994;1.02248;1.00009;1.00005;0.999996;1.00001;1.00005;231.164;0.13067;38.0979;-1.99878;0.233989;-2.51053;59.1546;37.021;26.0775;22.7857;0.0720857;0.595168;3;
20.4812;1.04862;1.03183;1.00065;0.992166;0.984074;1.06045;1.04595;1.08304;1.04048;1.03668;1.04496;1.04534;1.04016;1.0226;1.00009;1.00005;1;1.00001;1.00005;231.526;0.0775595;38.1105;-2.32827;0.253144;-2.61908;59.1023;37.065;26.3429;22.8039;0.0720719;0.594978;3;
20.4812;1.04862;1.03183;1.00065;0.992166;0.984074;1.06045;1.04595;1.08304;1.04048;1.03668;1.04496;1.04534;1.04016;1.0226;1.00009;1.00005;1;1.00001;1.00005;231.526;0.0775579;38.1105;-2.32828;0.253144;-2.61908;59.1023;37.065;26.3429;22.8039;0.0720719;0.594978;3;
20.4812;1.04862;1.03183;1.00065;0.992166;0.984074;1.06045;1.04595;1.08304;1.04048;1.03668;1.04496;1.04534;1.04016;1.0226;1.00009;1.00005;1;1.00001;1.00005;231.526;0.077556;38.1105;-2.32829;0.253144;-2.61909;59.1023;37.065;26.3429;22.8039;0.0720719;0.594978;3;
20.4812;1.04862;1.03183;1.00065;0.992166;0.984074;1.06045;1.04595;1.08304;1.04048;1.03668;1.04496;1.04534;1.04016;1.0226;1.00009;1.00005;1;1.00001;1.00005;231.526;0.0775524;38.1105;-2.32831;0.253145;-2.61909;59.1023;37.065;26.3429;22.8039;0.0720719;0.594978;3;
20.4812;1.04862;1.03183;1.00065;0.992166;0.984074;1.06045;1.04595;1.08304;1.04048;1.03668;1.04496;1.04534;1.04016;1.0226;1.00009;1.00005;1;1.00001;1.00005;231.526;0.0775447;38.1105;-2.32835;0.253147;-2.61911;59.1023;37.065;26.3429;22.8039;0.0720719;0.594978;3;
20.4812;1.04862;1.03183;1.00065;0.992166;0.984074;1.06045;1.04595;1.08304;1.04048;1.03668;1.04496;1.04534;1.04016;1.0226;1.00009;1.00005;1;1.00001;1.00005;231.526;0.0775296;38.1105;-2.32844;0.25315;-2.61913;59.1022;37.065;26.343;22.8039;0.0720719;0.594978;3;
20.4812;1.04862;1.03183;1.00065;0.992166;0.984074;1.06045;1.04595;1.08304;1.04048;1.03668;1.04496;1.04534;1.04016;1.0226;1.00009;1.00005;1;1.00001;1.00005;231.527;0.0774995;38.1105;-2.3286;0.253156;-2.61918;59.1022;37.065;26.3431;22.8039;0.0720719;0.594978;3;
20.4812;1.04862;1.03183;1.00065;0.992166;0.984074;1.06045;1.04595;1.08304;1.04048;1.03668;1.04496;1.04534;1.04016;1.0226;1.00009;1.00005;1;1.00001;1.00005;231.527;0.0774391;38.1105;-2.32893;0.253168;-2.61929;59.1022;37.0651;26.3434;22.8039;0.0720719;0.594978;3;
20.4813;1.04862;1.03183;1.00065;0.992166;0.984074;1.06045;1.04595;1.08304;1.04048;1.03668;1.04496;1.04534;1.04016;1.0226;1.00009;1.00005;1;1.00001;1.00005;231.528;0.0773185;38.1106;-2.32959;0.253193;-2.6195;59.1021;37.0652;26.3439;22.804;0.0720719;0.594978;3;
20.4814;1.04862;1.03183;1.00065;0.992165;0.984073;1.06045;1.04595;1.08304;1.04048;1.03668;1.04496;1.04535;1.04016;1.0226;1.00009;1.00005;1;1.00001;1.00005;231.529;0.0770771;38.1107;-2.33091;0.253242;-2.61991;59.1019;37.0654;26.345;22.8041;0.0720718;0.594977;3;
20.4817;1.04862;1.03183;1.00065;0.992164;0.984072;1.06046;1.04595;1.08304;1.04048;1.03668;1.04496;1.04535;1.04017;1.0226;1.00009;1.00005;1;1.00001;1.00005;231.532;0.0765938;38.1109;-2.33355;0.25334;-2.62074;59.1015;37.0657;26.347;22.8042;0.0720717;0.594975;3;
20.4822;1.04861;1.03183;1.00065;0.992162;0.98407;1.06046;1.04595;1.08304;1.04048;1.03668;1.04497;1.04535;1.04017;1.0226;1.00009;1.00005;1;1.00001;1.00005;231.538;0.0756256;38.1112;-2.33882;0.253533;-2.6224;59.1007;37.0664;26.3512;22.8045;0.0720715;0.594972;3;
20.4832;1.0486;1.03182;1.00064;0.992157;0.984066;1.06047;1.04595;1.08304;1.04048;1.03668;1.04497;1.04536;1.04018;1.02261;1.00009;1.00005;1;1.00001;1.00005;231.55;0.0736827;38.112;-2.34934;0.253907;-2.6257;59.0991;37.0679;26.3595;22.8051;0.0720711;0.594966;3;
20.4853;1.04859;1.03181;1.00062;0.992149;0.984058;1.06048;1.04595;1.08304;1.04049;1.03668;1.04498;1.04537;1.04019;1.02261;1.00009;1.00005;1;1.00001;1.00005;231.573;0.0697715;38.1137;-2.37034;0.254607;-2.63226;59.096;37.0708;26.3761;22.8063;0.0720702;0.594954;3;
20.4894;1.04856;1.03178;1.00059;0.992131;0.984042;1.06052;1.04595;1.08304;1.04049;1.03669;1.045;1.0454;1.04022;1.02263;1.00009;1.00005;1;1.00001;1.00005;231.619;0.0618522;38.1172;-2.41209;0.255813;-2.64522;59.0897;37.0765;26.409;22.8088;0.0720684;0.594929;3;
20.4975;1.04851;1.03172;1.00053;0.992096;0.98401;1.06058;1.04594;1.08305;1.0405;1.03671;1.04504;1.04546;1.04027;1.02265;1.00009;1.00006;1;1;1.00005;231.711;0.0456674;38.1254;-2.49459;0.257451;-2.67049;59.0776;37.0879;26.4738;22.8137;0.0720648;0.594881;3;
20.5139;1.0484;1.03161;1.00041;0.992027;0.983946;1.06069;1.04593;1.08305;1.04051;1.03674;1.04511;1.04557;1.04037;1.02271;1.00009;1.00006;1;1;1.00004;231.889;0.0122417;38.1465;-2.65536;0.257607;-2.7185;59.054;37.1101;26.5997;22.8236;0.0720578;0.594784;3;
20.5467;1.04821;1.03141;1.00018;0.991892;0.983822;1.06091;1.04591;1.08307;1.04054;1.0368;1.04525;1.04577;1.04056;1.0228;1.00009;1.00006;1.00001;1;1.00004;232.222;-0.0562606;38.2067;-2.95781;0.245544;-2.80498;59.0093;37.1511;26.8374;22.8437;0.0720442;0.594597;3;
20.6122;1.04785;1.03104;0.999767;0.991641;0.983592;1.06129;1.04587;1.08308;1.04056;1.03689;1.04548;1.04612;1.04089;1.02295;1.00009;1.00007;1.00002;1.00001;1.00003;232.763;-0.182221;38.389;-3.47304;0.17668;-2.94418;58.922;37.2125;27.2602;22.884;0.072019;0.59425;3;
20.6564;1.04765;1.03083;0.999522;0.99149;0.983457;1.06152;1.04584;1.0831;1.04058;1.03694;1.04562;1.04633;1.04108;1.02305;1.00009;1.00007;1.00003;1.00002;1.00002;233.019;-0.245174;38.5325;-3.74237;0.111276;-3.01841;58.8597;37.2322;27.5103;22.9096;0.0720041;0.594045;3;
20.6564;1.04765;1.03083;0.999522;0.99149;0.983456;1.06152;1.04584;1.0831;1.04058;1.03694;1.04562;1.04633;1.04108;1.02305;1.00009;1.00007;1.00003;1.00002;1.00002;233.019;-0.245219;38.5326;-3.74224;0.111287;-3.01834;58.8598;37.2322;27.5104;22.9096;0.0720041;0.594045;3;
20.6564;1.04765;1.03083;0.999522;0.99149;0.983456;1.06152;1.04584;1.0831;1.04058;1.03694;1.04562;1.04633;1.04108;1.02305;1.00009;1.00007;1.00003;1.00002;1.00002;233.019;-0.245221;38.5326;-3.74224;0.111285;-3.01835;58.8598;37.2322;27.5104;22.9096;0.0720041;0.594045;3;
20.6564;1.04765;1.03083;0.999522;0.99149;0.983456;1.06152;1.04584;1.0831;1.04058;1.03694;1.04562;1.04633;1.04108;1.02305;1.00009;1.00007;1.00003;1.00002;1.00002;233.019;-0.245221;38.5326;-3.74226;0.11128;-3.01835;58.8597;37.2322;27.5104;22.9096;0.0720041;0.594045;3;
20.6564;1.04765;1.03083;0.999521;0.99149;0.983456;1.06152;1.04584;1.0831;1.04058;1.03694;1.04562;1.04633;1.04108;1.02305;1.00009;1.00007;1.00003;1.00002;1.00002;233.019;-0.24523;38.5326;-3.74228;0.111273;-3.01835;58.8597;37.2322;27.5104;22.9096;0.0720041;0.594045;3;
20.6564;1.04765;1.03083;0.999521;0.99149;0.983456;1.06152;1.04584;1.0831;1.04058;1.03694;1.04562;1.04633;1.04108;1.02305;1.00009;1.00007;1.00003;1.00002;1.00002;233.019;-0.245242;38.5326;-3.74232;0.111258;-3.01837;58.8597;37.2322;27.5105;22.9096;0.0720041;0.594045;3;
20.6564;1.04765;1.03083;0.999521;0.99149;0.983456;1.06152;1.04584;1.0831;1.04058;1.03694;1.04562;1.04633;1.04108;1.02305;1.00009;1.00007;1.00003;1.00002;1.00002;233.019;-0.245266;38.5327;-3.74241;0.111226;-3.01839;58.8597;37.2322;27.5106;22.9096;0.0720041;0.594045;3;
20.6565;1.04764;1.03083;0.999521;0.99149;0.983456;1.06152;1.04584;1.0831;1.04058;1.03694;1.04562;1.04633;1.04108;1.02305;1.00009;1.00007;1.00003;1.00002;1.00002;233.019;-0.245315;38.5328;-3.74259;0.111164;-3.01843;58.8597;37.2322;27.5107;22.9096;0.0720041;0.594045;3;
20.6565;1.04764;1.03083;0.999521;0.99149;0.983456;1.06152;1.04584;1.0831;1.04058;1.03694;1.04562;1.04633;1.04108;1.02305;1.00009;1.00007;1.00003;1.00002;1.00002;233.019;-0.245412;38.5331;-3.74295;0.111038;-3.01852;58.8596;37.2322;27.5111;22.9097;0.072004;0.594044;3;
20.6567;1.04764;1.03083;0.99952;0.99149;0.983456;1.06152;1.04584;1.0831;1.04058;1.03694;1.04562;1.04633;1.04108;1.02305;1.00009;1.00007;1.00003;1.00002;1.00002;233.02;-0.245607;38.5336;-3.74367;0.110787;-3.0187;58.8594;37.2323;27.5117;22.9098;0.072004;0.594044;3;
20.6569;1.04764;1.03083;0.999519;0.991489;0.983455;1.06152;1.04584;1.0831;1.04058;1.03694;1.04562;1.04633;1.04108;1.02305;1.00009;1.00007;1.00003;1.00002;1.00002;233.021;-0.245995;38.5346;-3.74511;0.110285;-3.01905;58.8591;37.2324;27.5131;22.9099;0.0720039;0.594043;3;
20.6574;1.04764;1.03082;0.999516;0.991487;0.983453;1.06152;1.04584;1.0831;1.04058;1.03694;1.04562;1.04633;1.04109;1.02305;1.00009;1.00007;1.00003;1.00002;1.00002;233.024;-0.246769;38.5367;-3.74797;0.109279;-3.01975;58.8584;37.2326;27.5158;22.9102;0.0720037;0.59404;3;
20.6585;1.04764;1.03082;0.999511;0.991484;0.98345;1.06153;1.04584;1.0831;1.04058;1.03694;1.04563;1.04634;1.04109;1.02305;1.00009;1.00007;1.00003;1.00002;1.00002;233.029;-0.248307;38.5407;-3.75367;0.107258;-3.02116;58.857;37.2329;27.5211;22.9108;0.0720034;0.594036;3;
20.6605;1.04763;1.03081;0.9995;0.991477;0.983444;1.06154;1.04584;1.0831;1.04058;1.03694;1.04563;1.04634;1.0411;1.02305;1.00009;1.00007;1.00003;1.00002;1.00002;233.039;-0.251346;38.549;-3.76496;0.103185;-3.02394;58.8543;37.2337;27.5317;22.9121;0.0720027;0.594026;3;
20.6646;1.04761;1.03079;0.999479;0.991463;0.983432;1.06156;1.04583;1.0831;1.04058;1.03695;1.04564;1.04636;1.04111;1.02306;1.00009;1.00007;1.00003;1.00002;1.00002;233.059;-0.25727;38.5655;-3.78711;0.0949155;-3.0294;58.8488;37.235;27.5529;22.9145;0.0720014;0.594008;3;
20.6728;1.04758;1.03076;0.999437;0.991437;0.983408;1.06159;1.04583;1.0831;1.04058;1.03696;1.04566;1.0464;1.04114;1.02307;1.00009;1.00007;1.00003;1.00002;1.00002;233.096;-0.268479;38.5992;-3.82966;0.0779082;-3.03993;58.8376;37.2371;27.5944;22.9193;0.0719988;0.593972;3;
20.6892;1.04751;1.03069;0.999357;0.991386;0.983363;1.06167;1.04582;1.08311;1.04058;1.03697;1.04571;1.04646;1.04121;1.0231;1.00008;1.00007;1.00004;1.00003;1.00002;233.159;-0.288205;38.6682;-3.90768;0.0422179;-3.05949;58.8146;37.2391;27.6747;22.9289;0.0719938;0.593903;3;
20.7219;1.04738;1.03056;0.999206;0.99129;0.983279;1.0618;1.04579;1.08311;1.04058;1.03699;1.04579;1.04659;1.04132;1.02315;1.00008;1.00007;1.00004;1.00004;1.00002;233.244;-0.31618;38.8102;-4.03498;-0.0341275;-3.09304;58.766;37.2344;27.8244;22.9472;0.0719846;0.593777;3;
20.7875;1.04716;1.03035;0.998949;0.991133;0.983144;1.06206;1.04576;1.08314;1.04059;1.03704;1.04593;1.04682;1.04154;1.02325;1.00008;1.00008;1.00006;1.00006;1.00003;233.255;-0.326768;39.0862;-4.17367;-0.191795;-3.14116;58.6582;37.189;28.0827;22.9801;0.0719697;0.593572;3;
20.9185;1.04684;1.03006;0.998598;0.990946;0.982995;1.06249;1.04575;1.0832;1.04064;1.03716;1.0462;1.04723;1.04191;1.02344;1.00007;1.00008;1.00009;1.0001;1.00005;232.79;-0.229027;39.4632;-4.02166;-0.428834;-3.18357;58.4152;36.9684;28.4586;23.0255;0.0719534;0.593348;3;
21.0496;1.04664;1.02991;0.99844;0.990909;0.98298;1.06284;1.04582;1.08328;1.04074;1.0373;1.04644;1.04755;1.04222;1.02362;1.00006;1.00008;1.00011;1.00011;1.00009;231.913;-0.0743682;39.506;-3.38703;-0.490513;-3.17774;58.164;36.6151;28.6828;23.0413;0.0719518;0.593326;3;
21.1807;1.04655;1.02985;0.998434;0.990976;0.983049;1.06309;1.04593;1.08337;1.04088;1.03746;1.04665;1.04779;1.04245;1.0238;1.00007;1.00009;1.00013;1.00011;1.00013;230.943;0.0228144;39.1874;-2.43851;-0.36177;-3.14987;57.9428;36.2008;28.8051;23.0306;0.0719594;0.59343;3;
21.3118;1.04651;1.02985;0.998524;0.991087;0.983148;1.06326;1.04605;1.08345;1.04103;1.03761;1.04681;1.04796;1.04262;1.02395;1.00008;1.00009;1.00014;1.00011;1.00015;230.139;0.0163713;38.6133;-1.38901;-0.125235;-3.11891;57.7793;35.8067;28.8691;23.0039;0.0719702;0.593579;3;
21.4428;1.04652;1.02987;0.998653;0.991191;0.983234;1.06336;1.04615;1.0835;1.04115;1.03773;1.04692;1.04806;1.04272;1.02407;1.0001;1.0001;1.00015;1.00011;1.00015;229.645;-0.0628674;37.9721;-0.456111;0.0882692;-3.09631;57.6828;35.5031;28.9047;22.9747;0.0719796;0.593709;3;
21.5739;1.04654;1.02989;0.998774;0.991253;0.983283;1.06342;1.0462;1.08352;1.04122;1.0378;1.04699;1.04811;1.04278;1.02413;1.00012;1.00012;1.00015;1.00012;1.00014;229.49;-0.146655;37.4596;0.181919;0.172325;-3.08702;57.6457;35.3348;28.9275;22.9549;0.0719851;0.593784;3;
21.705;1.04656;1.0299;0.998849;0.991264;0.983292;1.06344;1.04621;1.08352;1.04123;1.03781;1.047;1.04813;1.0428;1.02415;1.00014;1.00014;1.00015;1.00014;1.00013;229.613;-0.181582;37.2111;0.422374;0.0982113;-3.09086;57.6511;35.3136;28.9436;22.9509;0.071986;0.593797;3;
21.8361;1.04657;1.0299;0.998864;0.991232;0.983268;1.06345;1.04618;1.08351;1.0412;1.03778;1.04699;1.04814;1.0428;1.02413;1.00016;1.00016;1.00015;1.00016;1.00013;229.915;-0.158586;37.2637;0.256159;-0.0779924;-3.1046;57.6797;35.4196;28.9554;22.962;0.0719834;0.59376;3;
22.0982;1.04656;1.02986;0.998753;0.991141;0.983194;1.06344;1.04611;1.0835;1.04112;1.03772;1.04695;1.04813;1.04278;1.02407;1.00019;1.00018;1.00015;1.00018;1.00016;230.565;-0.0852015;37.8349;-0.724598;-0.299746;-3.13956;57.741;35.7677;28.9759;22.9941;0.0719752;0.593648;3;
22.3603;1.04653;1.02982;0.99859;0.991093;0.983152;1.06343;1.04609;1.0835;1.0411;1.0377;1.04693;1.04812;1.04277;1.02406;1.00019;1.0002;1.00018;1.00019;1.0002;230.863;-0.0674492;38.3416;-1.60312;-0.194477;-3.15797;57.767;35.9884;28.9907;23.0061;0.0719706;0.593585;3;
22.6225;1.04652;1.02981;0.99853;0.991092;0.98315;1.06343;1.0461;1.0835;1.04111;1.03771;1.04694;1.04812;1.04277;1.02407;1.0002;1.00021;1.0002;1.00021;1.00021;230.829;-0.073059;38.4182;-1.7518;-0.086927;-3.15201;57.7608;35.9871;28.9977;23.003;0.0719704;0.593582;3;
22.8846;1.04653;1.02982;0.998551;0.991112;0.983168;1.06344;1.04612;1.0835;1.04113;1.03772;1.04696;1.04813;1.04278;1.02408;1.00022;1.00022;1.00022;1.00022;1.00022;230.641;-0.0774369;38.2773;-1.47361;-0.0589165;-3.13326;57.7382;35.88;28.9965;22.9967;0.0719724;0.59361;3;
23.1468;1.04654;1.02983;0.998602;0.991137;0.983192;1.06345;1.04613;1.08351;1.04114;1.03774;1.04697;1.04814;1.0428;1.0241;1.00023;1.00023;1.00024;1.00023;1.00023;230.455;-0.0795956;38.1138;-1.13737;-0.0677186;-3.11485;57.7141;35.7759;28.9904;22.9911;0.071975;0.593645;3;
23.6711;1.04657;1.02986;0.998672;0.991174;0.983226;1.06346;1.04615;1.08352;1.04116;1.03776;1.04699;1.04815;1.04281;1.02411;1.00026;1.00026;1.00026;1.00026;1.00026;230.296;-0.0772859;37.9698;-0.844262;-0.0760232;-3.09602;57.6889;35.6994;28.9768;22.9841;0.0719787;0.593696;3;
24.1953;1.04659;1.02988;0.998704;0.991195;0.983245;1.06347;1.04617;1.08352;1.04118;1.03777;1.04699;1.04816;1.04281;1.02412;1.00028;1.00028;1.00028;1.00028;1.00028;230.247;-0.0726543;37.9286;-0.767536;-0.0693028;-3.08631;57.6782;35.6841;28.9668;22.9797;0.0719809;0.593726;3;
25.2439;1.04661;1.02991;0.998743;0.991221;0.98327;1.06347;1.04618;1.08353;1.04119;1.03778;1.047;1.04816;1.04282;1.02413;1.00032;1.00032;1.00032;1.00032;1.00032;230.173;-0.0655316;37.8741;-0.662411;-0.0563687;-3.07141;57.6633;35.6579;28.9535;22.9737;0.0719836;0.593764;3;
27.3411;1.04664;1.02994;0.998802;0.99126;0.983306;1.06348;1.0462;1.08354;1.04121;1.0378;1.04701;1.04817;1.04283;1.02415;1.00037;1.00037;1.00037;1.00037;1.00037;230.038;-0.0566461;37.7724;-0.459966;-0.0410447;-3.05077;57.6395;35.6043;28.9357;22.965;0.0719876;0.593818;3;
29.4382;1.04666;1.02996;0.998843;0.991286;0.98333;1.06348;1.04622;1.08354;1.04123;1.03782;1.04702;1.04817;1.04283;1.02416;1.00041;1.00041;1.00041;1.00041;1.00041;229.942;-0.0505288;37.7003;-0.316718;-0.0305471;-3.03754;57.6231;35.5669;28.9236;22.959;0.0719902;0.593855;3;
33.6325;1.04668;1.02998;0.998885;0.991313;0.983355;1.06349;1.04623;1.08355;1.04124;1.03783;1.04703;1.04818;1.04284;1.02417;1.00045;1.00045;1.00045;1.00045;1.00045;229.843;-0.0440715;37.6249;-0.167375;-0.0194601;-3.02478;57.6064;35.5282;28.9112;22.9528;0.071993;0.593892;3;
37.8268;1.04669;1.03;0.998908;0.991327;0.983368;1.06349;1.04624;1.08355;1.04125;1.03784;1.04704;1.04818;1.04284;1.02418;1.00047;1.00047;1.00047;1.00047;1.00047;229.791;-0.0406761;37.5854;-0.0890437;-0.0136298;-3.01843;57.5977;35.508;28.9048;22.9497;0.0719944;0.593912;3;
46.2154;1.0467;1.03;0.998923;0.991337;0.983377;1.06349;1.04625;1.08355;1.04126;1.03784;1.04704;1.04818;1.04285;1.02418;1.00048;1.00048;1.00048;1.00048;1.00048;229.754;-0.0382564;37.5572;-0.0332657;-0.00947452;-3.01408;57.5916;35.4936;28.9003;22.9474;0.0719954;0.593925;3;
54.6041;1.0467;1.03001;0.998929;0.99134;0.983381;1.06349;1.04625;1.08355;1.04126;1.03784;1.04704;1.04819;1.04285;1.02418;1.00048;1.00048;1.00048;1.00048;1.00048;229.741;-0.0373944;37.5472;-0.0134042;-0.00799431;-3.01257;57.5895;35.4885;28.8987;22.9466;0.0719957;0.59393;3;
64.6041;1.0467;1.03001;0.998931;0.991342;0.983382;1.06349;1.04625;1.08355;1.04126;1.03784;1.04704;1.04819;1.04285;1.02418;1.00049;1.00049;1.00049;1.00049;1.00049;229.736;-0.0370682;37.5434;-0.00588886;-0.00743411;-3.01201;57.5887;35.4866;28.8981;22.9463;0.0719959;0.593932;3;
74.6041;1.0467;1.03001;0.998932;0.991342;0.983382;1.06349;1.04625;1.08355;1.04126;1.03784;1.04704;1.04819;1.04285;1.02418;1.00049;1.00049;1.00049;1.00049;1.00049;229.734;-0.0369709;37.5422;-0.00364716;-0.007267;-3.01184;57.5884;35.486;28.898;22.9462;0.0719959;0.593933;3;
80;1.0467;1.03001;0.998932;0.991342;0.983382;1.06349;1.04625;1.08355;1.04126;1.03784;1.04704;1.04819;1.04285;1.02418;1.00049;1.00049;1.00049;1.00049;1.00049;229.734;-0.036952;37.542;-0.00321274;-0.00723461;-3.01181;57.5884;35.4859;28.8979;22.9462;0.0719959;0.593933;4;
80;1.04714;1.0306;0.999184;0.993127;0.986579;1.05619;1.04593;1.08341;1.03973;1.03532;1.0422;1.04137;1.03646;1.02059;1.00049;1.00049;1.00049;1.00049;1.00049;229.713;0.107677;37.3107;-0.388478;0.0842669;-4.52803;55.9233;34.5819;32.7022;23.0492;0.0723472;0.598771;4;
80;1.04714;1.0306;0.999184;0.993127;0.986579;1.05619;1.04593;1.08341;1.03973;1.03532;1.0422;1.04137;1.03646;1.02059;1.00049;1.00049;1.00049;1.00049;1.00049;229.713;0.10767;37.3107;-0.388478;0.0842666;-4.52802;55.9233;34.5819;32.7022;23.0492;0.0723472;0.598771;4;
80;1.04714;1.0306;0.999184;0.993127;0.986579;1.05619;1.04593;1.08341;1.03973;1.03532;1.0422;1.04137;1.03646;1.02059;1.00049;1.00049;1.00049;1.00049;1.00049;229.713;0.107686;37.3107;-0.388472;0.0842711;-4.52802;55.9233;34.5819;32.7022;23.0492;0.0723472;0.598771;4;
80;1.04714;1.0306;0.999184;0.993127;0.986579;1.05619;1.04593;1.08341;1.03973;1.03532;1.0422;1.04137;1.03646;1.02059;1.00049;1.00049;1.00049;1.00049;1.00049;229.713;0.107647;37.3107;-0.388474;0.0842682;-4.528;55.9233;34.5819;32.7021;23.0492;0.0723472;0.598771;4;
80;1.04714;1.0306;0.999184;0.993127;0.986579;1.05619;1.04593;1.08341;1.03973;1.03532;1.0422;1.04137;1.03646;1.02059;1.00049;1.00049;1.00049;1.00049;1.00049;229.713;0.107614;37.3107;-0.388468;0.0842698;-4.52797;55.9234;34.5819;32.702;23.0492;0.0723472;0.598771;4;
80;1.04714;1.0306;0.999184;0.993127;0.986578;1.05619;1.04593;1.08341;1.03973;1.03532;1.0422;1.04137;1.03646;1.02059;1.00049;1.00049;1.00049;1.00049;1.00049;229.713;0.107547;37.3107;-0.388458;0.084273;-4.52791;55.9235;34.582;32.7017;23.0493;0.0723472;0.598771;4;
80.0001;1.04714;1.0306;0.999184;0.993127;0.986578;1.05619;1.04593;1.08341;1.03973;1.03532;1.0422;1.04137;1.03646;1.02059;1.00049;1.00049;1.00049;1.00049;1.00049;229.713;0.107413;37.3107;-0.388436;0.0842795;-4.52778;55.9237;34.5821;32.7011;23.0494;0.0723472;0.59877;4;
80.0001;1.04714;1.0306;0.999184;0.993127;0.986578;1.05618;1.04593;1.08341;1.03972;1.03532;1.0422;1.04137;1.03645;1.02059;1.00049;1.00049;1.00049;1.00049;1.00049;229.713;0.107146;37.3107;-0.388393;0.0842923;-4.52753;55.9242;34.5823;32.6999;23.0495;0.0723472;0.59877;4;
80.0003;1.04714;1.0306;0.999184;0.993126;0.986577;1.05618;1.04593;1.0834;1.03972;1.03532;1.0422;1.04136;1.03645;1.02059;1.00049;1.00049;1.00049;1.00049;1.00049;229.713;0.106614;37.3108;-0.388308;0.0843177;-4.52704;55.9251;34.5827;32.6975;23.0499;0.0723471;0.598769;4;
80.0005;1.04714;1.0306;0.999185;0.993125;0.986576;1.05617;1.04593;1.0834;1.03972;1.03532;1.04219;1.04135;1.03644;1.02058;1.00049;1.00049;1.00049;1.00049;1.00049;229.713;0.105559;37.3109;-0.38814;0.0843674;-4.52605;55.927;34.5835;32.6928;23.0506;0.0723469;0.598766;4;
80.001;1.04714;1.0306;0.999185;0.993123;0.986573;1.05616;1.04592;1.0834;1.03971;1.03531;1.04218;1.04134;1.03643;1.02057;1.00049;1.00049;1.00049;1.00049;1.00049;229.713;0.103488;37.311;-0.38781;0.0844628;-4.52412;55.9306;34.585;32.6835;23.0519;0.0723466;0.598762;4;
80.002;1.04714;1.0306;0.999186;0.993118;0.986567;1.05612;1.04591;1.0834;1.0397;1.03529;1.04215;1.04131;1.0364;1.02055;1.00049;1.00049;1.00049;1.00049;1.00049;229.713;0.099487;37.3114;-0.387177;0.0846379;-4.52039;55.9376;34.5879;32.6657;23.0544;0.072346;0.598753;4;
80.0041;1.04715;1.0306;0.999189;0.99311;0.986557;1.05607;1.0459;1.08339;1.03968;1.03526;1.04211;1.04126;1.03635;1.02052;1.00049;1.00049;1.00049;1.00049;1.00049;229.714;0.0920234;37.3121;-0.386013;0.0849288;-4.51345;55.9508;34.5933;32.6325;23.0589;0.0723449;0.598738;4;
80.0082;1.04715;1.03061;0.999193;0.993098;0.986541;1.05597;1.04587;1.08338;1.03964;1.03522;1.04204;1.04116;1.03626;1.02046;1.00049;1.00049;1.00049;1.00049;1.00049;229.715;0.0790044;37.3136;-0.384036;0.0853;-4.50148;55.9742;34.6024;32.5757;23.0665;0.0723431;0.598714;4;
80.0164;1.04717;1.03062;0.999204;0.993083;0.986522;1.05583;1.04584;1.08336;1.03959;1.03515;1.04194;1.04103;1.03614;1.02038;1.00049;1.00049;1.00049;1.00048;1.00049;229.72;0.0590303;37.3168;-0.38115;0.0853677;-4.48394;56.0109;34.6147;32.4939;23.0765;0.072341;0.598684;4;
80.0328;1.0472;1.03066;0.999229;0.993087;0.986521;1.05573;1.04583;1.08335;1.03956;1.03511;1.04187;1.04094;1.03605;1.02032;1.00049;1.00049;1.00049;1.00048;1.00048;229.733;0.0348277;37.3248;-0.377812;0.0836627;-4.46726;56.0541;34.6224;32.4238;23.0813;0.0723409;0.598683;4;
80.0655;1.04728;1.03074;0.999285;0.993161;0.986601;1.05589;1.0459;1.08339;1.03965;1.03521;1.042;1.04109;1.03619;1.02043;1.00049;1.00049;1.00049;1.00048;1.00048;229.767;0.0148311;37.347;-0.373463;0.0760993;-4.47365;56.0725;34.6004;32.491;23.0579;0.0723497;0.598805;4;
80.0983;1.04737;1.03083;0.999345;0.993283;0.986737;1.05631;1.04604;1.08345;1.03985;1.03545;1.04232;1.04149;1.03658;1.02071;1.00049;1.00049;1.00049;1.00048;1.00048;229.806;0.0103514;37.3765;-0.367455;0.0649388;-4.50761;56.0403;34.5518;32.7079;23.0113;0.0723647;0.599012;4;
80.1311;1.04745;1.03091;0.999406;0.993415;0.986886;1.0568;1.0462;1.08353;1.04008;1.03572;1.0427;1.04196;1.03703;1.02103;1.00049;1.00049;1.00049;1.00047;1.00048;229.844;0.00538325;37.4112;-0.356409;0.0515873;-4.54798;55.9914;34.4961;32.9663;22.9593;0.0723811;0.599237;4;
80.1966;1.0476;1.03107;0.999522;0.993652;0.987153;1.05768;1.04649;1.08366;1.0405;1.03622;1.04339;1.04279;1.03783;1.02161;1.00049;1.00049;1.00049;1.00047;1.00048;229.901;-0.0191486;37.4869;-0.316982;0.0212091;-4.61609;55.9008;34.3943;33.4297;22.8665;0.0724104;0.599642;4;
80.3277;1.04782;1.03131;0.999719;0.993974;0.98751;1.05877;1.04687;1.08384;1.04103;1.03684;1.04423;1.04383;1.03882;1.02233;1.00048;1.00049;1.00049;1.00047;1.00048;229.895;-0.0735459;37.6013;-0.173425;-0.0294712;-4.68753;55.7879;34.2521;33.9903;22.7464;0.0724497;0.600184;4;
80.4588;1.048;1.03149;0.999888;0.994218;0.987776;1.05949;1.04714;1.08396;1.04139;1.03726;1.0448;1.04451;1.03949;1.02282;1.00048;1.00049;1.00049;1.00048;1.00048;229.838;-0.0928587;37.6515;-0.0262372;-0.0513727;-4.73144;55.7155;34.1469;34.3455;22.6599;0.072479;0.600589;4;
80.5898;1.04814;1.03165;1.00003;0.994407;0.987979;1.05998;1.04733;1.08404;1.04165;1.03756;1.04519;1.04498;1.03994;1.02315;1.00048;1.00049;1.00049;1.00049;1.00049;229.771;-0.0848431;37.6504;0.0987503;-0.0468281;-4.76042;55.6698;34.0718;34.5696;22.5953;0.0725014;0.600898;4;
80.852;1.04836;1.03187;1.00025;0.994687;0.988276;1.06062;1.04759;1.08415;1.042;1.03796;1.04571;1.0456;1.04053;1.0236;1.00048;1.00048;1.00049;1.00049;1.00049;229.682;-0.0537697;37.6053;0.264485;-0.0116209;-4.79942;55.6204;33.9816;34.8423;22.5012;0.072534;0.601349;4;
81.1141;1.04845;1.03197;1.00035;0.994791;0.988383;1.06079;1.04767;1.08417;1.0421;1.03807;1.04585;1.04575;1.04068;1.02372;1.00048;1.00048;1.00048;1.00049;1.00049;229.719;-0.0413308;37.585;0.251506;0.0142804;-4.81271;55.6307;33.9915;34.8946;22.4654;0.0725458;0.601513;4;
81.3763;1.04851;1.03203;1.0004;0.994839;0.988433;1.06086;1.04771;1.08418;1.04215;1.03812;1.04591;1.04583;1.04075;1.02378;1.00048;1.00048;1.00048;1.00048;1.00048;229.787;-0.0450371;37.6142;0.187828;0.0124033;-4.82077;55.6473;34.02;34.9187;22.4475;0.0725513;0.601588;4;
81.9005;1.04855;1.03207;1.00043;0.994869;0.988465;1.0609;1.04773;1.08418;1.04217;1.03815;1.04594;1.04587;1.04079;1.02381;1.00048;1.00048;1.00048;1.00048;1.00048;229.854;-0.0493229;37.6636;0.109078;0.0024708;-4.82734;55.6664;34.0522;34.932;22.4349;0.0725548;0.601637;4;
82.9491;1.04857;1.03209;1.00045;0.994883;0.98848;1.06092;1.04773;1.08417;1.04218;1.03816;1.04596;1.04588;1.04081;1.02382;1.00047;1.00047;1.00047;1.00047;1.00047;229.872;-0.0502752;37.6812;0.0850246;-0.000188373;-4.83115;55.6766;34.0635;34.9348;22.4285;0.0725564;0.601659;4;
85.0463;1.04857;1.03209;1.00045;0.994884;0.98848;1.06092;1.04773;1.08417;1.04218;1.03816;1.04596;1.04588;1.04081;1.02382;1.00047;1.00047;1.00047;1.00047;1.00047;229.889;-0.0514307;37.6932;0.0627911;-0.0020423;-4.83509;55.6824;34.0716;34.9362;22.4274;0.0725565;0.60166;4;
89.2406;1.04856;1.03209;1.00044;0.994878;0.988475;1.06092;1.04773;1.08417;1.04218;1.03816;1.04596;1.04588;1.04081;1.02382;1.00046;1.00046;1.00046;1.00046;1.00046;229.909;-0.0527541;37.7086;0.0321397;-0.0043053;-4.83877;55.6867;34.0803;34.9386;22.4284;0.0725559;0.601652;4;
90;1.04856;1.03209;1.00044;0.994878;0.988475;1.06092;1.04773;1.08417;1.04218;1.03816;1.04596;1.04588;1.04081;1.02382;1.00046;1.00046;1.00046;1.00046;1.00046;229.911;-0.0528403;37.7096;0.030134;-0.00445334;-4.83897;55.6869;34.0808;34.9388;22.4285;0.0725559;0.601652;5;
90;1.04877;1.03237;1.00056;0.99572;0.99;1.05721;1.04753;1.08408;1.04137;1.03685;1.04348;1.04242;1.03756;1.02198;1.00046;1.00046;1.00046;1.00046;1.00046;229.894;0.0195396;37.5917;-0.156766;0.0404261;-5.56207;54.8943;33.6545;36.8457;22.4924;0.072724;0.603978;5;
90;1.04896;1.03262;1.00067;0.996487;0.991391;1.05383;1.04735;1.08399;1.04063;1.03566;1.04123;1.03926;1.03459;1.02029;1.00046;1.00046;1.00046;1.00046;1.00046;229.879;0.0855139;37.4843;-0.327133;0.0813355;-6.2212;54.1718;33.2659;38.584;22.5507;0.0728772;0.606099;5;
90;1.04896;1.03262;1.00067;0.996487;0.991391;1.05383;1.04735;1.08399;1.04063;1.03566;1.04123;1.03926;1.03459;1.02029;1.00046;1.00046;1.00046;1.00046;1.00046;229.879;0.0856437;37.4843;-0.327127;0.0813407;-6.22107;54.172;33.266;38.591;22.5507;0.0728771;0.606096;5;
90;1.04896;1.03262;1.00067;0.996486;0.991389;1.05383;1.04735;1.08399;1.04063;1.03566;1.04123;1.03926;1.0346;1.0203;1.00046;1.00046;1.00046;1.00046;1.00046;229.879;0.0854328;37.4844;-0.326917;0.0812855;-6.22035;54.1728;33.2664;38.5824;22.5506;0.072877;0.606096;5;
90;1.04896;1.03262;1.00067;0.996487;0.991391;1.05383;1.04735;1.08399;1.04063;1.03566;1.04123;1.03926;1.03459;1.02029;1.00046;1.00046;1.00046;1.00046;1.00046;229.879;0.085486;37.4843;-0.327128;0.0813369;-6.22117;54.1719;33.266;38.5838;22.5507;0.0728772;0.606099;5;
90;1.04896;1.03262;1.00067;0.996487;0.99139;1.05382;1.04735;1.08399;1.04063;1.03566;1.04123;1.03926;1.03459;1.02029;1.00046;1.00046;1.00046;1.00046;1.00046;229.879;0.0854539;37.4843;-0.327123;0.0813385;-6.22114;54.1719;33.266;38.5837;22.5507;0.0728772;0.606099;5;
90;1.04896;1.03262;1.00067;0.996487;0.99139;1.05382;1.04735;1.08399;1.04063;1.03566;1.04123;1.03926;1.03459;1.02029;1.00046;1.00046;1.00046;1.00046;1.00046;229.879;0.0853899;37.4843;-0.327113;0.0813417;-6.22108;54.172;33.266;38.5834;22.5508;0.0728772;0.606098;5;
90.0001;1.04896;1.03262;1.00067;0.996487;0.99139;1.05382;1.04735;1.08399;1.04063;1.03566;1.04123;1.03926;1.03459;1.02029;1.00046;1.00046;1.00046;1.00046;1.00046;229.879;0.085262;37.4843;-0.327093;0.0813479;-6.22096;54.1723;33.2661;38.5828;22.5509;0.0728771;0.606098;5;
90.0001;1.04896;1.03262;1.00067;0.996487;0.99139;1.05382;1.04735;1.08399;1.04063;1.03566;1.04123;1.03926;1.03459;1.02029;1.00046;1.00046;1.00046;1.00046;1.00046;229.879;0.085007;37.4843;-0.327054;0.0813604;-6.22072;54.1727;33.2663;38.5816;22.551;0.0728771;0.606098;5;
90.0003;1.04896;1.03262;1.00067;0.996486;0.991389;1.05382;1.04735;1.08399;1.04062;1.03566;1.04122;1.03925;1.03459;1.02029;1.00046;1.00046;1.00046;1.00046;1.00046;229.879;0.0844999;37.4844;-0.326974;0.0813849;-6.22024;54.1736;33.2667;38.5793;22.5514;0.072877;0.606096;5;
90.0005;1.04896;1.03262;1.00067;0.996485;0.991388;1.05381;1.04735;1.08399;1.04062;1.03565;1.04122;1.03924;1.03458;1.02028;1.00046;1.00046;1.00046;1.00046;1.00046;229.879;0.0834976;37.4845;-0.326819;0.0814328;-6.2193;54.1753;33.2674;38.5747;22.552;0.0728769;0.606094;5;
90.001;1.04896;1.03262;1.00067;0.996483;0.991385;1.05379;1.04734;1.08399;1.04062;1.03564;1.04121;1.03923;1.03457;1.02028;1.00046;1.00046;1.00046;1.00046;1.00046;229.879;0.0815394;37.4846;-0.326516;0.0815234;-6.21745;54.1787;33.2689;38.5658;22.5533;0.0728766;0.60609;5;
90.002;1.04897;1.03262;1.00067;0.996479;0.99138;1.05376;1.04733;1.08399;1.0406;1.03563;1.04118;1.0392;1.03454;1.02026;1.00046;1.00046;1.00046;1.00046;1.00046;229.879;0.0778002;37.485;-0.325943;0.0816851;-6.21394;54.1852;33.2716;38.5487;22.5556;0.072876;0.606082;5;
90.0041;1.04897;1.03263;1.00067;0.996471;0.99137;1.05371;1.04732;1.08398;1.04058;1.0356;1.04115;1.03915;1.03449;1.02023;1.00046;1.00046;1.00046;1.00046;1.00046;229.88;0.0709721;37.4857;-0.324918;0.0819372;-6.20755;54.1971;33.2766;38.5178;22.5598;0.072875;0.606068;5;
90.0082;1.04897;1.03263;1.00068;0.996461;0.991357;1.05363;1.0473;1.08397;1.04055;1.03556;1.04108;1.03907;1.03442;1.02017;1.00046;1.00046;1.00046;1.00046;1.00046;229.881;0.0595161;37.4871;-0.323263;0.0821991;-6.19705;54.2175;33.2844;38.4675;22.5664;0.0728734;0.606047;5;
90.0164;1.04899;1.03265;1.00069;0.996451;0.991344;1.05352;1.04728;1.08396;1.04051;1.03551;1.04101;1.03897;1.03432;1.02011;1.00046;1.00046;1.00046;1.00046;1.00046;229.886;0.0430188;37.4904;-0.321025;0.0820015;-6.18321;54.2469;33.2935;38.4034;22.5737;0.072872;0.606027;5;
90.0328;1.04902;1.03268;1.00071;0.996464;0.991355;1.05348;1.04728;1.08396;1.04051;1.0355;1.04098;1.03893;1.03429;1.02009;1.00046;1.00046;1.00046;1.00045;1.00046;229.899;0.0244269;37.4993;-0.318435;0.0798093;-6.17384;54.2758;33.2947;38.3704;22.5731;0.0728733;0.606044;5;
90.0655;1.0491;1.03275;1.00076;0.996545;0.991444;1.05371;1.04736;1.084;1.04062;1.03564;1.04116;1.03915;1.03449;1.02025;1.00046;1.00046;1.00046;1.00045;1.00045;229.932;0.00759525;37.524;-0.31296;0.0715611;-6.18774;54.2767;33.2664;38.4802;22.5448;0.0728831;0.60618;5;
90.0983;1.04917;1.03283;1.00081;0.996648;0.991558;1.05406;1.04748;1.08405;1.04079;1.03584;1.04143;1.03948;1.03481;1.02048;1.00046;1.00046;1.00046;1.00045;1.00045;229.965;-0.00388436;37.5539;-0.304088;0.0608355;-6.21459;54.252;33.2252;38.6637;22.5058;0.0728957;0.606355;5;
90.1638;1.04931;1.03297;1.00092;0.996854;0.99179;1.05481;1.04773;1.08417;1.04115;1.03626;1.04202;1.0402;1.0355;1.02097;1.00046;1.00046;1.00046;1.00045;1.00045;230.016;-0.0299974;37.6217;-0.268752;0.0345288;-6.27229;54.1815;33.1373;39.0639;22.4255;0.0729212;0.606709;5;
90.2949;1.04953;1.03321;1.00111;0.997182;0.992154;1.05595;1.04812;1.08435;1.0417;1.03691;1.04291;1.04128;1.03654;1.02173;1.00046;1.00046;1.00046;1.00045;1.00045;230.04;-0.0774459;37.7305;-0.15409;-0.0112467;-6.35421;54.0666;32.9934;39.6684;22.3008;0.0729614;0.607267;5;
90.426;1.0497;1.03339;1.00127;0.997436;0.992433;1.05676;1.04841;1.08448;1.0421;1.03738;1.04354;1.04205;1.03728;1.02227;1.00046;1.00046;1.00046;1.00045;1.00045;230.011;-0.100244;37.7895;-0.0273598;-0.0360116;-6.40825;53.9858;32.8836;40.0804;22.2082;0.0729922;0.607693;5;
90.6881;1.04994;1.03364;1.0015;0.997751;0.992772;1.05759;1.04873;1.08462;1.04253;1.03788;1.0442;1.04285;1.03805;1.02284;1.00045;1.00046;1.00046;1.00046;1.00046;229.937;-0.089074;37.7903;0.144691;-0.0253198;-6.46274;53.9116;32.7688;40.475;22.0986;0.0730295;0.608212;5;
90.9503;1.05008;1.0338;1.00165;0.997936;0.992967;1.05801;1.04891;1.08469;1.04276;1.03814;1.04454;1.04325;1.03844;1.02313;1.00045;1.00046;1.00046;1.00046;1.00046;229.919;-0.0736171;37.7742;0.212864;-0.00376875;-6.49151;53.887;32.7264;40.6584;22.0349;0.0730511;0.608512;5;
91.2124;1.05017;1.03389;1.00174;0.998037;0.993074;1.05822;1.04899;1.08472;1.04288;1.03827;1.04471;1.04345;1.03863;1.02328;1.00045;1.00045;1.00045;1.00045;1.00045;229.945;-0.0678491;37.7794;0.208043;0.00649096;-6.50736;53.8865;32.7244;40.743;21.9995;0.0730629;0.608675;5;
91.7367;1.05025;1.03396;1.0018;0.998107;0.993148;1.05835;1.04905;1.08473;1.04295;1.03835;1.04481;1.04357;1.03875;1.02337;1.00045;1.00045;1.00045;1.00045;1.00045;230.007;-0.0682486;37.8157;0.148786;0.00510398;-6.51998;53.9002;32.7471;40.793;21.9732;0.0730711;0.608789;5;
92.7853;1.05028;1.034;1.00183;0.998137;0.99318;1.0584;1.04907;1.08473;1.04298;1.03838;1.04485;1.04362;1.03879;1.0234;1.00044;1.00044;1.00044;1.00044;1.00044;230.045;-0.069607;37.8435;0.106028;0.00169938;-6.52701;53.9133;32.7648;40.8092;21.9609;0.0730746;0.608837;5;
94.8824;1.05029;1.03401;1.00184;0.998141;0.993184;1.05841;1.04907;1.08473;1.04298;1.03839;1.04486;1.04363;1.0388;1.02341;1.00044;1.00044;1.00044;1.00044;1.00044;230.068;-0.071062;37.8612;0.0742894;-0.000889044;-6.53195;53.9209;32.7761;40.8132;21.9584;0.073075;0.608843;5;
99.0767;1.05028;1.034;1.00183;0.998135;0.993179;1.0584;1.04907;1.08473;1.04298;1.03839;1.04486;1.04362;1.0388;1.02341;1.00043;1.00043;1.00043;1.00043;1.00043;230.093;-0.0726225;37.8794;0.0383804;-0.00356198;-6.53611;53.926;32.7863;40.8161;21.9593;0.0730744;0.608835;5;
107.465;1.05028;1.034;1.00182;0.998131;0.993174;1.0584;1.04907;1.08473;1.04298;1.03838;1.04485;1.04362;1.0388;1.0234;1.00042;1.00042;1.00042;1.00042;1.00042;230.11;-0.0737466;37.8925;0.0123295;-0.00548876;-6.53861;53.9291;32.7932;40.8182;21.9603;0.0730739;0.608828;5;
117.465;1.05028;1.034;1.00182;0.998129;0.993173;1.0584;1.04906;1.08473;1.04298;1.03838;1.04485;1.04362;1.0388;1.0234;1.00042;1.00042;1.00042;1.00042;1.00042;230.116;-0.0741732;37.8974;0.00248844;-0.00621992;-6.53945;53.9302;32.7958;40.819;21.9607;0.0730738;0.608826;5;
127.465;1.05028;1.034;1.00182;0.998128;0.993172;1.0584;1.04906;1.08473;1.04298;1.03838;1.04485;1.04362;1.0388;1.0234;1.00042;1.00042;1.00042;1.00042;1.00042;230.118;-0.0743007;37.8989;-0.000443601;-0.00643837;-6.53968;53.9305;32.7965;40.8192;21.9609;0.0730737;0.608825;5;
137.465;1.05028;1.034;1.00182;0.998128;0.993172;1.0584;1.04906;1.08473;1.04298;1.03838;1.04485;1.04362;1.0388;1.0234;1.00042;1.00042;1.00042;1.00042;1.00042;230.119;-0.0743464;37.8995;-0.00149665;-0.00651672;-6.53976;53.9307;32.7968;40.8193;21.9609;0.0730737;0.608825;5;
147.465;1.05028;1.034;1.00182;0.998128;0.993172;1.0584;1.04906;1.08473;1.04298;1.03838;1.04485;1.04362;1.0388;1.0234;1.00042;1.00042;1.00042;1.00042;1.00042;230.119;-0.0743621;37.8996;-0.00185942;-0.00654375;-6.53979;53.9307;32.7969;40.8193;21.9609;0.0730737;0.608825;5;
150;1.05028;1.034;1.00182;0.998128;0.993172;1.0584;1.04906;1.08473;1.04298;1.03838;1.04485;1.04362;1.0388;1.0234;1.00042;1.00042;1.00042;1.00042;1.00042;230.119;-0.0743651;37.8997;-0.00192767;-0.00654883;-6.5398;53.9307;32.7969;40.8193;21.9609;0.0730737;0.608825;5;
